🇨🇳 | 中央频道,#genre#
1,http://36.99.70.11/liveplay-kk.rtxapp.com/live/program/live/cctv1hd8m/8000000/mnf.m3u8
2,http://36.99.70.12/liveplay-kk.rtxapp.com/live/program/live/cctv1hd8m/8000000/mnf.m3u8
3,http://36.99.70.20/liveplay-kk.rtxapp.com/live/program/live/cctv1hd8m/8000000/mnf.m3u8
4,http://36.99.70.21/liveplay-kk.rtxapp.com/live/program/live/cctv1hd8m/8000000/mnf.m3u8
5,http://36.99.70.22/liveplay-kk.rtxapp.com/live/program/live/cctv1hd8m/8000000/mnf.m3u8
6,http://36.99.70.23/liveplay-kk.rtxapp.com/live/program/live/cctv1hd8m/8000000/mnf.m3u8
7,http://36.99.70.24/liveplay-kk.rtxapp.com/live/program/live/cctv1hd8m/8000000/mnf.m3u8
8,http://36.99.70.25/liveplay-kk.rtxapp.com/live/program/live/cctv1hd8m/8000000/mnf.m3u8
9,http://36.99.70.26/liveplay-kk.rtxapp.com/live/program/live/cctv1hd8m/8000000/mnf.m3u8
10,http://36.99.70.27/liveplay-kk.rtxapp.com/live/program/live/cctv1hd8m/8000000/mnf.m3u8
11,http://36.99.70.28/liveplay-kk.rtxapp.com/live/program/live/cctv1hd8m/8000000/mnf.m3u8
12,http://36.99.70.29/liveplay-kk.rtxapp.com/live/program/live/cctv1hd8m/8000000/mnf.m3u8
13,http://36.99.70.33/liveplay-kk.rtxapp.com/live/program/live/cctv1hd8m/8000000/mnf.m3u8
14,http://36.99.70.35/liveplay-kk.rtxapp.com/live/program/live/cctv1hd8m/8000000/mnf.m3u8
15,http://36.99.70.36/liveplay-kk.rtxapp.com/live/program/live/cctv1hd8m/8000000/mnf.m3u8
16,http://36.99.70.37/liveplay-kk.rtxapp.com/live/program/live/cctv1hd8m/8000000/mnf.m3u8
17,http://36.99.70.38/liveplay-kk.rtxapp.com/live/program/live/cctv1hd8m/8000000/mnf.m3u8
18,http://36.99.70.39/liveplay-kk.rtxapp.com/live/program/live/cctv1hd8m/8000000/mnf.m3u8
19,http://36.99.70.41/liveplay-kk.rtxapp.com/live/program/live/cctv1hd8m/8000000/mnf.m3u8
20,http://36.99.70.42/liveplay-kk.rtxapp.com/live/program/live/cctv1hd8m/8000000/mnf.m3u8
21,http://36.99.70.43/liveplay-kk.rtxapp.com/live/program/live/cctv1hd8m/8000000/mnf.m3u8
22,http://36.99.70.44/liveplay-kk.rtxapp.com/live/program/live/cctv1hd8m/8000000/mnf.m3u8
23,http://36.99.70.45/liveplay-kk.rtxapp.com/live/program/live/cctv1hd8m/8000000/mnf.m3u8
24,http://36.99.70.46/liveplay-kk.rtxapp.com/live/program/live/cctv1hd8m/8000000/mnf.m3u8
25,http://36.99.70.47/liveplay-kk.rtxapp.com/live/program/live/cctv1hd8m/8000000/mnf.m3u8
26,http://36.99.70.48/liveplay-kk.rtxapp.com/live/program/live/cctv1hd8m/8000000/mnf.m3u8
27,http://36.99.70.49/liveplay-kk.rtxapp.com/live/program/live/cctv1hd8m/8000000/mnf.m3u8
28,http://36.99.70.50/liveplay-kk.rtxapp.com/live/program/live/cctv1hd8m/8000000/mnf.m3u8
29,http://36.99.70.51/liveplay-kk.rtxapp.com/live/program/live/cctv1hd8m/8000000/mnf.m3u8
30,http://36.99.70.53/liveplay-kk.rtxapp.com/live/program/live/cctv1hd8m/8000000/mnf.m3u8
31,http://36.99.70.54/liveplay-kk.rtxapp.com/live/program/live/cctv1hd8m/8000000/mnf.m3u8
32,http://36.99.70.56/liveplay-kk.rtxapp.com/live/program/live/cctv1hd8m/8000000/mnf.m3u8
33,http://36.99.70.58/liveplay-kk.rtxapp.com/live/program/live/cctv1hd8m/8000000/mnf.m3u8
34,http://36.99.70.59/liveplay-kk.rtxapp.com/live/program/live/cctv1hd8m/8000000/mnf.m3u8
35,http://36.99.70.103/liveplay-kk.rtxapp.com/live/program/live/cctv1hd8m/8000000/mnf.m3u8
36,http://36.99.70.130/liveplay-kk.rtxapp.com/live/program/live/cctv1hd8m/8000000/mnf.m3u8
37,http://36.99.70.131/liveplay-kk.rtxapp.com/live/program/live/cctv1hd8m/8000000/mnf.m3u8
38,http://36.99.70.132/liveplay-kk.rtxapp.com/live/program/live/cctv1hd8m/8000000/mnf.m3u8
39,http://36.99.70.134/liveplay-kk.rtxapp.com/live/program/live/cctv1hd8m/8000000/mnf.m3u8
40,http://36.99.70.135/liveplay-kk.rtxapp.com/live/program/live/cctv1hd8m/8000000/mnf.m3u8
41,http://36.99.70.137/liveplay-kk.rtxapp.com/live/program/live/cctv1hd8m/8000000/mnf.m3u8
42,http://36.99.70.168/liveplay-kk.rtxapp.com/live/program/live/cctv1hd8m/8000000/mnf.m3u8
43,http://36.99.70.201/liveplay-kk.rtxapp.com/live/program/live/cctv1hd8m/8000000/mnf.m3u8
44,http://112.45.117.11/liveplay-kk.rtxapp.com/live/program/live/cctv1hd8m/8000000/mnf.m3u8
45,http://112.45.117.14/liveplay-kk.rtxapp.com/live/program/live/cctv1hd8m/8000000/mnf.m3u8
46,http://112.45.117.15/liveplay-kk.rtxapp.com/live/program/live/cctv1hd8m/8000000/mnf.m3u8
47,http://112.45.117.16/liveplay-kk.rtxapp.com/live/program/live/cctv1hd8m/8000000/mnf.m3u8
48,http://112.45.117.19/liveplay-kk.rtxapp.com/live/program/live/cctv1hd8m/8000000/mnf.m3u8
49,http://112.45.117.26/liveplay-kk.rtxapp.com/live/program/live/cctv1hd8m/8000000/mnf.m3u8
50,http://112.45.117.31/liveplay-kk.rtxapp.com/live/program/live/cctv1hd8m/8000000/mnf.m3u8
51,http://112.45.117.32/liveplay-kk.rtxapp.com/live/program/live/cctv1hd8m/8000000/mnf.m3u8
52,http://112.45.117.35/liveplay-kk.rtxapp.com/live/program/live/cctv1hd8m/8000000/mnf.m3u8
53,http://112.45.117.38/liveplay-kk.rtxapp.com/live/program/live/cctv1hd8m/8000000/mnf.m3u8
54,http://112.45.117.46/liveplay-kk.rtxapp.com/live/program/live/cctv1hd8m/8000000/mnf.m3u8
55,http://112.45.117.80/liveplay-kk.rtxapp.com/live/program/live/cctv1hd8m/8000000/mnf.m3u8
56,http://112.45.117.90/liveplay-kk.rtxapp.com/live/program/live/cctv1hd8m/8000000/mnf.m3u8
57,http://112.45.117.104/liveplay-kk.rtxapp.com/live/program/live/cctv1hd8m/8000000/mnf.m3u8
58,http://112.45.117.107/liveplay-kk.rtxapp.com/live/program/live/cctv1hd8m/8000000/mnf.m3u8
59,http://112.45.117.141/liveplay-kk.rtxapp.com/live/program/live/cctv1hd8m/8000000/mnf.m3u8
60,http://112.45.117.144/liveplay-kk.rtxapp.com/live/program/live/cctv1hd8m/8000000/mnf.m3u8
61,http://112.45.117.155/liveplay-kk.rtxapp.com/live/program/live/cctv1hd8m/8000000/mnf.m3u8
62,http://112.45.117.167/liveplay-kk.rtxapp.com/live/program/live/cctv1hd8m/8000000/mnf.m3u8
63,http://112.45.117.224/liveplay-kk.rtxapp.com/live/program/live/cctv1hd8m/8000000/mnf.m3u8
64,http://112.45.117.225/liveplay-kk.rtxapp.com/live/program/live/cctv1hd8m/8000000/mnf.m3u8
65,http://182.254.61.37/liveplay-kk.rtxapp.com/live/program/live/cctv1hd8m/8000000/mnf.m3u8
66,http://182.254.61.119/liveplay-kk.rtxapp.com/live/program/live/cctv1hd8m/8000000/mnf.m3u8
68,http://182.254.61.194/liveplay-kk.rtxapp.com/live/program/live/cctv1hd8m/8000000/mnf.m3u8
69,http://182.254.61.225/liveplay-kk.rtxapp.com/live/program/live/cctv1hd8m/8000000/mnf.m3u8
70,http://120.221.209.114/liveplay-kk.rtxapp.com/live/program/live/cctv1hd8m/8000000/mnf.m3u8
71,http://150.138.173.14/liveplay-kk.rtxapp.com/live/program/live/cctv1hd8m/8000000/mnf.m3u8
72,http://150.138.173.15/liveplay-kk.rtxapp.com/live/program/live/cctv1hd8m/8000000/mnf.m3u8
73,http://150.138.173.16/liveplay-kk.rtxapp.com/live/program/live/cctv1hd8m/8000000/mnf.m3u8
74,http://150.138.173.23/liveplay-kk.rtxapp.com/live/program/live/cctv1hd8m/8000000/mnf.m3u8
75,http://150.138.173.24/liveplay-kk.rtxapp.com/live/program/live/cctv1hd8m/8000000/mnf.m3u8
76,http://150.138.173.25/liveplay-kk.rtxapp.com/live/program/live/cctv1hd8m/8000000/mnf.m3u8
77,http://150.138.173.32/liveplay-kk.rtxapp.com/live/program/live/cctv1hd8m/8000000/mnf.m3u8
78,http://150.138.173.33/liveplay-kk.rtxapp.com/live/program/live/cctv1hd8m/8000000/mnf.m3u8
79,http://150.138.173.35/liveplay-kk.rtxapp.com/live/program/live/cctv1hd8m/8000000/mnf.m3u8
80,http://150.138.173.36/liveplay-kk.rtxapp.com/live/program/live/cctv1hd8m/8000000/mnf.m3u8
81,http://150.138.173.42/liveplay-kk.rtxapp.com/live/program/live/cctv1hd8m/8000000/mnf.m3u8
82,http://150.138.173.43/liveplay-kk.rtxapp.com/live/program/live/cctv1hd8m/8000000/mnf.m3u8
83,http://150.138.173.44/liveplay-kk.rtxapp.com/live/program/live/cctv1hd8m/8000000/mnf.m3u8
84,http://150.138.173.45/liveplay-kk.rtxapp.com/live/program/live/cctv1hd8m/8000000/mnf.m3u8
85,http://150.138.173.46/liveplay-kk.rtxapp.com/live/program/live/cctv1hd8m/8000000/mnf.m3u8
86,http://150.138.173.54/liveplay-kk.rtxapp.com/live/program/live/cctv1hd8m/8000000/mnf.m3u8
87,http://150.138.173.55/liveplay-kk.rtxapp.com/live/program/live/cctv1hd8m/8000000/mnf.m3u8
88,http://150.138.173.56/liveplay-kk.rtxapp.com/live/program/live/cctv1hd8m/8000000/mnf.m3u8
89,http://150.138.173.67/liveplay-kk.rtxapp.com/live/program/live/cctv1hd8m/8000000/mnf.m3u8
90,http://150.138.173.74/liveplay-kk.rtxapp.com/live/program/live/cctv1hd8m/8000000/mnf.m3u8
91,http://150.138.173.76/liveplay-kk.rtxapp.com/live/program/live/cctv1hd8m/8000000/mnf.m3u8
92,http://150.138.173.77/liveplay-kk.rtxapp.com/live/program/live/cctv1hd8m/8000000/mnf.m3u8
93,http://150.138.173.84/liveplay-kk.rtxapp.com/live/program/live/cctv1hd8m/8000000/mnf.m3u8
94,http://150.138.173.85/liveplay-kk.rtxapp.com/live/program/live/cctv1hd8m/8000000/mnf.m3u8
95,http://150.138.173.86/liveplay-kk.rtxapp.com/live/program/live/cctv1hd8m/8000000/mnf.m3u8
96,http://150.138.173.96/liveplay-kk.rtxapp.com/live/program/live/cctv1hd8m/8000000/mnf.m3u8
97,http://150.138.173.97/liveplay-kk.rtxapp.com/live/program/live/cctv1hd8m/8000000/mnf.m3u8
98,http://150.138.173.100/liveplay-kk.rtxapp.com/live/program/live/cctv1hd8m/8000000/mnf.m3u8
99,http://150.138.173.103/liveplay-kk.rtxapp.com/live/program/live/cctv1hd8m/8000000/mnf.m3u8
100,http://150.138.173.184/liveplay-kk.rtxapp.com/live/program/live/cctv1hd8m/8000000/mnf.m3u8
101,http://150.138.173.189/liveplay-kk.rtxapp.com/live/program/live/cctv1hd8m/8000000/mnf.m3u8
102,http://150.138.173.210/liveplay-kk.rtxapp.com/live/program/live/cctv1hd8m/8000000/mnf.m3u8
103,http://120.240.232.11/liveplay-kk.rtxapp.com/live/program/live/cctv1hd8m/8000000/mnf.m3u8
104,http://120.240.232.14/liveplay-kk.rtxapp.com/live/program/live/cctv1hd8m/8000000/mnf.m3u8
105,http://120.240.232.19/liveplay-kk.rtxapp.com/live/program/live/cctv1hd8m/8000000/mnf.m3u8
106,http://120.240.232.31/liveplay-kk.rtxapp.com/live/program/live/cctv1hd8m/8000000/mnf.m3u8
107,http://120.240.232.41/liveplay-kk.rtxapp.com/live/program/live/cctv1hd8m/8000000/mnf.m3u8
108,http://120.240.232.45/liveplay-kk.rtxapp.com/live/program/live/cctv1hd8m/8000000/mnf.m3u8
109,http://120.240.232.47/liveplay-kk.rtxapp.com/live/program/live/cctv1hd8m/8000000/mnf.m3u8
110,http://120.240.232.54/liveplay-kk.rtxapp.com/live/program/live/cctv1hd8m/8000000/mnf.m3u8
111,http://120.240.232.60/liveplay-kk.rtxapp.com/live/program/live/cctv1hd8m/8000000/mnf.m3u8
112,http://120.240.232.61/liveplay-kk.rtxapp.com/live/program/live/cctv1hd8m/8000000/mnf.m3u8
113,http://120.240.232.69/liveplay-kk.rtxapp.com/live/program/live/cctv1hd8m/8000000/mnf.m3u8
114,http://120.240.232.71/liveplay-kk.rtxapp.com/live/program/live/cctv1hd8m/8000000/mnf.m3u8
115,http://120.240.232.72/liveplay-kk.rtxapp.com/live/program/live/cctv1hd8m/8000000/mnf.m3u8
116,http://120.240.232.74/liveplay-kk.rtxapp.com/live/program/live/cctv1hd8m/8000000/mnf.m3u8
117,http://120.240.232.76/liveplay-kk.rtxapp.com/live/program/live/cctv1hd8m/8000000/mnf.m3u8
118,http://120.240.232.83/liveplay-kk.rtxapp.com/live/program/live/cctv1hd8m/8000000/mnf.m3u8
119,http://120.240.232.100/liveplay-kk.rtxapp.com/live/program/live/cctv1hd8m/8000000/mnf.m3u8
120,http://120.240.232.106/liveplay-kk.rtxapp.com/live/program/live/cctv1hd8m/8000000/mnf.m3u8
121,http://120.240.232.112/liveplay-kk.rtxapp.com/live/program/live/cctv1hd8m/8000000/mnf.m3u8
122,http://120.240.232.116/liveplay-kk.rtxapp.com/live/program/live/cctv1hd8m/8000000/mnf.m3u8
123,http://120.240.232.118/liveplay-kk.rtxapp.com/live/program/live/cctv1hd8m/8000000/mnf.m3u8
124,http://120.240.232.125/liveplay-kk.rtxapp.com/live/program/live/cctv1hd8m/8000000/mnf.m3u8
125,http://120.240.232.128/liveplay-kk.rtxapp.com/live/program/live/cctv1hd8m/8000000/mnf.m3u8
126,http://120.240.232.130/liveplay-kk.rtxapp.com/live/program/live/cctv1hd8m/8000000/mnf.m3u8
127,http://120.240.232.132/liveplay-kk.rtxapp.com/live/program/live/cctv1hd8m/8000000/mnf.m3u8
128,http://120.240.232.137/liveplay-kk.rtxapp.com/live/program/live/cctv1hd8m/8000000/mnf.m3u8
129,http://120.240.232.138/liveplay-kk.rtxapp.com/live/program/live/cctv1hd8m/8000000/mnf.m3u8
130,http://120.240.232.139/liveplay-kk.rtxapp.com/live/program/live/cctv1hd8m/8000000/mnf.m3u8
131,http://120.240.232.141/liveplay-kk.rtxapp.com/live/program/live/cctv1hd8m/8000000/mnf.m3u8
132,http://120.240.232.145/liveplay-kk.rtxapp.com/live/program/live/cctv1hd8m/8000000/mnf.m3u8
133,http://120.240.232.149/liveplay-kk.rtxapp.com/live/program/live/cctv1hd8m/8000000/mnf.m3u8
134,http://120.240.232.151/liveplay-kk.rtxapp.com/live/program/live/cctv1hd8m/8000000/mnf.m3u8
135,http://120.240.232.164/liveplay-kk.rtxapp.com/live/program/live/cctv1hd8m/8000000/mnf.m3u8
136,http://120.240.232.167/liveplay-kk.rtxapp.com/live/program/live/cctv1hd8m/8000000/mnf.m3u8
137,http://120.240.232.168/liveplay-kk.rtxapp.com/live/program/live/cctv1hd8m/8000000/mnf.m3u8
138,http://120.240.232.173/liveplay-kk.rtxapp.com/live/program/live/cctv1hd8m/8000000/mnf.m3u8
139,http://120.240.232.186/liveplay-kk.rtxapp.com/live/program/live/cctv1hd8m/8000000/mnf.m3u8
140,http://120.240.232.187/liveplay-kk.rtxapp.com/live/program/live/cctv1hd8m/8000000/mnf.m3u8
141,http://120.240.232.188/liveplay-kk.rtxapp.com/live/program/live/cctv1hd8m/8000000/mnf.m3u8
142,http://120.240.232.191/liveplay-kk.rtxapp.com/live/program/live/cctv1hd8m/8000000/mnf.m3u8
143,http://120.240.232.193/liveplay-kk.rtxapp.com/live/program/live/cctv1hd8m/8000000/mnf.m3u8
144,http://120.240.232.194/liveplay-kk.rtxapp.com/live/program/live/cctv1hd8m/8000000/mnf.m3u8
145,http://120.240.232.196/liveplay-kk.rtxapp.com/live/program/live/cctv1hd8m/8000000/mnf.m3u8
146,http://120.240.232.202/liveplay-kk.rtxapp.com/live/program/live/cctv1hd8m/8000000/mnf.m3u8
147,http://120.240.232.203/liveplay-kk.rtxapp.com/live/program/live/cctv1hd8m/8000000/mnf.m3u8
148,http://120.240.232.205/liveplay-kk.rtxapp.com/live/program/live/cctv1hd8m/8000000/mnf.m3u8
149,http://120.240.232.208/liveplay-kk.rtxapp.com/live/program/live/cctv1hd8m/8000000/mnf.m3u8
150,http://120.240.232.210/liveplay-kk.rtxapp.com/live/program/live/cctv1hd8m/8000000/mnf.m3u8
151,http://120.240.232.212/liveplay-kk.rtxapp.com/live/program/live/cctv1hd8m/8000000/mnf.m3u8
152,http://120.240.232.218/liveplay-kk.rtxapp.com/live/program/live/cctv1hd8m/8000000/mnf.m3u8
153,http://120.240.232.219/liveplay-kk.rtxapp.com/live/program/live/cctv1hd8m/8000000/mnf.m3u8
154,http://120.240.232.221/liveplay-kk.rtxapp.com/live/program/live/cctv1hd8m/8000000/mnf.m3u8
155,http://120.240.232.222/liveplay-kk.rtxapp.com/live/program/live/cctv1hd8m/8000000/mnf.m3u8
156,http://120.240.232.229/liveplay-kk.rtxapp.com/live/program/live/cctv1hd8m/8000000/mnf.m3u8
157,http://120.240.232.232/liveplay-kk.rtxapp.com/live/program/live/cctv1hd8m/8000000/mnf.m3u8
158,http://120.240.232.238/liveplay-kk.rtxapp.com/live/program/live/cctv1hd8m/8000000/mnf.m3u8
159,http://120.240.232.242/liveplay-kk.rtxapp.com/live/program/live/cctv1hd8m/8000000/mnf.m3u8
160,http://120.240.232.244/liveplay-kk.rtxapp.com/live/program/live/cctv1hd8m/8000000/mnf.m3u8
161,http://120.240.232.247/liveplay-kk.rtxapp.com/live/program/live/cctv1hd8m/8000000/mnf.m3u8
162,http://120.240.232.253/liveplay-kk.rtxapp.com/live/program/live/cctv1hd8m/8000000/mnf.m3u8
163,http://120.240.232.254/liveplay-kk.rtxapp.com/live/program/live/cctv1hd8m/8000000/mnf.m3u8
164,http://111.31.238.7/liveplay-kk.rtxapp.com/live/program/live/cctv1hd8m/8000000/mnf.m3u8
165,http://111.31.238.8/liveplay-kk.rtxapp.com/live/program/live/cctv1hd8m/8000000/mnf.m3u8
166,http://111.31.238.13/liveplay-kk.rtxapp.com/live/program/live/cctv1hd8m/8000000/mnf.m3u8
167,http://111.31.238.14/liveplay-kk.rtxapp.com/live/program/live/cctv1hd8m/8000000/mnf.m3u8
168,http://111.31.238.28/liveplay-kk.rtxapp.com/live/program/live/cctv1hd8m/8000000/mnf.m3u8
169,http://111.31.238.36/liveplay-kk.rtxapp.com/live/program/live/cctv1hd8m/8000000/mnf.m3u8
170,http://111.31.238.43/liveplay-kk.rtxapp.com/live/program/live/cctv1hd8m/8000000/mnf.m3u8
171,http://111.31.238.45/liveplay-kk.rtxapp.com/live/program/live/cctv1hd8m/8000000/mnf.m3u8
172,http://111.31.238.46/liveplay-kk.rtxapp.com/live/program/live/cctv1hd8m/8000000/mnf.m3u8
173,http://111.31.238.52/liveplay-kk.rtxapp.com/live/program/live/cctv1hd8m/8000000/mnf.m3u8
174,http://111.31.238.69/liveplay-kk.rtxapp.com/live/program/live/cctv1hd8m/8000000/mnf.m3u8
175,http://111.31.238.77/liveplay-kk.rtxapp.com/live/program/live/cctv1hd8m/8000000/mnf.m3u8
176,http://111.31.238.81/liveplay-kk.rtxapp.com/live/program/live/cctv1hd8m/8000000/mnf.m3u8
177,http://111.31.238.95/liveplay-kk.rtxapp.com/live/program/live/cctv1hd8m/8000000/mnf.m3u8
178,http://111.31.238.96/liveplay-kk.rtxapp.com/live/program/live/cctv1hd8m/8000000/mnf.m3u8
179,http://111.31.238.98/liveplay-kk.rtxapp.com/live/program/live/cctv1hd8m/8000000/mnf.m3u8
180,http://111.31.238.119/liveplay-kk.rtxapp.com/live/program/live/cctv1hd8m/8000000/mnf.m3u8
181,http://111.31.238.138/liveplay-kk.rtxapp.com/live/program/live/cctv1hd8m/8000000/mnf.m3u8
182,http://111.31.238.237/liveplay-kk.rtxapp.com/live/program/live/cctv1hd8m/8000000/mnf.m3u8
183,http://42.185.154.142/liveplay-kk.rtxapp.com/live/program/live/cctv1hd8m/8000000/mnf.m3u8
184,http://42.185.154.143/liveplay-kk.rtxapp.com/live/program/live/cctv1hd8m/8000000/mnf.m3u8
185,http://42.185.154.145/liveplay-kk.rtxapp.com/live/program/live/cctv1hd8m/8000000/mnf.m3u8
186,http://42.185.154.146/liveplay-kk.rtxapp.com/live/program/live/cctv1hd8m/8000000/mnf.m3u8
187,http://42.185.154.147/liveplay-kk.rtxapp.com/live/program/live/cctv1hd8m/8000000/mnf.m3u8
188,http://42.185.154.148/liveplay-kk.rtxapp.com/live/program/live/cctv1hd8m/8000000/mnf.m3u8
189,http://42.185.154.154/liveplay-kk.rtxapp.com/live/program/live/cctv1hd8m/8000000/mnf.m3u8
190,http://42.185.154.155/liveplay-kk.rtxapp.com/live/program/live/cctv1hd8m/8000000/mnf.m3u8
192,http://42.185.154.161/liveplay-kk.rtxapp.com/live/program/live/cctv1hd8m/8000000/mnf.m3u8
193,http://42.185.154.169/liveplay-kk.rtxapp.com/live/program/live/cctv1hd8m/8000000/mnf.m3u8
194,http://42.185.154.170/liveplay-kk.rtxapp.com/live/program/live/cctv1hd8m/8000000/mnf.m3u8
195,http://42.185.154.173/liveplay-kk.rtxapp.com/live/program/live/cctv1hd8m/8000000/mnf.m3u8
196,http://42.185.154.174/liveplay-kk.rtxapp.com/live/program/live/cctv1hd8m/8000000/mnf.m3u8
197,http://42.185.154.213/liveplay-kk.rtxapp.com/live/program/live/cctv1hd8m/8000000/mnf.m3u8
198,http://121.51.112.41/liveplay-kk.rtxapp.com/live/program/live/cctv1hd8m/8000000/mnf.m3u8
199,http://222.180.167.3/liveplay-kk.rtxapp.com/live/program/live/cctv1hd8m/8000000/mnf.m3u8
200,http://222.180.167.4/liveplay-kk.rtxapp.com/live/program/live/cctv1hd8m/8000000/mnf.m3u8
201,http://222.180.167.46/liveplay-kk.rtxapp.com/live/program/live/cctv1hd8m/8000000/mnf.m3u8
202,http://116.136.171.20/liveplay-kk.rtxapp.com/live/program/live/cctv1hd8m/8000000/mnf.m3u8
203,http://116.136.171.21/liveplay-kk.rtxapp.com/live/program/live/cctv1hd8m/8000000/mnf.m3u8
204,http://116.136.171.37/liveplay-kk.rtxapp.com/live/program/live/cctv1hd8m/8000000/mnf.m3u8
205,http://116.136.171.41/liveplay-kk.rtxapp.com/live/program/live/cctv1hd8m/8000000/mnf.m3u8
206,http://116.136.171.47/liveplay-kk.rtxapp.com/live/program/live/cctv1hd8m/8000000/mnf.m3u8
207,http://116.136.171.50/liveplay-kk.rtxapp.com/live/program/live/cctv1hd8m/8000000/mnf.m3u8
208,http://116.136.171.61/liveplay-kk.rtxapp.com/live/program/live/cctv1hd8m/8000000/mnf.m3u8
209,http://116.136.171.69/liveplay-kk.rtxapp.com/live/program/live/cctv1hd8m/8000000/mnf.m3u8
210,http://116.136.171.79/liveplay-kk.rtxapp.com/live/program/live/cctv1hd8m/8000000/mnf.m3u8
211,http://116.136.171.83/liveplay-kk.rtxapp.com/live/program/live/cctv1hd8m/8000000/mnf.m3u8
21,http://116.136.171.90/liveplay-kk.rtxapp.com/live/program/live/cctv1hd8m/8000000/mnf.m3u8
213
,http://116.136.171.102/liveplay-kk.rtxapp.com/live/program/live/cctv1hd8m/8000000/mnf.m3u8
214,http://39.145.1.177/liveplay-kk.rtxapp.com/live/program/live/cctv1hd8m/8000000/mnf.m3u8
224,http://183.246.208.6/liveplay-kk.rtxapp.com/live/program/live/cctv1hd8m/8000000/mnf.m3u8
225,http://183.246.208.21/liveplay-kk.rtxapp.com/live/program/live/cctv1hd8m/8000000/mnf.m3u8
226,http://183.246.208.22/liveplay-kk.rtxapp.com/live/program/live/cctv1hd8m/8000000/mnf.m3u8
227,http://183.246.208.32/liveplay-kk.rtxapp.com/live/program/live/cctv1hd8m/8000000/mnf.m3u8
228,http://183.246.208.33/liveplay-kk.rtxapp.com/live/program/live/cctv1hd8m/8000000/mnf.m3u8
229,http://183.246.208.43/liveplay-kk.rtxapp.com/live/program/live/cctv1hd8m/8000000/mnf.m3u8
230,http://183.246.208.44/liveplay-kk.rtxapp.com/live/program/live/cctv1hd8m/8000000/mnf.m3u8
231,http://183.246.208.55/liveplay-kk.rtxapp.com/live/program/live/cctv1hd8m/8000000/mnf.m3u8
232,http://183.246.208.56/liveplay-kk.rtxapp.com/live/program/live/cctv1hd8m/8000000/mnf.m3u8
233,http://183.246.208.77/liveplay-kk.rtxapp.com/live/program/live/cctv1hd8m/8000000/mnf.m3u8
234,http://183.246.208.91/liveplay-kk.rtxapp.com/live/program/live/cctv1hd8m/8000000/mnf.m3u8
235,http://183.246.208.92/liveplay-kk.rtxapp.com/live/program/live/cctv1hd8m/8000000/mnf.m3u8
236,http://183.246.208.102/liveplay-kk.rtxapp.com/live/program/live/cctv1hd8m/8000000/mnf.m3u8
237,http://183.246.208.103/liveplay-kk.rtxapp.com/live/program/live/cctv1hd8m/8000000/mnf.m3u8
238,http://183.246.208.113/liveplay-kk.rtxapp.com/live/program/live/cctv1hd8m/8000000/mnf.m3u8
239,http://183.246.208.114/liveplay-kk.rtxapp.com/live/program/live/cctv1hd8m/8000000/mnf.m3u8
240,http://183.246.208.125/liveplay-kk.rtxapp.com/live/program/live/cctv1hd8m/8000000/mnf.m3u8
241,http://183.246.208.126/liveplay-kk.rtxapp.com/live/program/live/cctv1hd8m/8000000/mnf.m3u8
242,http://220.194.123.28/liveplay-kk.rtxapp.com/live/program/live/cctv1hd8m/8000000/mnf.m3u8
243,http://220.194.123.29/liveplay-kk.rtxapp.com/live/program/live/cctv1hd8m/8000000/mnf.m3u8
244,http://220.194.123.30/liveplay-kk.rtxapp.com/live/program/live/cctv1hd8m/8000000/mnf.m3u8
245,http://220.194.123.35/liveplay-kk.rtxapp.com/live/program/live/cctv1hd8m/8000000/mnf.m3u8
246,http://220.194.123.36/liveplay-kk.rtxapp.com/live/program/live/cctv1hd8m/8000000/mnf.m3u8
247,http://220.194.123.37/liveplay-kk.rtxapp.com/live/program/live/cctv1hd8m/8000000/mnf.m3u8
248,http://220.194.123.62/liveplay-kk.rtxapp.com/live/program/live/cctv1hd8m/8000000/mnf.m3u8
249,http://123.247.80.52/liveplay-kk.rtxapp.com/live/program/live/cctv1hd8m/8000000/mnf.m3u8
250,http://123.247.80.54/liveplay-kk.rtxapp.com/live/program/live/cctv1hd8m/8000000/mnf.m3u8
251,http://123.247.80.55/liveplay-kk.rtxapp.com/live/program/live/cctv1hd8m/8000000/mnf.m3u8
252,http://123.247.80.61/liveplay-kk.rtxapp.com/live/program/live/cctv1hd8m/8000000/mnf.m3u8
253,http://123.247.80.62/liveplay-kk.rtxapp.com/live/program/live/cctv1hd8m/8000000/mnf.m3u8
254,http://123.247.80.65/liveplay-kk.rtxapp.com/live/program/live/cctv1hd8m/8000000/mnf.m3u8
255,http://123.247.80.71/liveplay-kk.rtxapp.com/live/program/live/cctv1hd8m/8000000/mnf.m3u8
256,http://123.247.80.73/liveplay-kk.rtxapp.com/live/program/live/cctv1hd8m/8000000/mnf.m3u8
257,http://123.247.80.79/liveplay-kk.rtxapp.com/live/program/live/cctv1hd8m/8000000/mnf.m3u8
258,http://123.247.80.81/liveplay-kk.rtxapp.com/live/program/live/cctv1hd8m/8000000/mnf.m3u8
259,http://123.247.80.87/liveplay-kk.rtxapp.com/live/program/live/cctv1hd8m/8000000/mnf.m3u8
260,http://123.247.80.88/liveplay-kk.rtxapp.com/live/program/live/cctv1hd8m/8000000/mnf.m3u8
261,http://123.247.80.89/liveplay-kk.rtxapp.com/live/program/live/cctv1hd8m/8000000/mnf.m3u8
262,http://123.247.80.90/liveplay-kk.rtxapp.com/live/program/live/cctv1hd8m/8000000/mnf.m3u8
263,http://123.247.80.91/liveplay-kk.rtxapp.com/live/program/live/cctv1hd8m/8000000/mnf.m3u8
264,http://123.247.80.92/liveplay-kk.rtxapp.com/live/program/live/cctv1hd8m/8000000/mnf.m3u8
265,http://123.247.80.95/liveplay-kk.rtxapp.com/live/program/live/cctv1hd8m/8000000/mnf.m3u8
266,http://123.247.80.97/liveplay-kk.rtxapp.com/live/program/live/cctv1hd8m/8000000/mnf.m3u8
267,http://123.247.80.98/liveplay-kk.rtxapp.com/live/program/live/cctv1hd8m/8000000/mnf.m3u8
268,http://123.247.80.99/liveplay-kk.rtxapp.com/live/program/live/cctv1hd8m/8000000/mnf.m3u8
269,http://123.247.80.100/liveplay-kk.rtxapp.com/live/program/live/cctv1hd8m/8000000/mnf.m3u8
270,http://123.247.80.101/liveplay-kk.rtxapp.com/live/program/live/cctv1hd8m/8000000/mnf.m3u8
271,http://123.247.80.102/liveplay-kk.rtxapp.com/live/program/live/cctv1hd8m/8000000/mnf.m3u8
272,http://123.247.80.192/liveplay-kk.rtxapp.com/live/program/live/cctv1hd8m/8000000/mnf.m3u8
273,http://150.138.233.20/liveplay-kk.rtxapp.com/live/program/live/cctv1hd8m/8000000/mnf.m3u8
274,http://150.138.233.21/liveplay-kk.rtxapp.com/live/program/live/cctv1hd8m/8000000/mnf.m3u8
275,http://150.138.233.22/liveplay-kk.rtxapp.com/live/program/live/cctv1hd8m/8000000/mnf.m3u8
276,http://150.138.233.23/liveplay-kk.rtxapp.com/live/program/live/cctv1hd8m/8000000/mnf.m3u8
277,http://150.138.233.24/liveplay-kk.rtxapp.com/live/program/live/cctv1hd8m/8000000/mnf.m3u8
278,http://150.138.233.40/liveplay-kk.rtxapp.com/live/program/live/cctv1hd8m/8000000/mnf.m3u8
279,http://150.138.233.51/liveplay-kk.rtxapp.com/live/program/live/cctv1hd8m/8000000/mnf.m3u8
280,http://150.138.233.143/liveplay-kk.rtxapp.com/live/program/live/cctv1hd8m/8000000/mnf.m3u8
281,http://150.138.233.185/liveplay-kk.rtxapp.com/live/program/live/cctv1hd8m/8000000/mnf.m3u8
282,http://150.138.233.224/liveplay-kk.rtxapp.com/live/program/live/cctv1hd8m/8000000/mnf.m3u8
283,http://150.138.233.228/liveplay-kk.rtxapp.com/live/program/live/cctv1hd8m/8000000/mnf.m3u8
284,http://150.138.233.243/liveplay-kk.rtxapp.com/live/program/live/cctv1hd8m/8000000/mnf.m3u8
285,http://36.156.122.171/liveplay-kk.rtxapp.com/live/program/live/cctv1hd8m/8000000/mnf.m3u8
286,http://36.156.122.172/liveplay-kk.rtxapp.com/live/program/live/cctv1hd8m/8000000/mnf.m3u8
287,http://36.156.122.173/liveplay-kk.rtxapp.com/live/program/live/cctv1hd8m/8000000/mnf.m3u8
288,http://36.156.122.174/liveplay-kk.rtxapp.com/live/program/live/cctv1hd8m/8000000/mnf.m3u8
289,http://36.156.122.175/liveplay-kk.rtxapp.com/live/program/live/cctv1hd8m/8000000/mnf.m3u8
290,http://36.156.122.176/liveplay-kk.rtxapp.com/live/program/live/cctv1hd8m/8000000/mnf.m3u8
291,http://36.156.122.177/liveplay-kk.rtxapp.com/live/program/live/cctv1hd8m/8000000/mnf.m3u8
292,http://36.156.122.178/liveplay-kk.rtxapp.com/live/program/live/cctv1hd8m/8000000/mnf.m3u8
293,http://36.156.122.179/liveplay-kk.rtxapp.com/live/program/live/cctv1hd8m/8000000/mnf.m3u8
294,http://36.156.122.203/liveplay-kk.rtxapp.com/live/program/live/cctv1hd8m/8000000/mnf.m3u8
295,http://36.156.122.204/liveplay-kk.rtxapp.com/live/program/live/cctv1hd8m/8000000/mnf.m3u8
296,http://36.156.122.249/liveplay-kk.rtxapp.com/live/program/live/cctv1hd8m/8000000/mnf.m3u8
297,http://120.220.40.163/liveplay-kk.rtxapp.com/live/program/live/cctv1hd8m/8000000/mnf.m3u8
298,http://183.240.118.8/liveplay-kk.rtxapp.com/live/program/live/cctv1hd8m/8000000/mnf.m3u8
299,http://183.240.118.28/liveplay-kk.rtxapp.com/live/program/live/cctv1hd8m/8000000/mnf.m3u8
300,http://183.240.118.44/liveplay-kk.rtxapp.com/live/program/live/cctv1hd8m/8000000/mnf.m3u8
301,http://183.240.118.52/liveplay-kk.rtxapp.com/live/program/live/cctv1hd8m/8000000/mnf.m3u8
302,http://183.240.118.76/liveplay-kk.rtxapp.com/live/program/live/cctv1hd8m/8000000/mnf.m3u8
303,http://183.240.118.78/liveplay-kk.rtxapp.com/live/program/live/cctv1hd8m/8000000/mnf.m3u8
304,http://183.240.118.83/liveplay-kk.rtxapp.com/live/program/live/cctv1hd8m/8000000/mnf.m3u8
305,http://183.240.118.86/liveplay-kk.rtxapp.com/live/program/live/cctv1hd8m/8000000/mnf.m3u8
306,http://183.240.118.91/liveplay-kk.rtxapp.com/live/program/live/cctv1hd8m/8000000/mnf.m3u8
307,http://183.240.118.92/liveplay-kk.rtxapp.com/live/program/live/cctv1hd8m/8000000/mnf.m3u8
308,http://183.240.118.97/liveplay-kk.rtxapp.com/live/program/live/cctv1hd8m/8000000/mnf.m3u8
309,http://183.240.118.98/liveplay-kk.rtxapp.com/live/program/live/cctv1hd8m/8000000/mnf.m3u8
310,http://183.240.118.100/liveplay-kk.rtxapp.com/live/program/live/cctv1hd8m/8000000/mnf.m3u8
311,http://183.240.118.103/liveplay-kk.rtxapp.com/live/program/live/cctv1hd8m/8000000/mnf.m3u8
312,http://183.240.118.106/liveplay-kk.rtxapp.com/live/program/live/cctv1hd8m/8000000/mnf.m3u8
313,http://183.240.118.109/liveplay-kk.rtxapp.com/live/program/live/cctv1hd8m/8000000/mnf.m3u8
314,http://183.240.118.110/liveplay-kk.rtxapp.com/live/program/live/cctv1hd8m/8000000/mnf.m3u8
315,http://183.240.118.111/liveplay-kk.rtxapp.com/live/program/live/cctv1hd8m/8000000/mnf.m3u8
316,http://183.240.118.112/liveplay-kk.rtxapp.com/live/program/live/cctv1hd8m/8000000/mnf.m3u8
317,http://183.240.118.122/liveplay-kk.rtxapp.com/live/program/live/cctv1hd8m/8000000/mnf.m3u8
318,http://183.240.118.124/liveplay-kk.rtxapp.com/live/program/live/cctv1hd8m/8000000/mnf.m3u8
319,http://183.240.118.130/liveplay-kk.rtxapp.com/live/program/live/cctv1hd8m/8000000/mnf.m3u8
320,http://183.240.118.170/liveplay-kk.rtxapp.com/live/program/live/cctv1hd8m/8000000/mnf.m3u8
321,http://183.240.118.179/liveplay-kk.rtxapp.com/live/program/live/cctv1hd8m/8000000/mnf.m3u8
322,http://183.240.118.180/liveplay-kk.rtxapp.com/live/program/live/cctv1hd8m/8000000/mnf.m3u8
323,http://183.240.118.240/liveplay-kk.rtxapp.com/live/program/live/cctv1hd8m/8000000/mnf.m3u8
324,http://183.240.118.242/liveplay-kk.rtxapp.com/live/program/live/cctv1hd8m/8000000/mnf.m3u8
325,http://183.240.118.253/liveplay-kk.rtxapp.com/live/program/live/cctv1hd8m/8000000/mnf.m3u8
326,http://122.246.25.37/liveplay-kk.rtxapp.com/live/program/live/cctv1hd8m/8000000/mnf.m3u8
327,http://122.246.25.38/liveplay-kk.rtxapp.com/live/program/live/cctv1hd8m/8000000/mnf.m3u8
328,http://122.246.25.39/liveplay-kk.rtxapp.com/live/program/live/cctv1hd8m/8000000/mnf.m3u8
329,http://122.246.25.85/liveplay-kk.rtxapp.com/live/program/live/cctv1hd8m/8000000/mnf.m3u8
330,http://122.246.25.86/liveplay-kk.rtxapp.com/live/program/live/cctv1hd8m/8000000/mnf.m3u8
331,http://122.246.25.87/liveplay-kk.rtxapp.com/live/program/live/cctv1hd8m/8000000/mnf.m3u8
334,http://58.216.22.199/liveplay-kk.rtxapp.com/live/program/live/cctv1hd8m/8000000/mnf.m3u8
335,http://58.216.22.211/liveplay-kk.rtxapp.com/live/program/live/cctv1hd8m/8000000/mnf.m3u8
336,http://58.216.22.212/liveplay-kk.rtxapp.com/live/program/live/cctv1hd8m/8000000/mnf.m3u8
337,http://58.216.22.213/liveplay-kk.rtxapp.com/live/program/live/cctv1hd8m/8000000/mnf.m3u8
338,http://58.216.22.214/liveplay-kk.rtxapp.com/live/program/live/cctv1hd8m/8000000/mnf.m3u8
339,http://58.216.22.215/liveplay-kk.rtxapp.com/live/program/live/cctv1hd8m/8000000/mnf.m3u8
340,http://58.216.22.216/liveplay-kk.rtxapp.com/live/program/live/cctv1hd8m/8000000/mnf.m3u8
341,http://58.216.22.217/liveplay-kk.rtxapp.com/live/program/live/cctv1hd8m/8000000/mnf.m3u8
342,http://58.216.22.221/liveplay-kk.rtxapp.com/live/program/live/cctv1hd8m/8000000/mnf.m3u8
343,http://58.216.22.222/liveplay-kk.rtxapp.com/live/program/live/cctv1hd8m/8000000/mnf.m3u8
344,http://58.216.22.223/liveplay-kk.rtxapp.com/live/program/live/cctv1hd8m/8000000/mnf.m3u8
345,http://58.216.22.224/liveplay-kk.rtxapp.com/live/program/live/cctv1hd8m/8000000/mnf.m3u8
346,http://58.216.22.225/liveplay-kk.rtxapp.com/live/program/live/cctv1hd8m/8000000/mnf.m3u8
347,http://58.216.22.226/liveplay-kk.rtxapp.com/live/program/live/cctv1hd8m/8000000/mnf.m3u8
348,http://58.216.22.227/liveplay-kk.rtxapp.com/live/program/live/cctv1hd8m/8000000/mnf.m3u8
349,http://112.25.105.125/liveplay-kk.rtxapp.com/live/program/live/cctv1hd8m/8000000/mnf.m3u8
350,http://115.56.76.20/liveplay-kk.rtxapp.com/live/program/live/cctv1hd8m/8000000/mnf.m3u8
351,http://115.56.76.22/liveplay-kk.rtxapp.com/live/program/live/cctv1hd8m/8000000/mnf.m3u8
352,http://115.56.76.23/liveplay-kk.rtxapp.com/live/program/live/cctv1hd8m/8000000/mnf.m3u8
353,http://115.56.76.25/liveplay-kk.rtxapp.com/live/program/live/cctv1hd8m/8000000/mnf.m3u8
354,http://115.56.76.26/liveplay-kk.rtxapp.com/live/program/live/cctv1hd8m/8000000/mnf.m3u8
355,http://115.56.76.27/liveplay-kk.rtxapp.com/live/program/live/cctv1hd8m/8000000/mnf.m3u8
356,http://115.56.76.29/liveplay-kk.rtxapp.com/live/program/live/cctv1hd8m/8000000/mnf.m3u8
357,http://115.56.76.30/liveplay-kk.rtxapp.com/live/program/live/cctv1hd8m/8000000/mnf.m3u8
358,http://115.56.76.31/liveplay-kk.rtxapp.com/live/program/live/cctv1hd8m/8000000/mnf.m3u8
359,http://115.56.76.32/liveplay-kk.rtxapp.com/live/program/live/cctv1hd8m/8000000/mnf.m3u8
360,http://115.56.76.55/liveplay-kk.rtxapp.com/live/program/live/cctv1hd8m/8000000/mnf.m3u8
361,http://115.56.76.57/liveplay-kk.rtxapp.com/live/program/live/cctv1hd8m/8000000/mnf.m3u8
362,http://115.56.76.58/liveplay-kk.rtxapp.com/live/program/live/cctv1hd8m/8000000/mnf.m3u8
363,http://115.56.76.60/liveplay-kk.rtxapp.com/live/program/live/cctv1hd8m/8000000/mnf.m3u8
364,http://115.56.76.61/liveplay-kk.rtxapp.com/live/program/live/cctv1hd8m/8000000/mnf.m3u8
365,http://115.56.76.62/liveplay-kk.rtxapp.com/live/program/live/cctv1hd8m/8000000/mnf.m3u8
366,http://115.56.76.63/liveplay-kk.rtxapp.com/live/program/live/cctv1hd8m/8000000/mnf.m3u8
367,http://115.56.76.65/liveplay-kk.rtxapp.com/live/program/live/cctv1hd8m/8000000/mnf.m3u8
368,http://115.56.76.66/liveplay-kk.rtxapp.com/live/program/live/cctv1hd8m/8000000/mnf.m3u8
369,http://115.56.76.67/liveplay-kk.rtxapp.com/live/program/live/cctv1hd8m/8000000/mnf.m3u8
370,http://115.56.76.68/liveplay-kk.rtxapp.com/live/program/live/cctv1hd8m/8000000/mnf.m3u8
371,http://115.56.76.71/liveplay-kk.rtxapp.com/live/program/live/cctv1hd8m/8000000/mnf.m3u8
372,http://115.56.76.73/liveplay-kk.rtxapp.com/live/program/live/cctv1hd8m/8000000/mnf.m3u8
373,http://115.56.76.74/liveplay-kk.rtxapp.com/live/program/live/cctv1hd8m/8000000/mnf.m3u8
374,http://115.56.76.78/liveplay-kk.rtxapp.com/live/program/live/cctv1hd8m/8000000/mnf.m3u8
375,http://115.56.76.81/liveplay-kk.rtxapp.com/live/program/live/cctv1hd8m/8000000/mnf.m3u8
376,http://115.56.76.89/liveplay-kk.rtxapp.com/live/program/live/cctv1hd8m/8000000/mnf.m3u8
377,http://115.56.76.99/liveplay-kk.rtxapp.com/live/program/live/cctv1hd8m/8000000/mnf.m3u8
378,http://220.194.122.70/liveplay-kk.rtxapp.com/live/program/live/cctv1hd8m/8000000/mnf.m3u8
379,http://220.194.122.96/liveplay-kk.rtxapp.com/live/program/live/cctv1hd8m/8000000/mnf.m3u8
380,http://220.194.122.97/liveplay-kk.rtxapp.com/live/program/live/cctv1hd8m/8000000/mnf.m3u8
381,http://220.194.122.211/liveplay-kk.rtxapp.com/live/program/live/cctv1hd8m/8000000/mnf.m3u8
382,http://220.194.122.213/liveplay-kk.rtxapp.com/live/program/live/cctv1hd8m/8000000/mnf.m3u8
383,http://220.194.122.214/liveplay-kk.rtxapp.com/live/program/live/cctv1hd8m/8000000/mnf.m3u8
384,http://220.194.122.215/liveplay-kk.rtxapp.com/live/program/live/cctv1hd8m/8000000/mnf.m3u8
385,http://220.194.122.216/liveplay-kk.rtxapp.com/live/program/live/cctv1hd8m/8000000/mnf.m3u8
386,http://220.194.122.217/liveplay-kk.rtxapp.com/live/program/live/cctv1hd8m/8000000/mnf.m3u8
387,http://220.194.122.218/liveplay-kk.rtxapp.com/live/program/live/cctv1hd8m/8000000/mnf.m3u8
388,http://220.194.122.219/liveplay-kk.rtxapp.com/live/program/live/cctv1hd8m/8000000/mnf.m3u8
389,http://220.194.122.220/liveplay-kk.rtxapp.com/live/program/live/cctv1hd8m/8000000/mnf.m3u8
390,http://220.194.122.225/liveplay-kk.rtxapp.com/live/program/live/cctv1hd8m/8000000/mnf.m3u8
391,http://220.194.122.231/liveplay-kk.rtxapp.com/live/program/live/cctv1hd8m/8000000/mnf.m3u8
392,http://220.194.122.233/liveplay-kk.rtxapp.com/live/program/live/cctv1hd8m/8000000/mnf.m3u8
393,http://220.194.122.248/liveplay-kk.rtxapp.com/live/program/live/cctv1hd8m/8000000/mnf.m3u8
394,http://220.194.122.251/liveplay-kk.rtxapp.com/live/program/live/cctv1hd8m/8000000/mnf.m3u8
399,http://223.113.150.201/liveplay-kk.rtxapp.com/live/program/live/cctv1hd8m/8000000/mnf.m3u8
400,http://223.113.150.202/liveplay-kk.rtxapp.com/live/program/live/cctv1hd8m/8000000/mnf.m3u8
401,http://223.113.150.203/liveplay-kk.rtxapp.com/live/program/live/cctv1hd8m/8000000/mnf.m3u8
402,http://223.113.150.204/liveplay-kk.rtxapp.com/live/program/live/cctv1hd8m/8000000/mnf.m3u8
403,http://223.113.150.206/liveplay-kk.rtxapp.com/live/program/live/cctv1hd8m/8000000/mnf.m3u8
404,http://223.113.150.211/liveplay-kk.rtxapp.com/live/program/live/cctv1hd8m/8000000/mnf.m3u8
405,http://223.113.150.212/liveplay-kk.rtxapp.com/live/program/live/cctv1hd8m/8000000/mnf.m3u8
406,http://223.113.150.213/liveplay-kk.rtxapp.com/live/program/live/cctv1hd8m/8000000/mnf.m3u8
407,http://223.113.150.214/liveplay-kk.rtxapp.com/live/program/live/cctv1hd8m/8000000/mnf.m3u8
408,http://223.113.150.215/liveplay-kk.rtxapp.com/live/program/live/cctv1hd8m/8000000/mnf.m3u8
409,http://223.113.150.216/liveplay-kk.rtxapp.com/live/program/live/cctv1hd8m/8000000/mnf.m3u8
410,http://223.113.150.217/liveplay-kk.rtxapp.com/live/program/live/cctv1hd8m/8000000/mnf.m3u8
411,http://223.113.150.221/liveplay-kk.rtxapp.com/live/program/live/cctv1hd8m/8000000/mnf.m3u8
412,http://223.113.150.222/liveplay-kk.rtxapp.com/live/program/live/cctv1hd8m/8000000/mnf.m3u8
413,http://223.113.150.223/liveplay-kk.rtxapp.com/live/program/live/cctv1hd8m/8000000/mnf.m3u8
414,http://223.113.150.225/liveplay-kk.rtxapp.com/live/program/live/cctv1hd8m/8000000/mnf.m3u8
415,http://223.113.150.226/liveplay-kk.rtxapp.com/live/program/live/cctv1hd8m/8000000/mnf.m3u8
416,http://223.113.150.227/liveplay-kk.rtxapp.com/live/program/live/cctv1hd8m/8000000/mnf.m3u8
417,http://223.113.150.232/liveplay-kk.rtxapp.com/live/program/live/cctv1hd8m/8000000/mnf.m3u8
418,http://223.113.150.233/liveplay-kk.rtxapp.com/live/program/live/cctv1hd8m/8000000/mnf.m3u8
419,http://223.113.150.237/liveplay-kk.rtxapp.com/live/program/live/cctv1hd8m/8000000/mnf.m3u8
420,http://223.113.150.251/liveplay-kk.rtxapp.com/live/program/live/cctv1hd8m/8000000/mnf.m3u8
421,http://183.232.83.33/liveplay-kk.rtxapp.com/live/program/live/cctv1hd8m/8000000/mnf.m3u8
422,http://183.232.83.106/liveplay-kk.rtxapp.com/live/program/live/cctv1hd8m/8000000/mnf.m3u8
423,http://183.232.83.107/liveplay-kk.rtxapp.com/live/program/live/cctv1hd8m/8000000/mnf.m3u8
424,http://183.232.83.108/liveplay-kk.rtxapp.com/live/program/live/cctv1hd8m/8000000/mnf.m3u8
425,http://183.232.83.109/liveplay-kk.rtxapp.com/live/program/live/cctv1hd8m/8000000/mnf.m3u8
426,http://183.232.83.110/liveplay-kk.rtxapp.com/live/program/live/cctv1hd8m/8000000/mnf.m3u8
427,http://183.232.83.111/liveplay-kk.rtxapp.com/live/program/live/cctv1hd8m/8000000/mnf.m3u8
428,http://183.232.83.112/liveplay-kk.rtxapp.com/live/program/live/cctv1hd8m/8000000/mnf.m3u8
429,http://183.232.83.113/liveplay-kk.rtxapp.com/live/program/live/cctv1hd8m/8000000/mnf.m3u8
430,http://183.232.83.115/liveplay-kk.rtxapp.com/live/program/live/cctv1hd8m/8000000/mnf.m3u8
431,http://183.232.83.116/liveplay-kk.rtxapp.com/live/program/live/cctv1hd8m/8000000/mnf.m3u8
432,http://183.232.83.117/liveplay-kk.rtxapp.com/live/program/live/cctv1hd8m/8000000/mnf.m3u8
433,http://183.232.83.118/liveplay-kk.rtxapp.com/live/program/live/cctv1hd8m/8000000/mnf.m3u8
434,http://183.232.83.119/liveplay-kk.rtxapp.com/live/program/live/cctv1hd8m/8000000/mnf.m3u8
435,http://183.232.83.120/liveplay-kk.rtxapp.com/live/program/live/cctv1hd8m/8000000/mnf.m3u8
436,http://183.232.83.121/liveplay-kk.rtxapp.com/live/program/live/cctv1hd8m/8000000/mnf.m3u8
437,http://183.232.83.122/liveplay-kk.rtxapp.com/live/program/live/cctv1hd8m/8000000/mnf.m3u8
438,http://183.232.83.123/liveplay-kk.rtxapp.com/live/program/live/cctv1hd8m/8000000/mnf.m3u8
439,http://183.232.83.124/liveplay-kk.rtxapp.com/live/program/live/cctv1hd8m/8000000/mnf.m3u8
440,http://183.232.83.142/liveplay-kk.rtxapp.com/live/program/live/cctv1hd8m/8000000/mnf.m3u8
441,http://183.232.83.143/liveplay-kk.rtxapp.com/live/program/live/cctv1hd8m/8000000/mnf.m3u8
442,http://183.232.83.144/liveplay-kk.rtxapp.com/live/program/live/cctv1hd8m/8000000/mnf.m3u8
443,http://183.232.83.145/liveplay-kk.rtxapp.com/live/program/live/cctv1hd8m/8000000/mnf.m3u8
444,http://183.232.83.146/liveplay-kk.rtxapp.com/live/program/live/cctv1hd8m/8000000/mnf.m3u8
445,http://183.232.83.147/liveplay-kk.rtxapp.com/live/program/live/cctv1hd8m/8000000/mnf.m3u8
458,http://150.138.234.4/liveplay-kk.rtxapp.com/live/program/live/cctv1hd8m/8000000/mnf.m3u8
459,http://150.138.234.5/liveplay-kk.rtxapp.com/live/program/live/cctv1hd8m/8000000/mnf.m3u8
460,http://150.138.234.6/liveplay-kk.rtxapp.com/live/program/live/cctv1hd8m/8000000/mnf.m3u8
461,http://150.138.234.8/liveplay-kk.rtxapp.com/live/program/live/cctv1hd8m/8000000/mnf.m3u8
462,http://150.138.234.9/liveplay-kk.rtxapp.com/live/program/live/cctv1hd8m/8000000/mnf.m3u8
463,http://150.138.234.10/liveplay-kk.rtxapp.com/live/program/live/cctv1hd8m/8000000/mnf.m3u8
464,http://150.138.234.20/liveplay-kk.rtxapp.com/live/program/live/cctv1hd8m/8000000/mnf.m3u8
465,http://150.138.234.38/liveplay-kk.rtxapp.com/live/program/live/cctv1hd8m/8000000/mnf.m3u8
466,http://150.138.234.39/liveplay-kk.rtxapp.com/live/program/live/cctv1hd8m/8000000/mnf.m3u8
467,http://150.138.234.40/liveplay-kk.rtxapp.com/live/program/live/cctv1hd8m/8000000/mnf.m3u8
468,http://150.138.234.41/liveplay-kk.rtxapp.com/live/program/live/cctv1hd8m/8000000/mnf.m3u8
469,http://150.138.234.42/liveplay-kk.rtxapp.com/live/program/live/cctv1hd8m/8000000/mnf.m3u8
470,http://150.138.234.55/liveplay-kk.rtxapp.com/live/program/live/cctv1hd8m/8000000/mnf.m3u8
471,http://150.138.234.56/liveplay-kk.rtxapp.com/live/program/live/cctv1hd8m/8000000/mnf.m3u8
472,http://150.138.234.57/liveplay-kk.rtxapp.com/live/program/live/cctv1hd8m/8000000/mnf.m3u8
473,http://223.111.117.15/liveplay-kk.rtxapp.com/live/program/live/cctv1hd8m/8000000/mnf.m3u8
474,http://223.111.117.22/liveplay-kk.rtxapp.com/live/program/live/cctv1hd8m/8000000/mnf.m3u8
475,http://223.111.117.29/liveplay-kk.rtxapp.com/live/program/live/cctv1hd8m/8000000/mnf.m3u8
476,http://223.111.117.36/liveplay-kk.rtxapp.com/live/program/live/cctv1hd8m/8000000/mnf.m3u8
477,http://223.111.117.38/liveplay-kk.rtxapp.com/live/program/live/cctv1hd8m/8000000/mnf.m3u8
478,http://223.111.117.43/liveplay-kk.rtxapp.com/live/program/live/cctv1hd8m/8000000/mnf.m3u8
479,http://223.111.117.44/liveplay-kk.rtxapp.com/live/program/live/cctv1hd8m/8000000/mnf.m3u8
480,http://223.111.117.46/liveplay-kk.rtxapp.com/live/program/live/cctv1hd8m/8000000/mnf.m3u8
481,http://223.111.117.51/liveplay-kk.rtxapp.com/live/program/live/cctv1hd8m/8000000/mnf.m3u8
482,http://223.111.117.60/liveplay-kk.rtxapp.com/live/program/live/cctv1hd8m/8000000/mnf.m3u8
483,http://223.111.117.61/liveplay-kk.rtxapp.com/live/program/live/cctv1hd8m/8000000/mnf.m3u8
484,http://223.111.117.67/liveplay-kk.rtxapp.com/live/program/live/cctv1hd8m/8000000/mnf.m3u8
485,http://223.111.117.68/liveplay-kk.rtxapp.com/live/program/live/cctv1hd8m/8000000/mnf.m3u8
486,http://223.111.117.69/liveplay-kk.rtxapp.com/live/program/live/cctv1hd8m/8000000/mnf.m3u8
487,http://223.111.117.73/liveplay-kk.rtxapp.com/live/program/live/cctv1hd8m/8000000/mnf.m3u8
488,http://223.111.117.74/liveplay-kk.rtxapp.com/live/program/live/cctv1hd8m/8000000/mnf.m3u8
489,http://223.111.117.80/liveplay-kk.rtxapp.com/live/program/live/cctv1hd8m/8000000/mnf.m3u8
490,http://223.111.117.95/liveplay-kk.rtxapp.com/live/program/live/cctv1hd8m/8000000/mnf.m3u8
491,http://223.111.117.107/liveplay-kk.rtxapp.com/live/program/live/cctv1hd8m/8000000/mnf.m3u8
492,http://223.111.117.113/liveplay-kk.rtxapp.com/live/program/live/cctv1hd8m/8000000/mnf.m3u8
493,http://223.111.117.129/liveplay-kk.rtxapp.com/live/program/live/cctv1hd8m/8000000/mnf.m3u8
494,http://223.111.117.133/liveplay-kk.rtxapp.com/live/program/live/cctv1hd8m/8000000/mnf.m3u8
495,http://223.111.117.147/liveplay-kk.rtxapp.com/live/program/live/cctv1hd8m/8000000/mnf.m3u8
496,http://223.111.117.162/liveplay-kk.rtxapp.com/live/program/live/cctv1hd8m/8000000/mnf.m3u8
497,http://223.111.117.164/liveplay-kk.rtxapp.com/live/program/live/cctv1hd8m/8000000/mnf.m3u8
498,http://223.111.117.168/liveplay-kk.rtxapp.com/live/program/live/cctv1hd8m/8000000/mnf.m3u8
499,http://223.111.117.185/liveplay-kk.rtxapp.com/live/program/live/cctv1hd8m/8000000/mnf.m3u8
500,http://223.111.117.207/liveplay-kk.rtxapp.com/live/program/live/cctv1hd8m/8000000/mnf.m3u8
501,http://223.111.117.211/liveplay-kk.rtxapp.com/live/program/live/cctv1hd8m/8000000/mnf.m3u8
502,http://223.111.117.216/liveplay-kk.rtxapp.com/live/program/live/cctv1hd8m/8000000/mnf.m3u8
503,http://223.111.117.221/liveplay-kk.rtxapp.com/live/program/live/cctv1hd8m/8000000/mnf.m3u8
504,http://223.111.117.223/liveplay-kk.rtxapp.com/live/program/live/cctv1hd8m/8000000/mnf.m3u8
505,http://223.111.117.234/liveplay-kk.rtxapp.com/live/program/live/cctv1hd8m/8000000/mnf.m3u8
506,http://223.111.117.244/liveplay-kk.rtxapp.com/live/program/live/cctv1hd8m/8000000/mnf.m3u8
507,http://223.111.117.248/liveplay-kk.rtxapp.com/live/program/live/cctv1hd8m/8000000/mnf.m3u8
508,http://111.123.50.188/liveplay-kk.rtxapp.com/live/program/live/cctv1hd8m/8000000/mnf.m3u8
509,http://121.29.3.36/liveplay-kk.rtxapp.com/live/program/live/cctv1hd8m/8000000/mnf.m3u8
510,http://121.29.3.38/liveplay-kk.rtxapp.com/live/program/live/cctv1hd8m/8000000/mnf.m3u8
511,http://121.29.3.39/liveplay-kk.rtxapp.com/live/program/live/cctv1hd8m/8000000/mnf.m3u8
512,http://121.29.3.40/liveplay-kk.rtxapp.com/live/program/live/cctv1hd8m/8000000/mnf.m3u8
513,http://121.29.3.41/liveplay-kk.rtxapp.com/live/program/live/cctv1hd8m/8000000/mnf.m3u8
514,http://121.29.3.42/liveplay-kk.rtxapp.com/live/program/live/cctv1hd8m/8000000/mnf.m3u8
515,http://121.29.3.43/liveplay-kk.rtxapp.com/live/program/live/cctv1hd8m/8000000/mnf.m3u8
516,http://121.29.3.44/liveplay-kk.rtxapp.com/live/program/live/cctv1hd8m/8000000/mnf.m3u8
517,http://121.29.3.45/liveplay-kk.rtxapp.com/live/program/live/cctv1hd8m/8000000/mnf.m3u8
518,http://121.29.3.46/liveplay-kk.rtxapp.com/live/program/live/cctv1hd8m/8000000/mnf.m3u8
519,http://121.29.3.47/liveplay-kk.rtxapp.com/live/program/live/cctv1hd8m/8000000/mnf.m3u8
520,http://121.29.3.48/liveplay-kk.rtxapp.com/live/program/live/cctv1hd8m/8000000/mnf.m3u8
521,http://121.29.3.49/liveplay-kk.rtxapp.com/live/program/live/cctv1hd8m/8000000/mnf.m3u8
522,http://121.29.3.50/liveplay-kk.rtxapp.com/live/program/live/cctv1hd8m/8000000/mnf.m3u8
523,http://121.29.3.51/liveplay-kk.rtxapp.com/live/program/live/cctv1hd8m/8000000/mnf.m3u8
524,http://121.29.3.52/liveplay-kk.rtxapp.com/live/program/live/cctv1hd8m/8000000/mnf.m3u8
525,http://121.29.3.53/liveplay-kk.rtxapp.com/live/program/live/cctv1hd8m/8000000/mnf.m3u8
526,http://121.29.3.54/liveplay-kk.rtxapp.com/live/program/live/cctv1hd8m/8000000/mnf.m3u8
527,http://121.29.3.55/liveplay-kk.rtxapp.com/live/program/live/cctv1hd8m/8000000/mnf.m3u8
528,http://121.29.3.56/liveplay-kk.rtxapp.com/live/program/live/cctv1hd8m/8000000/mnf.m3u8
529,http://183.66.106.16/liveplay-kk.rtxapp.com/live/program/live/cctv1hd8m/8000000/mnf.m3u8
530,http://183.66.106.17/liveplay-kk.rtxapp.com/live/program/live/cctv1hd8m/8000000/mnf.m3u8
531,http://183.66.106.100/liveplay-kk.rtxapp.com/live/program/live/cctv1hd8m/8000000/mnf.m3u8
532,http://183.66.106.142/liveplay-kk.rtxapp.com/live/program/live/cctv1hd8m/8000000/mnf.m3u8
533,http://183.66.106.147/liveplay-kk.rtxapp.com/live/program/live/cctv1hd8m/8000000/mnf.m3u8
534,http://183.66.106.161/liveplay-kk.rtxapp.com/live/program/live/cctv1hd8m/8000000/mnf.m3u8
535,http://183.66.106.166/liveplay-kk.rtxapp.com/live/program/live/cctv1hd8m/8000000/mnf.m3u8
536,http://183.66.106.173/liveplay-kk.rtxapp.com/live/program/live/cctv1hd8m/8000000/mnf.m3u8
537,http://183.66.106.178/liveplay-kk.rtxapp.com/live/program/live/cctv1hd8m/8000000/mnf.m3u8
538,http://183.66.106.227/liveplay-kk.rtxapp.com/live/program/live/cctv1hd8m/8000000/mnf.m3u8
539,http://183.66.106.230/liveplay-kk.rtxapp.com/live/program/live/cctv1hd8m/8000000/mnf.m3u8
540,http://183.204.13.12/liveplay-kk.rtxapp.com/live/program/live/cctv1hd8m/8000000/mnf.m3u8
541,http://183.204.13.17/liveplay-kk.rtxapp.com/live/program/live/cctv1hd8m/8000000/mnf.m3u8
542,http://183.204.13.26/liveplay-kk.rtxapp.com/live/program/live/cctv1hd8m/8000000/mnf.m3u8
543,http://183.204.13.27/liveplay-kk.rtxapp.com/live/program/live/cctv1hd8m/8000000/mnf.m3u8
544,http://183.204.13.28/liveplay-kk.rtxapp.com/live/program/live/cctv1hd8m/8000000/mnf.m3u8
545,http://183.204.13.29/liveplay-kk.rtxapp.com/live/program/live/cctv1hd8m/8000000/mnf.m3u8
546,http://183.204.13.30/liveplay-kk.rtxapp.com/live/program/live/cctv1hd8m/8000000/mnf.m3u8
547,http://183.204.13.39/liveplay-kk.rtxapp.com/live/program/live/cctv1hd8m/8000000/mnf.m3u8
548,http://183.204.13.53/liveplay-kk.rtxapp.com/live/program/live/cctv1hd8m/8000000/mnf.m3u8
549,http://183.204.13.153/liveplay-kk.rtxapp.com/live/program/live/cctv1hd8m/8000000/mnf.m3u8
550,http://183.204.13.154/liveplay-kk.rtxapp.com/live/program/live/cctv1hd8m/8000000/mnf.m3u8
551,http://183.204.13.155/liveplay-kk.rtxapp.com/live/program/live/cctv1hd8m/8000000/mnf.m3u8
552,http://183.204.13.157/liveplay-kk.rtxapp.com/live/program/live/cctv1hd8m/8000000/mnf.m3u8
553,http://183.204.13.160/liveplay-kk.rtxapp.com/live/program/live/cctv1hd8m/8000000/mnf.m3u8
554,http://183.204.13.163/liveplay-kk.rtxapp.com/live/program/live/cctv1hd8m/8000000/mnf.m3u8
555,http://183.204.13.164/liveplay-kk.rtxapp.com/live/program/live/cctv1hd8m/8000000/mnf.m3u8
556,http://183.204.13.167/liveplay-kk.rtxapp.com/live/program/live/cctv1hd8m/8000000/mnf.m3u8
557,http://183.204.13.169/liveplay-kk.rtxapp.com/live/program/live/cctv1hd8m/8000000/mnf.m3u8
558,http://183.204.13.172/liveplay-kk.rtxapp.com/live/program/live/cctv1hd8m/8000000/mnf.m3u8
560,http://123.129.199.163/liveplay-kk.rtxapp.com/live/program/live/cctv1hd8m/8000000/mnf.m3u8
562,http://223.111.194.144/liveplay-kk.rtxapp.com/live/program/live/cctv1hd8m/8000000/mnf.m3u8
563,http://223.111.194.146/liveplay-kk.rtxapp.com/live/program/live/cctv1hd8m/8000000/mnf.m3u8
564,http://223.111.194.148/liveplay-kk.rtxapp.com/live/program/live/cctv1hd8m/8000000/mnf.m3u8
565,http://223.111.194.149/liveplay-kk.rtxapp.com/live/program/live/cctv1hd8m/8000000/mnf.m3u8
566,http://223.111.194.150/liveplay-kk.rtxapp.com/live/program/live/cctv1hd8m/8000000/mnf.m3u8
567,http://223.111.194.154/liveplay-kk.rtxapp.com/live/program/live/cctv1hd8m/8000000/mnf.m3u8
568,http://223.111.194.155/liveplay-kk.rtxapp.com/live/program/live/cctv1hd8m/8000000/mnf.m3u8
569,http://223.111.194.156/liveplay-kk.rtxapp.com/live/program/live/cctv1hd8m/8000000/mnf.m3u8
570,http://223.111.194.157/liveplay-kk.rtxapp.com/live/program/live/cctv1hd8m/8000000/mnf.m3u8
571,http://223.111.194.160/liveplay-kk.rtxapp.com/live/program/live/cctv1hd8m/8000000/mnf.m3u8
572,http://223.111.194.161/liveplay-kk.rtxapp.com/live/program/live/cctv1hd8m/8000000/mnf.m3u8
573,http://223.111.194.166/liveplay-kk.rtxapp.com/live/program/live/cctv1hd8m/8000000/mnf.m3u8
574,http://140.249.84.56/liveplay-kk.rtxapp.com/live/program/live/cctv1hd8m/8000000/mnf.m3u8
575,http://47.91.208.58/liveplay-kk.rtxapp.com/live/program/live/cctv1hd8m/8000000/mnf.m3u8
576,http://139.199.216.9/liveplay-kk.rtxapp.com/live/program/live/cctv1hd8m/8000000/mnf.m3u8
577,http://139.199.216.53/liveplay-kk.rtxapp.com/live/program/live/cctv1hd8m/8000000/mnf.m3u8
578,http://139.199.216.86/liveplay-kk.rtxapp.com/live/program/live/cctv1hd8m/8000000/mnf.m3u8
579,http://139.199.216.106/liveplay-kk.rtxapp.com/live/program/live/cctv1hd8m/8000000/mnf.m3u8
580,http://139.199.216.118/liveplay-kk.rtxapp.com/live/program/live/cctv1hd8m/8000000/mnf.m3u8
581,http://139.199.216.135/liveplay-kk.rtxapp.com/live/program/live/cctv1hd8m/8000000/mnf.m3u8
582,http://139.199.216.195/liveplay-kk.rtxapp.com/live/program/live/cctv1hd8m/8000000/mnf.m3u8
583,http://45.89.230.207/liveplay-kk.rtxapp.com/live/program/live/cctv1hd8m/8000000/mnf.m3u8
584,http://45.89.230.214/liveplay-kk.rtxapp.com/live/program/live/cctv1hd8m/8000000/mnf.m3u8
585,http://154.86.18.69/liveplay-kk.rtxapp.com/live/program/live/cctv1hd8m/8000000/mnf.m3u8
586,http://154.86.18.95/liveplay-kk.rtxapp.com/live/program/live/cctv1hd8m/8000000/mnf.m3u8
587,http://154.86.18.156/liveplay-kk.rtxapp.com/live/program/live/cctv1hd8m/8000000/mnf.m3u8
588,http://154.86.18.171/liveplay-kk.rtxapp.com/live/program/live/cctv1hd8m/8000000/mnf.m3u8
