﻿CCTV-1高清,http://tebao.cn:8088/beifang.php?id=488
CCTV-2高清,http://tebao.cn:8088/beifang.php?id=061
CCTV-3高清,http://tebao.cn:8088/beifang.php?id=062
CCTV-4高清,http://tebao.cn:8088/beifang.php?id=063
CCTV-5高清,http://tebao.cn:8088/beifang.php?id=064
CCTV-5+高清,http://tebao.cn:8088/beifang.php?id=246
CCTV-6高清,http://tebao.cn:8088/beifang.php?id=065
CCTV-7高清,http://tebao.cn:8088/beifang.php?id=127
CCTV-8高清,http://tebao.cn:8088/beifang.php?id=066
CCTV-9高清,http://tebao.cn:8088/beifang.php?id=128
CCTV-10高清,http://tebao.cn:8088/beifang.php?id=129
CCTV-11高清,http://tebao.cn:8088/beifang.php?id=130
CCTV-12高清,http://tebao.cn:8088/beifang.php?id=131
CCTV-13高清,http://tebao.cn:8088/beifang.php?id=067
CCTV-14高清,http://tebao.cn:8088/beifang.php?id=132
CCTV-15高清,http://tebao.cn:8088/beifang.php?id=133
CCTV-17高清,http://tebao.cn:8088/beifang.php?id=204
59号[1920*1080],http://httplive.slave.bfgd.com.cn:14311/playurl?playtype=live&protocol=http&accesstoken=R5F2408FEU3198804BK78052214IE73560DFP2BF4M340CE68V0Z339CBW1626D4D261E46FEA&playtoken=ABCDEFGH&programid=4200000059
58号[1920*1080],http://httplive.slave.bfgd.com.cn:14311/playurl?playtype=live&protocol=http&accesstoken=R5F2408FEU3198804BK78052214IE73560DFP2BF4M340CE68V0Z339CBW1626D4D261E46FEA&playtoken=ABCDEFGH&programid=4200000058
61号[1920*1080],http://httplive.slave.bfgd.com.cn:14311/playurl?playtype=live&protocol=http&accesstoken=R5F2408FEU3198804BK78052214IE73560DFP2BF4M340CE68V0Z339CBW1626D4D261E46FEA&playtoken=ABCDEFGH&programid=4200000061
62号[1920*1080],http://httplive.slave.bfgd.com.cn:14311/playurl?playtype=live&protocol=http&accesstoken=R5F2408FEU3198804BK78052214IE73560DFP2BF4M340CE68V0Z339CBW1626D4D261E46FEA&playtoken=ABCDEFGH&programid=4200000062
63号[1920*1080],http://httplive.slave.bfgd.com.cn:14311/playurl?playtype=live&protocol=http&accesstoken=R5F2408FEU3198804BK78052214IE73560DFP2BF4M340CE68V0Z339CBW1626D4D261E46FEA&playtoken=ABCDEFGH&programid=4200000063
64号[1920*1080],http://httplive.slave.bfgd.com.cn:14311/playurl?playtype=live&protocol=http&accesstoken=R5F2408FEU3198804BK78052214IE73560DFP2BF4M340CE68V0Z339CBW1626D4D261E46FEA&playtoken=ABCDEFGH&programid=4200000064
65号[1920*1080],http://httplive.slave.bfgd.com.cn:14311/playurl?playtype=live&protocol=http&accesstoken=R5F2408FEU3198804BK78052214IE73560DFP2BF4M340CE68V0Z339CBW1626D4D261E46FEA&playtoken=ABCDEFGH&programid=4200000065
66号CCTV8,http://httplive.slave.bfgd.com.cn:14311/playurl?playtype=live&protocol=http&accesstoken=R5F2408FEU3198804BK78052214IE73560DFP2BF4M340CE68V0Z339CBW1626D4D261E46FEA&playtoken=ABCDEFGH&programid=4200000066
CCTV13,http://httplive.slave.bfgd.com.cn:14311/playurl?playtype=live&protocol=http&accesstoken=R5F2408FEU3198804BK78052214IE73560DFP2BF4M340CE68V0Z339CBW1626D4D261E46FEA&playtoken=ABCDEFGH&programid=4200000067
68号[768*576],http://httplive.slave.bfgd.com.cn:14311/playurl?playtype=live&protocol=http&accesstoken=R5F2408FEU3198804BK78052214IE73560DFP2BF4M340CE68V0Z339CBW1626D4D261E46FEA&playtoken=ABCDEFGH&programid=4200000068
70号[1920*1080],http://httplive.slave.bfgd.com.cn:14311/playurl?playtype=live&protocol=http&accesstoken=R5F2408FEU3198804BK78052214IE73560DFP2BF4M340CE68V0Z339CBW1626D4D261E46FEA&playtoken=ABCDEFGH&programid=4200000070
71号[1920*1080],http://httplive.slave.bfgd.com.cn:14311/playurl?playtype=live&protocol=http&accesstoken=R5F2408FEU3198804BK78052214IE73560DFP2BF4M340CE68V0Z339CBW1626D4D261E46FEA&playtoken=ABCDEFGH&programid=4200000071
73号[1920*1080],http://httplive.slave.bfgd.com.cn:14311/playurl?playtype=live&protocol=http&accesstoken=R5F2408FEU3198804BK78052214IE73560DFP2BF4M340CE68V0Z339CBW1626D4D261E46FEA&playtoken=ABCDEFGH&programid=4200000073
75号[1920*1080],http://httplive.slave.bfgd.com.cn:14311/playurl?playtype=live&protocol=http&accesstoken=R5F2408FEU3198804BK78052214IE73560DFP2BF4M340CE68V0Z339CBW1626D4D261E46FEA&playtoken=ABCDEFGH&programid=4200000075
76号[1920*1080],http://httplive.slave.bfgd.com.cn:14311/playurl?playtype=live&protocol=http&accesstoken=R5F2408FEU3198804BK78052214IE73560DFP2BF4M340CE68V0Z339CBW1626D4D261E46FEA&playtoken=ABCDEFGH&programid=4200000076
77号[1920*1080],http://httplive.slave.bfgd.com.cn:14311/playurl?playtype=live&protocol=http&accesstoken=R5F2408FEU3198804BK78052214IE73560DFP2BF4M340CE68V0Z339CBW1626D4D261E46FEA&playtoken=ABCDEFGH&programid=4200000077
83号[1920*1080],http://httplive.slave.bfgd.com.cn:14311/playurl?playtype=live&protocol=http&accesstoken=R5F2408FEU3198804BK78052214IE73560DFP2BF4M340CE68V0Z339CBW1626D4D261E46FEA&playtoken=ABCDEFGH&programid=4200000083
84号[1920*1080],http://httplive.slave.bfgd.com.cn:14311/playurl?playtype=live&protocol=http&accesstoken=R5F2408FEU3198804BK78052214IE73560DFP2BF4M340CE68V0Z339CBW1626D4D261E46FEA&playtoken=ABCDEFGH&programid=4200000084
85号[1920*1080],http://httplive.slave.bfgd.com.cn:14311/playurl?playtype=live&protocol=http&accesstoken=R5F2408FEU3198804BK78052214IE73560DFP2BF4M340CE68V0Z339CBW1626D4D261E46FEA&playtoken=ABCDEFGH&programid=4200000085
86号[1920*1080],http://httplive.slave.bfgd.com.cn:14311/playurl?playtype=live&protocol=http&accesstoken=R5F2408FEU3198804BK78052214IE73560DFP2BF4M340CE68V0Z339CBW1626D4D261E46FEA&playtoken=ABCDEFGH&programid=4200000086
92号[1920*1080],http://httplive.slave.bfgd.com.cn:14311/playurl?playtype=live&protocol=http&accesstoken=R5F2408FEU3198804BK78052214IE73560DFP2BF4M340CE68V0Z339CBW1626D4D261E46FEA&playtoken=ABCDEFGH&programid=4200000092
93号[1920*1080],http://httplive.slave.bfgd.com.cn:14311/playurl?playtype=live&protocol=http&accesstoken=R5F2408FEU3198804BK78052214IE73560DFP2BF4M340CE68V0Z339CBW1626D4D261E46FEA&playtoken=ABCDEFGH&programid=4200000093
94号[1920*1080],http://httplive.slave.bfgd.com.cn:14311/playurl?playtype=live&protocol=http&accesstoken=R5F2408FEU3198804BK78052214IE73560DFP2BF4M340CE68V0Z339CBW1626D4D261E46FEA&playtoken=ABCDEFGH&programid=4200000094
95号[1920*1080],http://httplive.slave.bfgd.com.cn:14311/playurl?playtype=live&protocol=http&accesstoken=R5F2408FEU3198804BK78052214IE73560DFP2BF4M340CE68V0Z339CBW1626D4D261E46FEA&playtoken=ABCDEFGH&programid=4200000095
96号[1920*1080],http://httplive.slave.bfgd.com.cn:14311/playurl?playtype=live&protocol=http&accesstoken=R5F2408FEU3198804BK78052214IE73560DFP2BF4M340CE68V0Z339CBW1626D4D261E46FEA&playtoken=ABCDEFGH&programid=4200000096
97号[1920*1080],http://httplive.slave.bfgd.com.cn:14311/playurl?playtype=live&protocol=http&accesstoken=R5F2408FEU3198804BK78052214IE73560DFP2BF4M340CE68V0Z339CBW1626D4D261E46FEA&playtoken=ABCDEFGH&programid=4200000097
98号[1920*1080],http://httplive.slave.bfgd.com.cn:14311/playurl?playtype=live&protocol=http&accesstoken=R5F2408FEU3198804BK78052214IE73560DFP2BF4M340CE68V0Z339CBW1626D4D261E46FEA&playtoken=ABCDEFGH&programid=4200000098
100号[1920*1080],http://httplive.slave.bfgd.com.cn:14311/playurl?playtype=live&protocol=http&accesstoken=R5F2408FEU3198804BK78052214IE73560DFP2BF4M340CE68V0Z339CBW1626D4D261E46FEA&playtoken=ABCDEFGH&programid=4200000100
99号[1920*1080],http://httplive.slave.bfgd.com.cn:14311/playurl?playtype=live&protocol=http&accesstoken=R5F2408FEU3198804BK78052214IE73560DFP2BF4M340CE68V0Z339CBW1626D4D261E46FEA&playtoken=ABCDEFGH&programid=4200000099
101号[1920*1080],http://httplive.slave.bfgd.com.cn:14311/playurl?playtype=live&protocol=http&accesstoken=R5F2408FEU3198804BK78052214IE73560DFP2BF4M340CE68V0Z339CBW1626D4D261E46FEA&playtoken=ABCDEFGH&programid=4200000101
102号[1920*1080],http://httplive.slave.bfgd.com.cn:14311/playurl?playtype=live&protocol=http&accesstoken=R5F2408FEU3198804BK78052214IE73560DFP2BF4M340CE68V0Z339CBW1626D4D261E46FEA&playtoken=ABCDEFGH&programid=4200000102
103号[1920*1080],http://httplive.slave.bfgd.com.cn:14311/playurl?playtype=live&protocol=http&accesstoken=R5F2408FEU3198804BK78052214IE73560DFP2BF4M340CE68V0Z339CBW1626D4D261E46FEA&playtoken=ABCDEFGH&programid=4200000103
106号[768*576],http://httplive.slave.bfgd.com.cn:14311/playurl?playtype=live&protocol=http&accesstoken=R5F2408FEU3198804BK78052214IE73560DFP2BF4M340CE68V0Z339CBW1626D4D261E46FEA&playtoken=ABCDEFGH&programid=4200000106
104号[768*576],http://httplive.slave.bfgd.com.cn:14311/playurl?playtype=live&protocol=http&accesstoken=R5F2408FEU3198804BK78052214IE73560DFP2BF4M340CE68V0Z339CBW1626D4D261E46FEA&playtoken=ABCDEFGH&programid=4200000104
108号[1920*1080],http://httplive.slave.bfgd.com.cn:14311/playurl?playtype=live&protocol=http&accesstoken=R5F2408FEU3198804BK78052214IE73560DFP2BF4M340CE68V0Z339CBW1626D4D261E46FEA&playtoken=ABCDEFGH&programid=4200000108
107号[1920*1080],http://httplive.slave.bfgd.com.cn:14311/playurl?playtype=live&protocol=http&accesstoken=R5F2408FEU3198804BK78052214IE73560DFP2BF4M340CE68V0Z339CBW1626D4D261E46FEA&playtoken=ABCDEFGH&programid=4200000107
109号[768*576],http://httplive.slave.bfgd.com.cn:14311/playurl?playtype=live&protocol=http&accesstoken=R5F2408FEU3198804BK78052214IE73560DFP2BF4M340CE68V0Z339CBW1626D4D261E46FEA&playtoken=ABCDEFGH&programid=4200000109
110号[768*576],http://httplive.slave.bfgd.com.cn:14311/playurl?playtype=live&protocol=http&accesstoken=R5F2408FEU3198804BK78052214IE73560DFP2BF4M340CE68V0Z339CBW1626D4D261E46FEA&playtoken=ABCDEFGH&programid=4200000110
111号[1920*1080],http://httplive.slave.bfgd.com.cn:14311/playurl?playtype=live&protocol=http&accesstoken=R5F2408FEU3198804BK78052214IE73560DFP2BF4M340CE68V0Z339CBW1626D4D261E46FEA&playtoken=ABCDEFGH&programid=4200000111
112号[768*576],http://httplive.slave.bfgd.com.cn:14311/playurl?playtype=live&protocol=http&accesstoken=R5F2408FEU3198804BK78052214IE73560DFP2BF4M340CE68V0Z339CBW1626D4D261E46FEA&playtoken=ABCDEFGH&programid=4200000112
113号[1920*1080],http://httplive.slave.bfgd.com.cn:14311/playurl?playtype=live&protocol=http&accesstoken=R5F2408FEU3198804BK78052214IE73560DFP2BF4M340CE68V0Z339CBW1626D4D261E46FEA&playtoken=ABCDEFGH&programid=4200000113
116号[1920*1080],http://httplive.slave.bfgd.com.cn:14311/playurl?playtype=live&protocol=http&accesstoken=R5F2408FEU3198804BK78052214IE73560DFP2BF4M340CE68V0Z339CBW1626D4D261E46FEA&playtoken=ABCDEFGH&programid=4200000116
117号[768*576],http://httplive.slave.bfgd.com.cn:14311/playurl?playtype=live&protocol=http&accesstoken=R5F2408FEU3198804BK78052214IE73560DFP2BF4M340CE68V0Z339CBW1626D4D261E46FEA&playtoken=ABCDEFGH&programid=4200000117
118号[768*576],http://httplive.slave.bfgd.com.cn:14311/playurl?playtype=live&protocol=http&accesstoken=R5F2408FEU3198804BK78052214IE73560DFP2BF4M340CE68V0Z339CBW1626D4D261E46FEA&playtoken=ABCDEFGH&programid=4200000118
119号[1920*1080],http://httplive.slave.bfgd.com.cn:14311/playurl?playtype=live&protocol=http&accesstoken=R5F2408FEU3198804BK78052214IE73560DFP2BF4M340CE68V0Z339CBW1626D4D261E46FEA&playtoken=ABCDEFGH&programid=4200000119
121号[768*576],http://httplive.slave.bfgd.com.cn:14311/playurl?playtype=live&protocol=http&accesstoken=R5F2408FEU3198804BK78052214IE73560DFP2BF4M340CE68V0Z339CBW1626D4D261E46FEA&playtoken=ABCDEFGH&programid=4200000121
122号[768*576],http://httplive.slave.bfgd.com.cn:14311/playurl?playtype=live&protocol=http&accesstoken=R5F2408FEU3198804BK78052214IE73560DFP2BF4M340CE68V0Z339CBW1626D4D261E46FEA&playtoken=ABCDEFGH&programid=4200000122
124号[768*576],http://httplive.slave.bfgd.com.cn:14311/playurl?playtype=live&protocol=http&accesstoken=R5F2408FEU3198804BK78052214IE73560DFP2BF4M340CE68V0Z339CBW1626D4D261E46FEA&playtoken=ABCDEFGH&programid=4200000124
127号[1920*1080],http://httplive.slave.bfgd.com.cn:14311/playurl?playtype=live&protocol=http&accesstoken=R5F2408FEU3198804BK78052214IE73560DFP2BF4M340CE68V0Z339CBW1626D4D261E46FEA&playtoken=ABCDEFGH&programid=4200000127
128号[1920*1080],http://httplive.slave.bfgd.com.cn:14311/playurl?playtype=live&protocol=http&accesstoken=R5F2408FEU3198804BK78052214IE73560DFP2BF4M340CE68V0Z339CBW1626D4D261E46FEA&playtoken=ABCDEFGH&programid=4200000128
129号[1920*1080],http://httplive.slave.bfgd.com.cn:14311/playurl?playtype=live&protocol=http&accesstoken=R5F2408FEU3198804BK78052214IE73560DFP2BF4M340CE68V0Z339CBW1626D4D261E46FEA&playtoken=ABCDEFGH&programid=4200000129
130号[1920*1080],http://httplive.slave.bfgd.com.cn:14311/playurl?playtype=live&protocol=http&accesstoken=R5F2408FEU3198804BK78052214IE73560DFP2BF4M340CE68V0Z339CBW1626D4D261E46FEA&playtoken=ABCDEFGH&programid=4200000130
131号[1920*1080],http://httplive.slave.bfgd.com.cn:14311/playurl?playtype=live&protocol=http&accesstoken=R5F2408FEU3198804BK78052214IE73560DFP2BF4M340CE68V0Z339CBW1626D4D261E46FEA&playtoken=ABCDEFGH&programid=4200000131
132号[1920*1080],http://httplive.slave.bfgd.com.cn:14311/playurl?playtype=live&protocol=http&accesstoken=R5F2408FEU3198804BK78052214IE73560DFP2BF4M340CE68V0Z339CBW1626D4D261E46FEA&playtoken=ABCDEFGH&programid=4200000132
133号[1920*1080],http://httplive.slave.bfgd.com.cn:14311/playurl?playtype=live&protocol=http&accesstoken=R5F2408FEU3198804BK78052214IE73560DFP2BF4M340CE68V0Z339CBW1626D4D261E46FEA&playtoken=ABCDEFGH&programid=4200000133
135号[1920*1080],http://httplive.slave.bfgd.com.cn:14311/playurl?playtype=live&protocol=http&accesstoken=R5F2408FEU3198804BK78052214IE73560DFP2BF4M340CE68V0Z339CBW1626D4D261E46FEA&playtoken=ABCDEFGH&programid=4200000135
134号[768*576],http://httplive.slave.bfgd.com.cn:14311/playurl?playtype=live&protocol=http&accesstoken=R5F2408FEU3198804BK78052214IE73560DFP2BF4M340CE68V0Z339CBW1626D4D261E46FEA&playtoken=ABCDEFGH&programid=4200000134
139号[768*576],http://httplive.slave.bfgd.com.cn:14311/playurl?playtype=live&protocol=http&accesstoken=R5F2408FEU3198804BK78052214IE73560DFP2BF4M340CE68V0Z339CBW1626D4D261E46FEA&playtoken=ABCDEFGH&programid=4200000139
141号[768*576],http://httplive.slave.bfgd.com.cn:14311/playurl?playtype=live&protocol=http&accesstoken=R5F2408FEU3198804BK78052214IE73560DFP2BF4M340CE68V0Z339CBW1626D4D261E46FEA&playtoken=ABCDEFGH&programid=4200000141
144号[768*576],http://httplive.slave.bfgd.com.cn:14311/playurl?playtype=live&protocol=http&accesstoken=R5F2408FEU3198804BK78052214IE73560DFP2BF4M340CE68V0Z339CBW1626D4D261E46FEA&playtoken=ABCDEFGH&programid=4200000144
146号[768*576],http://httplive.slave.bfgd.com.cn:14311/playurl?playtype=live&protocol=http&accesstoken=R5F2408FEU3198804BK78052214IE73560DFP2BF4M340CE68V0Z339CBW1626D4D261E46FEA&playtoken=ABCDEFGH&programid=4200000146
147号[768*576],http://httplive.slave.bfgd.com.cn:14311/playurl?playtype=live&protocol=http&accesstoken=R5F2408FEU3198804BK78052214IE73560DFP2BF4M340CE68V0Z339CBW1626D4D261E46FEA&playtoken=ABCDEFGH&programid=4200000147
149号[768*576],http://httplive.slave.bfgd.com.cn:14311/playurl?playtype=live&protocol=http&accesstoken=R5F2408FEU3198804BK78052214IE73560DFP2BF4M340CE68V0Z339CBW1626D4D261E46FEA&playtoken=ABCDEFGH&programid=4200000149
150号[768*576],http://httplive.slave.bfgd.com.cn:14311/playurl?playtype=live&protocol=http&accesstoken=R5F2408FEU3198804BK78052214IE73560DFP2BF4M340CE68V0Z339CBW1626D4D261E46FEA&playtoken=ABCDEFGH&programid=4200000150
151号[768*576],http://httplive.slave.bfgd.com.cn:14311/playurl?playtype=live&protocol=http&accesstoken=R5F2408FEU3198804BK78052214IE73560DFP2BF4M340CE68V0Z339CBW1626D4D261E46FEA&playtoken=ABCDEFGH&programid=4200000151
153号[768*576],http://httplive.slave.bfgd.com.cn:14311/playurl?playtype=live&protocol=http&accesstoken=R5F2408FEU3198804BK78052214IE73560DFP2BF4M340CE68V0Z339CBW1626D4D261E46FEA&playtoken=ABCDEFGH&programid=4200000153
155号[768*576],http://httplive.slave.bfgd.com.cn:14311/playurl?playtype=live&protocol=http&accesstoken=R5F2408FEU3198804BK78052214IE73560DFP2BF4M340CE68V0Z339CBW1626D4D261E46FEA&playtoken=ABCDEFGH&programid=4200000155
158号[768*576],http://httplive.slave.bfgd.com.cn:14311/playurl?playtype=live&protocol=http&accesstoken=R5F2408FEU3198804BK78052214IE73560DFP2BF4M340CE68V0Z339CBW1626D4D261E46FEA&playtoken=ABCDEFGH&programid=4200000158
162号[1024*576],http://httplive.slave.bfgd.com.cn:14311/playurl?playtype=live&protocol=http&accesstoken=R5F2408FEU3198804BK78052214IE73560DFP2BF4M340CE68V0Z339CBW1626D4D261E46FEA&playtoken=ABCDEFGH&programid=4200000162
164号[768*576],http://httplive.slave.bfgd.com.cn:14311/playurl?playtype=live&protocol=http&accesstoken=R5F2408FEU3198804BK78052214IE73560DFP2BF4M340CE68V0Z339CBW1626D4D261E46FEA&playtoken=ABCDEFGH&programid=4200000164
166号[768*576],http://httplive.slave.bfgd.com.cn:14311/playurl?playtype=live&protocol=http&accesstoken=R5F2408FEU3198804BK78052214IE73560DFP2BF4M340CE68V0Z339CBW1626D4D261E46FEA&playtoken=ABCDEFGH&programid=4200000166
168号[1024*576],http://httplive.slave.bfgd.com.cn:14311/playurl?playtype=live&protocol=http&accesstoken=R5F2408FEU3198804BK78052214IE73560DFP2BF4M340CE68V0Z339CBW1626D4D261E46FEA&playtoken=ABCDEFGH&programid=4200000168
169号[768*576],http://httplive.slave.bfgd.com.cn:14311/playurl?playtype=live&protocol=http&accesstoken=R5F2408FEU3198804BK78052214IE73560DFP2BF4M340CE68V0Z339CBW1626D4D261E46FEA&playtoken=ABCDEFGH&programid=4200000169
176号[768*576],http://httplive.slave.bfgd.com.cn:14311/playurl?playtype=live&protocol=http&accesstoken=R5F2408FEU3198804BK78052214IE73560DFP2BF4M340CE68V0Z339CBW1626D4D261E46FEA&playtoken=ABCDEFGH&programid=4200000176
177号[768*576],http://httplive.slave.bfgd.com.cn:14311/playurl?playtype=live&protocol=http&accesstoken=R5F2408FEU3198804BK78052214IE73560DFP2BF4M340CE68V0Z339CBW1626D4D261E46FEA&playtoken=ABCDEFGH&programid=4200000177
180号[768*576],http://httplive.slave.bfgd.com.cn:14311/playurl?playtype=live&protocol=http&accesstoken=R5F2408FEU3198804BK78052214IE73560DFP2BF4M340CE68V0Z339CBW1626D4D261E46FEA&playtoken=ABCDEFGH&programid=4200000180
181号[1024*576],http://httplive.slave.bfgd.com.cn:14311/playurl?playtype=live&protocol=http&accesstoken=R5F2408FEU3198804BK78052214IE73560DFP2BF4M340CE68V0Z339CBW1626D4D261E46FEA&playtoken=ABCDEFGH&programid=4200000181
187号[1023*576],http://httplive.slave.bfgd.com.cn:14311/playurl?playtype=live&protocol=http&accesstoken=R5F2408FEU3198804BK78052214IE73560DFP2BF4M340CE68V0Z339CBW1626D4D261E46FEA&playtoken=ABCDEFGH&programid=4200000187
204号[1920*1080],http://httplive.slave.bfgd.com.cn:14311/playurl?playtype=live&protocol=http&accesstoken=R5F2408FEU3198804BK78052214IE73560DFP2BF4M340CE68V0Z339CBW1626D4D261E46FEA&playtoken=ABCDEFGH&programid=4200000204
219号[768*576],http://httplive.slave.bfgd.com.cn:14311/playurl?playtype=live&protocol=http&accesstoken=R5F2408FEU3198804BK78052214IE73560DFP2BF4M340CE68V0Z339CBW1626D4D261E46FEA&playtoken=ABCDEFGH&programid=4200000219
222号[768*576],http://httplive.slave.bfgd.com.cn:14311/playurl?playtype=live&protocol=http&accesstoken=R5F2408FEU3198804BK78052214IE73560DFP2BF4M340CE68V0Z339CBW1626D4D261E46FEA&playtoken=ABCDEFGH&programid=4200000222
228号[1024*576],http://httplive.slave.bfgd.com.cn:14311/playurl?playtype=live&protocol=http&accesstoken=R5F2408FEU3198804BK78052214IE73560DFP2BF4M340CE68V0Z339CBW1626D4D261E46FEA&playtoken=ABCDEFGH&programid=4200000228
229号[768*576],http://httplive.slave.bfgd.com.cn:14311/playurl?playtype=live&protocol=http&accesstoken=R5F2408FEU3198804BK78052214IE73560DFP2BF4M340CE68V0Z339CBW1626D4D261E46FEA&playtoken=ABCDEFGH&programid=4200000229
231号[768*576],http://httplive.slave.bfgd.com.cn:14311/playurl?playtype=live&protocol=http&accesstoken=R5F2408FEU3198804BK78052214IE73560DFP2BF4M340CE68V0Z339CBW1626D4D261E46FEA&playtoken=ABCDEFGH&programid=4200000231
246号[1920*1080],http://httplive.slave.bfgd.com.cn:14311/playurl?playtype=live&protocol=http&accesstoken=R5F2408FEU3198804BK78052214IE73560DFP2BF4M340CE68V0Z339CBW1626D4D261E46FEA&playtoken=ABCDEFGH&programid=4200000246
249号[1920*1080],http://httplive.slave.bfgd.com.cn:14311/playurl?playtype=live&protocol=http&accesstoken=R5F2408FEU3198804BK78052214IE73560DFP2BF4M340CE68V0Z339CBW1626D4D261E46FEA&playtoken=ABCDEFGH&programid=4200000249
274号[1920*1080],http://httplive.slave.bfgd.com.cn:14311/playurl?playtype=live&protocol=http&accesstoken=R5F2408FEU3198804BK78052214IE73560DFP2BF4M340CE68V0Z339CBW1626D4D261E46FEA&playtoken=ABCDEFGH&programid=4200000274
273号[1920*1080],http://httplive.slave.bfgd.com.cn:14311/playurl?playtype=live&protocol=http&accesstoken=R5F2408FEU3198804BK78052214IE73560DFP2BF4M340CE68V0Z339CBW1626D4D261E46FEA&playtoken=ABCDEFGH&programid=4200000273
275号[768*576],http://httplive.slave.bfgd.com.cn:14311/playurl?playtype=live&protocol=http&accesstoken=R5F2408FEU3198804BK78052214IE73560DFP2BF4M340CE68V0Z339CBW1626D4D261E46FEA&playtoken=ABCDEFGH&programid=4200000275
276号[1920*1080],http://httplive.slave.bfgd.com.cn:14311/playurl?playtype=live&protocol=http&accesstoken=R5F2408FEU3198804BK78052214IE73560DFP2BF4M340CE68V0Z339CBW1626D4D261E46FEA&playtoken=ABCDEFGH&programid=4200000276
277号[768*576],http://httplive.slave.bfgd.com.cn:14311/playurl?playtype=live&protocol=http&accesstoken=R5F2408FEU3198804BK78052214IE73560DFP2BF4M340CE68V0Z339CBW1626D4D261E46FEA&playtoken=ABCDEFGH&programid=4200000277
278号[1920*1080],http://httplive.slave.bfgd.com.cn:14311/playurl?playtype=live&protocol=http&accesstoken=R5F2408FEU3198804BK78052214IE73560DFP2BF4M340CE68V0Z339CBW1626D4D261E46FEA&playtoken=ABCDEFGH&programid=4200000278
280号[1920*1080],http://httplive.slave.bfgd.com.cn:14311/playurl?playtype=live&protocol=http&accesstoken=R5F2408FEU3198804BK78052214IE73560DFP2BF4M340CE68V0Z339CBW1626D4D261E46FEA&playtoken=ABCDEFGH&programid=4200000280
279号[785*576],http://httplive.slave.bfgd.com.cn:14311/playurl?playtype=live&protocol=http&accesstoken=R5F2408FEU3198804BK78052214IE73560DFP2BF4M340CE68V0Z339CBW1626D4D261E46FEA&playtoken=ABCDEFGH&programid=4200000279
281号[768*576],http://httplive.slave.bfgd.com.cn:14311/playurl?playtype=live&protocol=http&accesstoken=R5F2408FEU3198804BK78052214IE73560DFP2BF4M340CE68V0Z339CBW1626D4D261E46FEA&playtoken=ABCDEFGH&programid=4200000281
282号[1920*1080],http://httplive.slave.bfgd.com.cn:14311/playurl?playtype=live&protocol=http&accesstoken=R5F2408FEU3198804BK78052214IE73560DFP2BF4M340CE68V0Z339CBW1626D4D261E46FEA&playtoken=ABCDEFGH&programid=4200000282
283号[1920*1080],http://httplive.slave.bfgd.com.cn:14311/playurl?playtype=live&protocol=http&accesstoken=R5F2408FEU3198804BK78052214IE73560DFP2BF4M340CE68V0Z339CBW1626D4D261E46FEA&playtoken=ABCDEFGH&programid=4200000283
284号[1920*1080],http://httplive.slave.bfgd.com.cn:14311/playurl?playtype=live&protocol=http&accesstoken=R5F2408FEU3198804BK78052214IE73560DFP2BF4M340CE68V0Z339CBW1626D4D261E46FEA&playtoken=ABCDEFGH&programid=4200000284
286号[1920*1080],http://httplive.slave.bfgd.com.cn:14311/playurl?playtype=live&protocol=http&accesstoken=R5F2408FEU3198804BK78052214IE73560DFP2BF4M340CE68V0Z339CBW1626D4D261E46FEA&playtoken=ABCDEFGH&programid=4200000286
287号[1920*1080],http://httplive.slave.bfgd.com.cn:14311/playurl?playtype=live&protocol=http&accesstoken=R5F2408FEU3198804BK78052214IE73560DFP2BF4M340CE68V0Z339CBW1626D4D261E46FEA&playtoken=ABCDEFGH&programid=4200000287
288号[1920*1080],http://httplive.slave.bfgd.com.cn:14311/playurl?playtype=live&protocol=http&accesstoken=R5F2408FEU3198804BK78052214IE73560DFP2BF4M340CE68V0Z339CBW1626D4D261E46FEA&playtoken=ABCDEFGH&programid=4200000288
289号[1920*1080],http://httplive.slave.bfgd.com.cn:14311/playurl?playtype=live&protocol=http&accesstoken=R5F2408FEU3198804BK78052214IE73560DFP2BF4M340CE68V0Z339CBW1626D4D261E46FEA&playtoken=ABCDEFGH&programid=4200000289
290号[1920*1080],http://httplive.slave.bfgd.com.cn:14311/playurl?playtype=live&protocol=http&accesstoken=R5F2408FEU3198804BK78052214IE73560DFP2BF4M340CE68V0Z339CBW1626D4D261E46FEA&playtoken=ABCDEFGH&programid=4200000290
293号[1920*1080],http://httplive.slave.bfgd.com.cn:14311/playurl?playtype=live&protocol=http&accesstoken=R5F2408FEU3198804BK78052214IE73560DFP2BF4M340CE68V0Z339CBW1626D4D261E46FEA&playtoken=ABCDEFGH&programid=4200000293
291号[1920*1080],http://httplive.slave.bfgd.com.cn:14311/playurl?playtype=live&protocol=http&accesstoken=R5F2408FEU3198804BK78052214IE73560DFP2BF4M340CE68V0Z339CBW1626D4D261E46FEA&playtoken=ABCDEFGH&programid=4200000291
292号[1920*1080],http://httplive.slave.bfgd.com.cn:14311/playurl?playtype=live&protocol=http&accesstoken=R5F2408FEU3198804BK78052214IE73560DFP2BF4M340CE68V0Z339CBW1626D4D261E46FEA&playtoken=ABCDEFGH&programid=4200000292
294号[1920*1080],http://httplive.slave.bfgd.com.cn:14311/playurl?playtype=live&protocol=http&accesstoken=R5F2408FEU3198804BK78052214IE73560DFP2BF4M340CE68V0Z339CBW1626D4D261E46FEA&playtoken=ABCDEFGH&programid=4200000294
297号[1920*1080],http://httplive.slave.bfgd.com.cn:14311/playurl?playtype=live&protocol=http&accesstoken=R5F2408FEU3198804BK78052214IE73560DFP2BF4M340CE68V0Z339CBW1626D4D261E46FEA&playtoken=ABCDEFGH&programid=4200000297
295号[1920*1080],http://httplive.slave.bfgd.com.cn:14311/playurl?playtype=live&protocol=http&accesstoken=R5F2408FEU3198804BK78052214IE73560DFP2BF4M340CE68V0Z339CBW1626D4D261E46FEA&playtoken=ABCDEFGH&programid=4200000295
296号[1920*1080],http://httplive.slave.bfgd.com.cn:14311/playurl?playtype=live&protocol=http&accesstoken=R5F2408FEU3198804BK78052214IE73560DFP2BF4M340CE68V0Z339CBW1626D4D261E46FEA&playtoken=ABCDEFGH&programid=4200000296
298号[1920*1080],http://httplive.slave.bfgd.com.cn:14311/playurl?playtype=live&protocol=http&accesstoken=R5F2408FEU3198804BK78052214IE73560DFP2BF4M340CE68V0Z339CBW1626D4D261E46FEA&playtoken=ABCDEFGH&programid=4200000298
306号[768*576],http://httplive.slave.bfgd.com.cn:14311/playurl?playtype=live&protocol=http&accesstoken=R5F2408FEU3198804BK78052214IE73560DFP2BF4M340CE68V0Z339CBW1626D4D261E46FEA&playtoken=ABCDEFGH&programid=4200000306
307号[768*576],http://httplive.slave.bfgd.com.cn:14311/playurl?playtype=live&protocol=http&accesstoken=R5F2408FEU3198804BK78052214IE73560DFP2BF4M340CE68V0Z339CBW1626D4D261E46FEA&playtoken=ABCDEFGH&programid=4200000307
308号[768*576],http://httplive.slave.bfgd.com.cn:14311/playurl?playtype=live&protocol=http&accesstoken=R5F2408FEU3198804BK78052214IE73560DFP2BF4M340CE68V0Z339CBW1626D4D261E46FEA&playtoken=ABCDEFGH&programid=4200000308
305号[768*576],http://httplive.slave.bfgd.com.cn:14311/playurl?playtype=live&protocol=http&accesstoken=R5F2408FEU3198804BK78052214IE73560DFP2BF4M340CE68V0Z339CBW1626D4D261E46FEA&playtoken=ABCDEFGH&programid=4200000305
309号[768*576],http://httplive.slave.bfgd.com.cn:14311/playurl?playtype=live&protocol=http&accesstoken=R5F2408FEU3198804BK78052214IE73560DFP2BF4M340CE68V0Z339CBW1626D4D261E46FEA&playtoken=ABCDEFGH&programid=4200000309
339号[1920*1080],http://httplive.slave.bfgd.com.cn:14311/playurl?playtype=live&protocol=http&accesstoken=R5F2408FEU3198804BK78052214IE73560DFP2BF4M340CE68V0Z339CBW1626D4D261E46FEA&playtoken=ABCDEFGH&programid=4200000339
350号[1920*1080],http://httplive.slave.bfgd.com.cn:14311/playurl?playtype=live&protocol=http&accesstoken=R5F2408FEU3198804BK78052214IE73560DFP2BF4M340CE68V0Z339CBW1626D4D261E46FEA&playtoken=ABCDEFGH&programid=4200000350
349号[768*576],http://httplive.slave.bfgd.com.cn:14311/playurl?playtype=live&protocol=http&accesstoken=R5F2408FEU3198804BK78052214IE73560DFP2BF4M340CE68V0Z339CBW1626D4D261E46FEA&playtoken=ABCDEFGH&programid=4200000349
473号[1920*1080],http://httplive.slave.bfgd.com.cn:14311/playurl?playtype=live&protocol=http&accesstoken=R5F2408FEU3198804BK78052214IE73560DFP2BF4M340CE68V0Z339CBW1626D4D261E46FEA&playtoken=ABCDEFGH&programid=4200000473
480号[1920*1080],http://httplive.slave.bfgd.com.cn:14311/playurl?playtype=live&protocol=http&accesstoken=R5F2408FEU3198804BK78052214IE73560DFP2BF4M340CE68V0Z339CBW1626D4D261E46FEA&playtoken=ABCDEFGH&programid=4200000480
482号[1920*1080],http://httplive.slave.bfgd.com.cn:14311/playurl?playtype=live&protocol=http&accesstoken=R5F2408FEU3198804BK78052214IE73560DFP2BF4M340CE68V0Z339CBW1626D4D261E46FEA&playtoken=ABCDEFGH&programid=4200000482
481号[1920*1080],http://httplive.slave.bfgd.com.cn:14311/playurl?playtype=live&protocol=http&accesstoken=R5F2408FEU3198804BK78052214IE73560DFP2BF4M340CE68V0Z339CBW1626D4D261E46FEA&playtoken=ABCDEFGH&programid=4200000481
483号[1920*1080],http://httplive.slave.bfgd.com.cn:14311/playurl?playtype=live&protocol=http&accesstoken=R5F2408FEU3198804BK78052214IE73560DFP2BF4M340CE68V0Z339CBW1626D4D261E46FEA&playtoken=ABCDEFGH&programid=4200000483
484号[1920*1080],http://httplive.slave.bfgd.com.cn:14311/playurl?playtype=live&protocol=http&accesstoken=R5F2408FEU3198804BK78052214IE73560DFP2BF4M340CE68V0Z339CBW1626D4D261E46FEA&playtoken=ABCDEFGH&programid=4200000484
490号[768*576],http://httplive.slave.bfgd.com.cn:14311/playurl?playtype=live&protocol=http&accesstoken=R5F2408FEU3198804BK78052214IE73560DFP2BF4M340CE68V0Z339CBW1626D4D261E46FEA&playtoken=ABCDEFGH&programid=4200000490
489号[1920*1080],http://httplive.slave.bfgd.com.cn:14311/playurl?playtype=live&protocol=http&accesstoken=R5F2408FEU3198804BK78052214IE73560DFP2BF4M340CE68V0Z339CBW1626D4D261E46FEA&playtoken=ABCDEFGH&programid=4200000489
488号[1920*1080],http://httplive.slave.bfgd.com.cn:14311/playurl?playtype=live&protocol=http&accesstoken=R5F2408FEU3198804BK78052214IE73560DFP2BF4M340CE68V0Z339CBW1626D4D261E46FEA&playtoken=ABCDEFGH&programid=4200000488
491号[768*576],http://httplive.slave.bfgd.com.cn:14311/playurl?playtype=live&protocol=http&accesstoken=R5F2408FEU3198804BK78052214IE73560DFP2BF4M340CE68V0Z339CBW1626D4D261E46FEA&playtoken=ABCDEFGH&programid=4200000491
492号[768*576],http://httplive.slave.bfgd.com.cn:14311/playurl?playtype=live&protocol=http&accesstoken=R5F2408FEU3198804BK78052214IE73560DFP2BF4M340CE68V0Z339CBW1626D4D261E46FEA&playtoken=ABCDEFGH&programid=4200000492
512号[1920*1080],http://httplive.slave.bfgd.com.cn:14311/playurl?playtype=live&protocol=http&accesstoken=R5F2408FEU3198804BK78052214IE73560DFP2BF4M340CE68V0Z339CBW1626D4D261E46FEA&playtoken=ABCDEFGH&programid=4200000512
