﻿CCTV-1,http://www.superkit.cn:8888/rtp/239.77.1.17:5146
CCTV-1,http://www.superkit.cn:8888/rtp/239.77.1.144:5146
CCTV-1,http://www.superkit.cn:8888/rtp/239.77.0.86:5146
CCTV-1,http://www.superkit.cn:8888/rtp/239.77.0.129:5146
CCTV-2,http://www.superkit.cn:8888/rtp/239.77.1.158:5146
CCTV-2,http://www.superkit.cn:8888/rtp/239.253.43.17:5146
CCTV-2,http://www.superkit.cn:8888/rtp/239.77.0.137:5146
CCTV-3,http://www.superkit.cn:8888/rtp/239.77.0.169:5146
CCTV-3,http://www.superkit.cn:8888/rtp/239.77.0.175:5146
CCTV-4,http://www.superkit.cn:8888/rtp/239.77.1.163:5146
CCTV-4,http://www.superkit.cn:8888/rtp/239.77.1.166:5146
CCTV-4,http://www.superkit.cn:8888/rtp/239.77.0.78:5146
CCTV-5,http://www.superkit.cn:8888/rtp/239.77.0.170:5146
CCTV-5,http://www.superkit.cn:8888/rtp/239.77.0.177:5146
CCTV-5+,http://www.superkit.cn:8888/rtp/239.77.0.87:5146
CCTV-5+,http://www.superkit.cn:8888/rtp/239.77.1.31:5146
CCTV-6,http://www.superkit.cn:8888/rtp/239.77.0.171:5146
CCTV-6,http://www.superkit.cn:8888/rtp/239.77.0.178:5146
CCTV-7,http://www.superkit.cn:8888/rtp/239.77.1.159:5146
CCTV-7,http://www.superkit.cn:8888/rtp/239.77.1.167:5146
CCTV-7,http://www.superkit.cn:8888/rtp/239.77.0.138:5146
CCTV-8,http://www.superkit.cn:8888/rtp/239.77.0.172:5146
CCTV-8,http://www.superkit.cn:8888/rtp/239.77.0.181:5146
CCTV-9,http://www.superkit.cn:8888/rtp/239.77.1.160:5146
CCTV-9,http://www.superkit.cn:8888/rtp/239.77.1.168:5146
CCTV-9,http://www.superkit.cn:8888/rtp/239.77.0.135:5146
CCTV-10,http://www.superkit.cn:8888/rtp/239.77.1.113:5146
CCTV-10,http://www.superkit.cn:8888/rtp/239.77.1.169:5146
CCTV-10,http://www.superkit.cn:8888/rtp/239.77.0.134:5146
CCTV-11,http://www.superkit.cn:8888/rtp/239.77.1.238:5146
CCTV-12,http://www.superkit.cn:8888/rtp/239.77.1.109:5146
CCTV-12,http://www.superkit.cn:8888/rtp/239.77.1.170:5146
CCTV-12,http://www.superkit.cn:8888/rtp/239.77.0.136:5146
CCTV-13,http://www.superkit.cn:8888/rtp/239.77.0.188:5146
CCTV-13,http://www.superkit.cn:8888/rtp/239.253.43.196:5146
CCTV-14,http://www.superkit.cn:8888/rtp/239.77.1.161:5146
CCTV-14,http://www.superkit.cn:8888/rtp/239.77.1.171:5146
CCTV-14,http://www.superkit.cn:8888/rtp/239.77.0.133:5146
CCTV-15,http://www.superkit.cn:8888/rtp/239.77.1.239:5146
CCTV-16,http://www.superkit.cn:8888/rtp/239.77.1.76:5146
CCTV-17,http://www.superkit.cn:8888/rtp/239.77.1.121:5146
CCTV-17,http://www.superkit.cn:8888/rtp/239.77.0.198:5146

兵器科技,http://www.superkit.cn:8888/rtp/239.253.43.18:5146
兵器科技,http://www.superkit.cn:8888/rtp/239.253.43.9:5146
电视指南,http://www.superkit.cn:8888/rtp/239.253.43.19:5146
电视指南,http://www.superkit.cn:8888/rtp/239.253.43.10:5146
风云足球,http://www.superkit.cn:8888/rtp/239.253.43.20:5146
风云足球,http://www.superkit.cn:8888/rtp/239.253.43.14:5146
央视台球,http://www.superkit.cn:8888/rtp/239.253.43.21:5146
央视台球,http://www.superkit.cn:8888/rtp/239.253.43.11:5146
高尔夫球,http://www.superkit.cn:8888/rtp/239.253.43.22:5146
高尔夫球,http://www.superkit.cn:8888/rtp/239.253.43.12:5146
女性时尚,http://www.superkit.cn:8888/rtp/239.253.43.23:5146
女性时尚,http://www.superkit.cn:8888/rtp/239.253.43.8:5146
世界地理,http://www.superkit.cn:8888/rtp/239.253.43.24:5146
世界地理,http://www.superkit.cn:8888/rtp/239.253.43.7:5146
怀旧剧场,http://www.superkit.cn:8888/rtp/239.253.43.25:5146
怀旧剧场,http://www.superkit.cn:8888/rtp/239.253.43.5:5146
风云剧场,http://www.superkit.cn:8888/rtp/239.253.43.26:5146
风云剧场,http://www.superkit.cn:8888/rtp/239.253.43.16:5146
文化精品,http://www.superkit.cn:8888/rtp/239.253.43.27:5146
文化精品,http://www.superkit.cn:8888/rtp/239.253.43.13:5146
第一剧场,http://www.superkit.cn:8888/rtp/239.253.43.28:5146
第一剧场,http://www.superkit.cn:8888/rtp/239.253.43.15:5146
风云音乐,http://www.superkit.cn:8888/rtp/239.253.43.29:5146
风云音乐,http://www.superkit.cn:8888/rtp/239.253.43.6:5146
CHC电影,http://www.superkit.cn:8888/rtp/239.77.0.27:5146
CGTN英语,http://www.superkit.cn:8888/rtp/239.77.0.199:5146
CGTN俄语,http://www.superkit.cn:8888/rtp/239.253.43.201:5146
CGTN法语,http://www.superkit.cn:8888/rtp/239.77.0.228:5146
CGTN西班牙语,http://www.superkit.cn:8888/rtp/239.77.0.221:5146
CGTN阿拉伯语,http://www.superkit.cn:8888/rtp/239.253.43.200:5146

湖南卫视,http://www.superkit.cn:8888/rtp/239.77.1.5:5146
湖南卫视,http://www.superkit.cn:8888/rtp/239.77.1.129:5146
湖南卫视,http://www.superkit.cn:8888/rtp/239.77.0.88:5146
湖南卫视,http://www.superkit.cn:8888/rtp/239.77.0.127:5146
浙江卫视,http://www.superkit.cn:8888/rtp/239.77.1.33:5146
浙江卫视,http://www.superkit.cn:8888/rtp/239.77.1.150:5146
浙江卫视,http://www.superkit.cn:8888/rtp/239.77.0.89:5146
浙江卫视,http://www.superkit.cn:8888/rtp/239.77.0.125:5146
江苏卫视,http://www.superkit.cn:8888/rtp/239.77.1.18:5146
江苏卫视,http://www.superkit.cn:8888/rtp/239.77.1.149:5146
江苏卫视,http://www.superkit.cn:8888/rtp/239.77.0.90:5146
江苏卫视,http://www.superkit.cn:8888/rtp/239.77.0.126:5146
东方卫视,http://www.superkit.cn:8888/rtp/239.77.1.218:5146
东方卫视,http://www.superkit.cn:8888/rtp/239.77.1.156:5146
东方卫视,http://www.superkit.cn:8888/rtp/239.77.0.98:5146
北京卫视,http://www.superkit.cn:8888/rtp/239.77.1.4:5146
北京卫视,http://www.superkit.cn:8888/rtp/239.77.1.151:5146
北京卫视,http://www.superkit.cn:8888/rtp/239.77.0.91:5146
天津卫视,http://www.superkit.cn:8888/rtp/239.77.1.141:5146
天津卫视,http://www.superkit.cn:8888/rtp/239.77.1.182:5146
天津卫视,http://www.superkit.cn:8888/rtp/239.77.0.97:5146
天津卫视,http://www.superkit.cn:8888/rtp/239.77.0.131:5146
安徽卫视,http://www.superkit.cn:8888/rtp/239.77.1.92:5146
安徽卫视,http://www.superkit.cn:8888/rtp/239.77.1.157:5146
安徽卫视,http://www.superkit.cn:8888/rtp/239.77.0.183:5146
山东卫视,http://www.superkit.cn:8888/rtp/239.77.1.142:5146
山东卫视,http://www.superkit.cn:8888/rtp/239.77.1.153:5146
山东卫视,http://www.superkit.cn:8888/rtp/239.77.0.94:5146
山东卫视,http://www.superkit.cn:8888/rtp/239.77.0.132:5146
江西卫视,http://www.superkit.cn:8888/rtp/239.77.1.219:5146
江西卫视,http://www.superkit.cn:8888/rtp/239.77.0.149:5146
湖北卫视,http://www.superkit.cn:8888/rtp/239.77.1.93:5146
湖北卫视,http://www.superkit.cn:8888/rtp/239.77.1.174:5146
湖北卫视,http://www.superkit.cn:8888/rtp/239.77.0.95:5146
湖北卫视,http://www.superkit.cn:8888/rtp/239.77.0.128:5146
辽宁卫视,http://www.superkit.cn:8888/rtp/239.77.1.103:5146
辽宁卫视,http://www.superkit.cn:8888/rtp/239.77.0.123:5146
辽宁卫视,http://www.superkit.cn:8888/rtp/239.77.0.161:5146
黑龙卫视,http://www.superkit.cn:8888/rtp/239.77.1.6:5146
黑龙卫视,http://www.superkit.cn:8888/rtp/239.77.1.179:5146
黑龙卫视,http://www.superkit.cn:8888/rtp/239.77.0.93:5146
黑龙卫视,http://www.superkit.cn:8888/rtp/239.77.0.124:5146
贵州卫视,http://www.superkit.cn:8888/rtp/239.77.1.221:5146
贵州卫视,http://www.superkit.cn:8888/rtp/239.77.0.230:5146
四川卫视,http://www.superkit.cn:8888/rtp/239.77.1.215:5146
四川卫视,http://www.superkit.cn:8888/rtp/239.77.0.159:5146
四川卫视,http://www.superkit.cn:8888/rtp/239.77.0.163:5146
河南卫视,http://www.superkit.cn:8888/rtp/239.77.1.229:5146
河南卫视,http://www.superkit.cn:8888/rtp/239.77.0.17:5146
云南卫视,http://www.superkit.cn:8888/rtp/239.253.43.37:5146
云南卫视,http://www.superkit.cn:8888/rtp/239.253.43.100:5146
重庆卫视,http://www.superkit.cn:8888/rtp/239.77.1.162:5146
重庆卫视,http://www.superkit.cn:8888/rtp/239.77.1.210:5146
重庆卫视,http://www.superkit.cn:8888/rtp/239.77.0.182:5146
河北卫视,http://www.superkit.cn:8888/rtp/239.77.1.214:5146
河北卫视,http://www.superkit.cn:8888/rtp/239.77.0.148:5146
东南卫视,http://www.superkit.cn:8888/rtp/239.77.1.104:5146
东南卫视,http://www.superkit.cn:8888/rtp/239.77.0.146:5146
广西卫视,http://www.superkit.cn:8888/rtp/239.253.43.36:5146
广西卫视,http://www.superkit.cn:8888/rtp/239.77.0.139:5146
吉林卫视,http://www.superkit.cn:8888/rtp/239.77.1.111:5146
吉林卫视,http://www.superkit.cn:8888/rtp/239.77.0.150:5146
海南卫视,http://www.superkit.cn:8888/rtp/239.253.43.35:5146
海南卫视,http://www.superkit.cn:8888/rtp/239.253.43.101:5146
甘肃卫视,http://www.superkit.cn:8888/rtp/239.77.0.189:5146
金鹰卡通,http://www.superkit.cn:8888/rtp/239.77.0.164:5146
CETV-1,http://www.superkit.cn:8888/rtp/239.77.1.222:5146
中国教育-1,http://www.superkit.cn:8888/rtp/239.77.0.200:5146
早期教育,http://www.superkit.cn:8888/rtp/239.77.0.180:5146
中国交通,http://www.superkit.cn:8888/rtp/239.77.1.249:5146
茶频道,http://www.superkit.cn:8888/rtp/239.77.0.15:5146
茶频道,http://www.superkit.cn:8888/rtp/239.77.1.207:5146
快乐垂钓,http://www.superkit.cn:8888/rtp/239.77.0.145:5146
快乐垂钓,http://www.superkit.cn:8888/rtp/239.77.1.119:5146
冬奥纪实,http://www.superkit.cn:8888/rtp/239.77.1.110:5146
金鹰纪实,http://www.superkit.cn:8888/rtp/239.77.1.217:5146
金鹰纪实,http://www.superkit.cn:8888/rtp/239.77.0.160:5146
金鹰纪实,http://www.superkit.cn:8888/rtp/239.77.0.162:5146
上海纪实,http://www.superkit.cn:8888/rtp/239.77.1.216:5146
上海纪实,http://www.superkit.cn:8888/rtp/239.77.0.147:5146
求索纪录,http://www.superkit.cn:8888/rtp/239.77.0.21:5146
求索生活,http://www.superkit.cn:8888/rtp/239.77.0.153:5146
中华美食,http://www.superkit.cn:8888/rtp/239.77.1.200:5146
中华美食,http://www.superkit.cn:8888/rtp/239.253.43.40:5146
梨园,http://www.superkit.cn:8888/rtp/239.77.1.100:5146
武术世界,http://www.superkit.cn:8888/rtp/239.77.1.108:5146
文物宝库,http://www.superkit.cn:8888/rtp/239.77.1.120:5146
每日影院,http://www.superkit.cn:8888/rtp/239.253.43.94:5146
幸福剧场,http://www.superkit.cn:8888/rtp/239.253.43.96:5146
风尚生活,http://www.superkit.cn:8888/rtp/239.253.43.95:5146
幸福娱乐,http://www.superkit.cn:8888/rtp/239.253.43.97:5146
爱体育,http://www.superkit.cn:8888/rtp/239.77.0.176:5146
爱体育,http://www.superkit.cn:8888/rtp/239.77.1.116:5146


广东卫视,http://www.superkit.cn:8888/rtp/239.77.1.19:5146
广东卫视,http://www.superkit.cn:8888/rtp/239.77.1.152:5146
广东卫视,http://www.superkit.cn:8888/rtp/239.77.0.84:5146
广东卫视,http://www.superkit.cn:8888/rtp/239.77.0.166:5146
广东珠江,http://www.superkit.cn:8888/rtp/239.77.0.1:5146
广东珠江,http://www.superkit.cn:8888/rtp/239.77.0.114:5146
广东新闻,http://www.superkit.cn:8888/rtp/239.77.0.173:5146
广东公共,http://www.superkit.cn:8888/rtp/239.77.0.225:5146
广东体育,http://www.superkit.cn:8888/rtp/239.77.0.112:5146
广东体育,http://www.superkit.cn:8888/rtp/239.77.0.168:5146
广东经济,http://www.superkit.cn:8888/rtp/239.77.0.85:5146
广东经济,http://www.superkit.cn:8888/rtp/239.77.0.167:5146
广东湾区,http://www.superkit.cn:8888/rtp/239.77.0.215:5146
广东视影,http://www.superkit.cn:8888/rtp/239.77.0.217:5146
广东少儿,http://www.superkit.cn:8888/rtp/239.77.0.250:5146
嘉佳卡通,http://www.superkit.cn:8888/rtp/239.77.0.179:5146
岭南戏曲,http://www.superkit.cn:8888/rtp/239.77.0.16:5146
广州综合,http://www.superkit.cn:8888/rtp/239.253.43.71:5146
广州新闻,http://www.superkit.cn:8888/rtp/239.253.43.72:5146
广州视影,http://www.superkit.cn:8888/rtp/239.253.43.73:5146
广州法治,http://www.superkit.cn:8888/rtp/239.253.43.74:5146
广州竞赛,http://www.superkit.cn:8888/rtp/239.253.43.75:5146
佛山综合,http://www.superkit.cn:8888/rtp/239.253.43.57:5146
佛山公共,http://www.superkit.cn:8888/rtp/239.253.43.53:5146
佛山视影,http://www.superkit.cn:8888/rtp/239.253.43.56:5146
佛山南海,http://www.superkit.cn:8888/rtp/239.253.43.54:5146
佛山顺德,http://www.superkit.cn:8888/rtp/239.253.43.55:5146
深圳卫视,http://www.superkit.cn:8888/rtp/239.77.1.3:5146
深圳卫视,http://www.superkit.cn:8888/rtp/239.77.1.148:5146
深圳卫视,http://www.superkit.cn:8888/rtp/239.77.0.92:5146
深圳卫视,http://www.superkit.cn:8888/rtp/239.77.0.130:5146
深圳都市,http://www.superkit.cn:8888/rtp/239.77.1.176:5146
深圳都市,http://www.superkit.cn:8888/rtp/239.77.1.124:5146
深圳电视,http://www.superkit.cn:8888/rtp/239.77.1.177:5146
深圳电视,http://www.superkit.cn:8888/rtp/239.77.1.125:5146
深圳财经,http://www.superkit.cn:8888/rtp/239.77.1.242:5146
深圳娱乐,http://www.superkit.cn:8888/rtp/239.77.1.243:5146
深圳体育,http://www.superkit.cn:8888/rtp/239.77.1.128:5146
深圳体育,http://www.superkit.cn:8888/rtp/239.77.1.140:5146
深圳少儿,http://www.superkit.cn:8888/rtp/239.77.1.244:5146
深圳公共,http://www.superkit.cn:8888/rtp/239.77.1.178:5146
深圳公共,http://www.superkit.cn:8888/rtp/239.77.1.126:5146
深圳宝安,http://www.superkit.cn:8888/rtp/239.77.1.67:5146
深圳龙岗,http://www.superkit.cn:8888/rtp/239.77.1.223:5146
深圳东部,http://www.superkit.cn:8888/rtp/239.77.1.224:5146
深圳众创,http://www.superkit.cn:8888/rtp/239.77.1.247:5146
韶关新闻,http://www.superkit.cn:8888/rtp/239.77.0.117:5146
韶关绿色,http://www.superkit.cn:8888/rtp/239.77.0.119:5146
湛江新闻,http://www.superkit.cn:8888/rtp/239.77.0.141:5146
湛江公共,http://www.superkit.cn:8888/rtp/239.77.0.140:5146
揭阳综合,http://www.superkit.cn:8888/rtp/239.77.0.229:5146
揭阳生活,http://www.superkit.cn:8888/rtp/239.77.0.251:5146
汕尾新闻,http://www.superkit.cn:8888/rtp/239.77.0.25:5146
汕尾文化,http://www.superkit.cn:8888/rtp/239.77.0.187:5146
江门综合,http://www.superkit.cn:8888/rtp/239.77.0.201:5146
江门侨乡,http://www.superkit.cn:8888/rtp/239.77.0.202:5146
惠州综合,http://www.superkit.cn:8888/rtp/239.77.1.232:5146
惠州公共,http://www.superkit.cn:8888/rtp/239.77.1.233:5146
珠海综合,http://www.superkit.cn:8888/rtp/239.77.0.155:5146
珠海公共,http://www.superkit.cn:8888/rtp/239.77.0.154:5146
肇庆综合,http://www.superkit.cn:8888/rtp/239.253.43.1:5146
肇庆生活,http://www.superkit.cn:8888/rtp/239.253.43.2:5146
河源综合,http://www.superkit.cn:8888/rtp/239.253.43.213:5146
河源公共,http://www.superkit.cn:8888/rtp/239.253.43.214:5146
清远新闻,http://www.superkit.cn:8888/rtp/239.253.43.33:5146
清远公共,http://www.superkit.cn:8888/rtp/239.253.43.34:5146
云浮综合,http://www.superkit.cn:8888/rtp/239.77.0.253:5146
云浮文旅,http://www.superkit.cn:8888/rtp/239.77.0.254:5146
茂名综合,http://www.superkit.cn:8888/rtp/239.77.0.206:5146
茂名公共,http://www.superkit.cn:8888/rtp/239.77.0.207:5146
汕头综合,http://www.superkit.cn:8888/rtp/239.77.1.130:5146
汕头综合,http://www.superkit.cn:8888/rtp/239.253.43.45:5146
汕头经济,http://www.superkit.cn:8888/rtp/239.77.1.131:5146
汕头经济,http://www.superkit.cn:8888/rtp/239.253.43.46:5146
汕头文旅,http://www.superkit.cn:8888/rtp/239.77.1.132:5146
汕头文旅,http://www.superkit.cn:8888/rtp/239.253.43.47:5146
东莞新闻,http://www.superkit.cn:8888/rtp/239.253.43.104:5146
东莞生活,http://www.superkit.cn:8888/rtp/239.253.43.105:5146
中山综合,http://www.superkit.cn:8888/rtp/239.253.43.62:5146
中山公共,http://www.superkit.cn:8888/rtp/239.253.43.63:5146
中山教育,http://www.superkit.cn:8888/rtp/239.253.43.64:5146

IPTV-谍战剧场,http://www.superkit.cn:8888//rtp/239.77.0.99:5146
IPTV-相声小品,http://www.superkit.cn:8888//rtp/239.77.0.100:5146
IPTV-野外,http://www.superkit.cn:8888//rtp/239.77.0.101:5146
IPTV-法治,http://www.superkit.cn:8888//rtp/239.77.0.102:5146
IPTV-6+,http://www.superkit.cn:8888//rtp/239.77.0.103:5146
IPTV-经典电影,http://www.superkit.cn:8888//rtp/239.77.0.104:5146
IPTV-8+,http://www.superkit.cn:8888//rtp/239.77.0.105:5146
IPTV-热播剧场,http://www.superkit.cn:8888//rtp/239.77.0.106:5146
IPTV-3+,http://www.superkit.cn:8888//rtp/239.77.0.107:5146
IPTV-5+,http://www.superkit.cn:8888//rtp/239.77.0.108:5146
IPTV-少儿动画,http://www.superkit.cn:8888//rtp/239.77.0.109:5146
IPTV-魅力时尚,http://www.superkit.cn:8888//rtp/239.77.0.110:5146
IPTV-收视指南,http://www.superkit.cn:8888//rtp/239.77.0.111:5146
IPTV影视推荐,http://www.superkit.cn:8888//rtp/239.77.0.236:5146
IPTV影视推荐,http://www.superkit.cn:8888//rtp/239.77.0.237:5146
IPTV-央视精品2,http://www.superkit.cn:8888//rtp/239.77.1.63:5146
IPTV-央视精品3,http://www.superkit.cn:8888//rtp/239.77.1.64:5146
IPTV-6+,http://www.superkit.cn:8888//rtp/239.77.1.138:5146
上海哈哈炫动,http://www.superkit.cn:8888//rtp/239.77.1.139:5146
IPTV-5+,http://www.superkit.cn:8888//rtp/239.77.1.180:5146
广东珠江电影,http://www.superkit.cn:8888//rtp/239.77.1.181:5146
天津卫视,http://www.superkit.cn:8888//rtp/239.77.1.182:5146
求索动物,http://www.superkit.cn:8888//rtp/239.77.1.183:5146
爱生活,http://www.superkit.cn:8888//rtp/239.77.1.184:5146
IPTV影视推荐,http://www.superkit.cn:8888//rtp/239.77.1.185:5146
IPTV影视推荐,http://www.superkit.cn:8888//rtp/239.77.1.186:5146
学而思网校,http://www.superkit.cn:8888//rtp/239.77.1.187:5146
IPTV影视推荐,http://www.superkit.cn:8888//rtp/239.77.1.188:5146
中央新影-中学生,http://www.superkit.cn:8888//rtp/239.77.1.195:5146
CCTV-兵器科技,http://www.superkit.cn:8888//rtp/239.77.1.196:5146
中央新影-老故事,http://www.superkit.cn:8888//rtp/239.77.1.197:5146
环球奇观,http://www.superkit.cn:8888//rtp/239.77.1.198:5146
CCTV-风云音乐,http://www.superkit.cn:8888//rtp/239.77.1.199:5146
CCTV-怀旧剧场,http://www.superkit.cn:8888//rtp/239.253.43.5:5146
CCTV-风云音乐,http://www.superkit.cn:8888//rtp/239.253.43.6:5146
CCTV-世界地理,http://www.superkit.cn:8888//rtp/239.253.43.7:5146
CCTV-女性时尚,http://www.superkit.cn:8888//rtp/239.253.43.8:5146
CCTV-兵器科技,http://www.superkit.cn:8888//rtp/239.253.43.9:5146
CCTV-电视指南,http://www.superkit.cn:8888//rtp/239.253.43.10:5146
CCTV-央视台球,http://www.superkit.cn:8888//rtp/239.253.43.11:5146
CCTV-高尔夫·网球,http://www.superkit.cn:8888//rtp/239.253.43.12:5146
CCTV-央视文化精品,http://www.superkit.cn:8888//rtp/239.253.43.13:5146
CCTV-风云足球,http://www.superkit.cn:8888//rtp/239.253.43.14:5146
CCTV-第一剧场,http://www.superkit.cn:8888//rtp/239.253.43.15:5146
CCTV-风云剧场,http://www.superkit.cn:8888//rtp/239.253.43.16:5146
CCTV-2 财经,http://www.superkit.cn:8888//rtp/239.253.43.17:5146
CCTV-兵器科技,http://www.superkit.cn:8888//rtp/239.253.43.18:5146
CCTV-电视指南,http://www.superkit.cn:8888//rtp/239.253.43.19:5146
CCTV-风云足球,http://www.superkit.cn:8888//rtp/239.253.43.20:5146
CCTV-央视台球,http://www.superkit.cn:8888//rtp/239.253.43.21:5146
CCTV-高尔夫·网球,http://www.superkit.cn:8888//rtp/239.253.43.22:5146
CCTV-女性时尚,http://www.superkit.cn:8888//rtp/239.253.43.23:5146
CCTV-世界地理,http://www.superkit.cn:8888//rtp/239.253.43.24:5146
CCTV-怀旧剧场,http://www.superkit.cn:8888//rtp/239.253.43.25:5146
CCTV-风云剧场,http://www.superkit.cn:8888//rtp/239.253.43.26:5146
CCTV-央视文化精品,http://www.superkit.cn:8888//rtp/239.253.43.27:5146
CCTV-第一剧场,http://www.superkit.cn:8888//rtp/239.253.43.28:5146
CCTV-风云音乐,http://www.superkit.cn:8888//rtp/239.253.43.29:5146
粤TV-极K影视,http://www.superkit.cn:8888//rtp/239.253.43.218:5146
爱上4k,http://www.superkit.cn:8888//rtp/239.253.43.219:5146
