CCTV1,http://loevor.tpddns.cn:8888/udp/239.61.5.180:1025$福建电信高清
CCTV1,http://loevor.tpddns.cn:8888/udp/239.61.4.176:1025$福建电信高清
CCTV1,http://loevor.tpddns.cn:8888/udp/239.61.5.163:1025$福建电信高清
CCTV1,http://loevor.tpddns.cn:8888/udp/239.61.5.42:1025$福建电信高清
CCTV1,http://loevor.tpddns.cn:8888/udp/239.61.4.27:1025$福建电信高清
CCTV2,http://loevor.tpddns.cn:8888/udp/239.61.5.61:1025$福建电信高清
CCTV3,http://loevor.tpddns.cn:8888/udp/239.61.4.120:1025$福建电信高清
CCTV3,http://loevor.tpddns.cn:8888/udp/239.61.4.117:1025$福建电信高清
CCTV4,http://loevor.tpddns.cn:8888/udp/239.61.5.56:1025$福建电信高清
CCTV5,http://loevor.tpddns.cn:8888/udp/239.61.4.118:1025$福建电信高清
CCTV5,http://loevor.tpddns.cn:8888/udp/239.61.4.121:1025$福建电信高清
CCTV5+,http://loevor.tpddns.cn:8888/udp/239.61.5.58:1025$福建电信高清
CCTV6,http://loevor.tpddns.cn:8888/udp/239.61.4.122:1025$福建电信高清
CCTV6,http://loevor.tpddns.cn:8888/udp/239.61.4.119:1025$福建电信高清
CCTV7,http://loevor.tpddns.cn:8888/udp/239.61.5.62:1025$福建电信高清
CCTV8,http://loevor.tpddns.cn:8888/udp/239.61.4.123:1025$福建电信高清
CCTV8,http://loevor.tpddns.cn:8888/udp/239.61.4.116:1025$福建电信高清
CCTV8,http://loevor.tpddns.cn:8888/udp/239.61.4.137:1025$福建电信高清
CCTV9,http://loevor.tpddns.cn:8888/udp/239.61.5.59:1025$福建电信高清
CCTV10,http://loevor.tpddns.cn:8888/udp/239.61.5.63:1025$福建电信高清
CCTV11,http://loevor.tpddns.cn:8888/udp/239.61.4.21:1025$福建电信高清
CCTV12,http://loevor.tpddns.cn:8888/udp/239.61.5.64:1025$福建电信高清
CCTV13,http://loevor.tpddns.cn:8888/udp/239.61.4.23:1025$福建电信高清
CCTV14,http://loevor.tpddns.cn:8888/udp/239.61.5.65:1025$福建电信高清
CCTV15,http://loevor.tpddns.cn:8888/udp/239.61.4.25:1025$福建电信高清
CCTV17,http://loevor.tpddns.cn:8888/udp/239.61.5.158:1025$福建电信高清
cctv1[1047*576],http://loevor.tpddns.cn:8888/udp/239.61.5.193:1025
cctv1[768*576],http://loevor.tpddns.cn:8888/udp/239.61.4.15:1025
CCTV12[1055*576],http://loevor.tpddns.cn:8888/udp/239.61.4.22:1025$福建电信标清
CGTN法语[1920*1080],http://loevor.tpddns.cn:8888/udp/239.61.4.131:1025
CGTN俄语[1920*1080],http://loevor.tpddns.cn:8888/udp/239.61.4.132:1025
CGTN纪录[1920*1080],http://loevor.tpddns.cn:8888/udp/239.61.4.133:1025
凤凰中文,http://loevor.tpddns.cn:8888/udp/239.61.5.48:1025$福建电信高清
凤凰资讯,http://loevor.tpddns.cn:8888/udp/239.61.5.47:1025$福建电信高清
东南卫视,http://loevor.tpddns.cn:8888/udp/239.61.4.114:1025$福建电信高清
厦门卫视,http://loevor.tpddns.cn:8888/udp/239.61.4.11:1025$福建电信标清
深圳卫视,http://loevor.tpddns.cn:8888/udp/239.61.4.134:1025$福建电信高清
东方卫视,http://loevor.tpddns.cn:8888/udp/239.61.4.28:1025$福建电信高清
浙江卫视,http://loevor.tpddns.cn:8888/udp/239.61.4.29:1025$福建电信高清
江苏卫视,http://loevor.tpddns.cn:8888/udp/239.61.4.30:1025$福建电信高清
湖南卫视,http://loevor.tpddns.cn:8888/udp/239.61.4.31:1025$福建电信高清
北京卫视,http://loevor.tpddns.cn:8888/udp/239.61.4.32:1025$福建电信高清
广东卫视,http://loevor.tpddns.cn:8888/udp/239.61.4.33:1025$福建电信高清
黑龙江卫视,http://loevor.tpddns.cn:8888/udp/239.61.4.34:1025$福建电信高清
湖北卫视,http://loevor.tpddns.cn:8888/udp/239.61.4.36:1025$福建电信高清
山东卫视,http://loevor.tpddns.cn:8888/udp/239.61.4.37:1025$福建电信高清
陕西卫视,http://loevor.tpddns.cn:8888/udp/239.61.4.40:1025$福建电信标清
海南卫视,http://loevor.tpddns.cn:8888/udp/239.61.4.44:1025$福建电信高清
广西卫视,http://loevor.tpddns.cn:8888/udp/239.61.4.50:1025$福建电信高清
宁夏卫视,http://loevor.tpddns.cn:8888/udp/239.61.4.58:1025$福建电信标清
河北卫视,http://loevor.tpddns.cn:8888/udp/239.61.4.59:1025$福建电信高清
河南卫视,http://loevor.tpddns.cn:8888/udp/239.61.4.61:1025$福建电信高清
青海卫视,http://loevor.tpddns.cn:8888/udp/239.61.4.62:1025$福建电信高清
云南卫视,http://loevor.tpddns.cn:8888/udp/239.61.4.63:1025$福建电信高清
安徽卫视,http://loevor.tpddns.cn:8888/udp/239.61.5.127:1025$福建电信高清
吉林卫视,http://loevor.tpddns.cn:8888/udp/239.61.5.109:1025$福建电信高清
山西卫视,http://loevor.tpddns.cn:8888/udp/239.61.5.110:1025$福建电信标清
甘肃卫视,http://loevor.tpddns.cn:8888/udp/239.61.5.111:1025$福建电信高清
内蒙古卫视,http://loevor.tpddns.cn:8888/udp/239.61.5.112:1025$福建电信标清
新疆卫视,http://loevor.tpddns.cn:8888/udp/239.61.5.113:1025$福建电信标清
兵团卫视,http://loevor.tpddns.cn:8888/udp/239.61.5.114:1025$福建电信标清
西藏卫视,http://loevor.tpddns.cn:8888/udp/239.61.5.115:1025$福建电信标清
安徽卫视,http://loevor.tpddns.cn:8888/udp/239.61.5.157:1025$福建电信高清
重庆卫视,http://loevor.tpddns.cn:8888/udp/239.61.5.159:1025$福建电信高清
四川卫视,http://loevor.tpddns.cn:8888/udp/239.61.5.160:1025$福建电信高清
南方卫视,http://loevor.tpddns.cn:8888/udp/239.61.5.170:1025$福建电信标清
金鹰纪实,http://loevor.tpddns.cn:8888/udp/239.61.5.171:1025$福建电信高清
海南卫视,http://loevor.tpddns.cn:8888/udp/239.61.5.190:1025$福建电信高清
三沙卫视,http://loevor.tpddns.cn:8888/udp/239.61.5.191:1025$福建电信高清
海峡卫视,http://loevor.tpddns.cn:8888/udp/239.61.5.45:1025$福建电信高清
贵州卫视,http://loevor.tpddns.cn:8888/udp/239.61.5.46:1025$福建电信高清
天津卫视,http://loevor.tpddns.cn:8888/udp/239.61.5.67:1025$福建电信高清
辽宁卫视,http://loevor.tpddns.cn:8888/udp/239.61.5.68:1025$福建电信高清
江西卫视,http://loevor.tpddns.cn:8888/udp/239.61.5.69:1025$福建电信高清
梨园频道,http://loevor.tpddns.cn:8888/udp/239.61.4.170:1025$福建电信高清
百视测试-4K[3840*2160],http://loevor.tpddns.cn:8888/udp/239.61.4.129:1025
IPTV5+[768*576],http://loevor.tpddns.cn:8888/udp/239.61.4.130:1025
厦门-1[1920*1080],http://loevor.tpddns.cn:8888/udp/239.61.4.139:1025$福建电信高清
厦门-2[1920*1080],http://loevor.tpddns.cn:8888/udp/239.61.4.140:1025$福建电信高清
慢直播[1920*1080],http://loevor.tpddns.cn:8888/udp/239.61.4.141:1025
IPTV导视[1920*1080],http://loevor.tpddns.cn:8888/udp/239.61.4.142:1025
欢笑剧场-4K[3840*2160],http://loevor.tpddns.cn:8888/udp/239.61.4.145:1025

第一财*[1920*1080],http://loevor.tpddns.cn:8888/udp/239.61.4.161:1025
中华特产[751*576],http://loevor.tpddns.cn:8888/udp/239.61.4.162:1025
车迷频道[751*576],http://loevor.tpddns.cn:8888/udp/239.61.4.163:1025
优优宝贝[751*576],http://loevor.tpddns.cn:8888/udp/239.61.4.164:1025
环球旅游[751*576],http://loevor.tpddns.cn:8888/udp/239.61.4.165:1025
生态环境[751*576],http://loevor.tpddns.cn:8888/udp/239.61.4.166:1025
茶频道[1920*1080],http://loevor.tpddns.cn:8888/udp/239.61.4.167:1025
先锋乒羽[768*576],http://loevor.tpddns.cn:8888/udp/239.61.4.168:1025
CHC动作电影[1920*1080],http://loevor.tpddns.cn:8888/udp/239.61.4.169:1025

文物宝库[1920*1080],http://loevor.tpddns.cn:8888/udp/239.61.4.171:1025
武术世界[1920*1080],http://loevor.tpddns.cn:8888/udp/239.61.4.172:1025
新动漫[768*576],http://loevor.tpddns.cn:8888/udp/239.61.4.173:1025
cctv1[768*576],http://loevor.tpddns.cn:8888/udp/239.61.4.175:1025
中华特产[751*576],http://loevor.tpddns.cn:8888/udp/239.61.4.177:1025
车迷频道[751*576],http://loevor.tpddns.cn:8888/udp/239.61.4.178:1025
优优宝贝[751*576],http://loevor.tpddns.cn:8888/udp/239.61.4.179:1025
环球旅游[751*576],http://loevor.tpddns.cn:8888/udp/239.61.4.180:1025
生态环境[751*576],http://loevor.tpddns.cn:8888/udp/239.61.4.181:1025
百姓健康[751*576],http://loevor.tpddns.cn:8888/udp/239.61.4.182:1025
四海钓鱼[751*576],http://loevor.tpddns.cn:8888/udp/239.61.4.183:1025
家庭理财[751*576],http://loevor.tpddns.cn:8888/udp/239.61.4.185:1025
财富天下[751*576],http://loevor.tpddns.cn:8888/udp/239.61.4.186:1025
证券服务[751*576],http://loevor.tpddns.cn:8888/udp/239.61.4.187:1025
中学生[751*576],http://loevor.tpddns.cn:8888/udp/239.61.4.188:1025
发现之旅[751*576],http://loevor.tpddns.cn:8888/udp/239.61.4.189:1025
巨鲨环球精选[751*576],http://loevor.tpddns.cn:8888/udp/239.61.4.190:1025
CGTN英语[1920*1080],http://loevor.tpddns.cn:8888/udp/239.61.4.19:1025
福建综合[751*576],http://loevor.tpddns.cn:8888/udp/239.61.4.1:1025

福建公共[1920*1080],http://loevor.tpddns.cn:8888/udp/239.61.4.3:1025

福建新闻[1920*1080],http://loevor.tpddns.cn:8888/udp/239.61.4.4:1025
福建电视剧[1920*1080],http://loevor.tpddns.cn:8888/udp/239.61.4.5:1025

中国天气[768*576],http://loevor.tpddns.cn:8888/udp/239.61.4.66:1025
福建旅游[1920*1080],http://loevor.tpddns.cn:8888/udp/239.61.4.6:1025
哈哈炫动[1047*576],http://loevor.tpddns.cn:8888/udp/239.61.4.72:1025
嘉佳卡通[768*576],http://loevor.tpddns.cn:8888/udp/239.61.4.74:1025
法治天地[785*576],http://loevor.tpddns.cn:8888/udp/239.61.4.77:1025
东方财*[1920*1080],http://loevor.tpddns.cn:8888/udp/239.61.4.78:1025
福建经济[1920*1080],http://loevor.tpddns.cn:8888/udp/239.61.4.7:1025
金色学堂[1920*1080],http://loevor.tpddns.cn:8888/udp/239.61.4.80:1025
第一财*[768*576],http://loevor.tpddns.cn:8888/udp/239.61.4.94:1025
福建少儿[1920*1080],http://loevor.tpddns.cn:8888/udp/239.61.4.9:1025
IPTV3＋[720*576],http://loevor.tpddns.cn:8888/udp/239.61.5.100:1025
IPTV6＋[720*576],http://loevor.tpddns.cn:8888/udp/239.61.5.102:1025
IPTV8＋[720*576],http://loevor.tpddns.cn:8888/udp/239.61.5.103:1025
IPTV5+[1920*1080],http://loevor.tpddns.cn:8888/udp/239.61.5.105:1025
央广购物[768*576],http://loevor.tpddns.cn:8888/udp/239.61.5.106:1025
金鹰卡通[768*576],http://loevor.tpddns.cn:8888/udp/239.61.5.107:1025
卡酷少儿[768*576],http://loevor.tpddns.cn:8888/udp/239.61.5.108:1025
直播间[1920*1080],http://loevor.tpddns.cn:8888/udp/239.61.5.10:1025
平潭1套[720*576],http://loevor.tpddns.cn:8888/udp/239.61.5.117:1025
直播间[1920*1080],http://loevor.tpddns.cn:8888/udp/239.61.5.11:1025

直播间[1920*1080],http://loevor.tpddns.cn:8888/udp/239.61.5.12:1025
家有购物[751*576],http://loevor.tpddns.cn:8888/udp/239.61.5.130:1025
优物购[751*576],http://loevor.tpddns.cn:8888/udp/239.61.5.131:1025
直播间[1920*1080],http://loevor.tpddns.cn:8888/udp/239.61.5.13:1025
直播间[1920*1080],http://loevor.tpddns.cn:8888/udp/239.61.5.14:1025
福建新闻广播[1024*576],http://loevor.tpddns.cn:8888/udp/239.61.5.154:1025
福建交通广播[1920*1080],http://loevor.tpddns.cn:8888/udp/239.61.5.155:1025
直播间[1920*1080],http://loevor.tpddns.cn:8888/udp/239.61.5.15:1025
福建综合[751*576],http://loevor.tpddns.cn:8888/udp/239.61.5.162:1025

福建综合[1920*1080],http://loevor.tpddns.cn:8888/udp/239.61.5.167:1025
CETV-2[785*576],http://loevor.tpddns.cn:8888/udp/239.61.5.169:1025

快乐购[768*576],http://loevor.tpddns.cn:8888/udp/239.61.5.192:1025
快乐垂钓[1920*1080],http://loevor.tpddns.cn:8888/udp/239.61.5.189:1025


CETV-4[1920*1080],http://loevor.tpddns.cn:8888/udp/239.61.5.196:1025
直播间[1920*1080],http://loevor.tpddns.cn:8888/udp/239.61.5.19:1025
460号[768*576],http://loevor.tpddns.cn:8888/udp/239.61.5.203:1025
直播间[1920*1080],http://loevor.tpddns.cn:8888/udp/239.61.5.20:1025
慢直播[1920*1080],http://loevor.tpddns.cn:8888/udp/239.61.5.213:1025
慢直播[1920*1080],http://loevor.tpddns.cn:8888/udp/239.61.5.214:1025
IPTV5+[768*576],http://loevor.tpddns.cn:8888/udp/239.61.5.217:1025
直播间[1920*1080],http://loevor.tpddns.cn:8888/udp/239.61.5.21:1025
直播间[1920*1080],http://loevor.tpddns.cn:8888/udp/239.61.5.22:1025
生活时尚[1920*1080],http://loevor.tpddns.cn:8888/udp/239.61.5.25:1025
游戏风云[1920*1080],http://loevor.tpddns.cn:8888/udp/239.61.5.29:1025
欢笑剧场[1920*1080],http://loevor.tpddns.cn:8888/udp/239.61.5.30:1025
乐游[1920*1080],http://loevor.tpddns.cn:8888/udp/239.61.5.31:1025
动漫秀场[1920*1080],http://loevor.tpddns.cn:8888/udp/239.61.5.32:1025
都市剧场[1920*1080],http://loevor.tpddns.cn:8888/udp/239.61.5.33:1025

福建文体[1920*1080],http://loevor.tpddns.cn:8888/udp/239.61.5.44:1025
卡屏[1920*1080],http://loevor.tpddns.cn:8888/udp/239.61.5.50:1025
上海纪实人文[1920*1080],http://loevor.tpddns.cn:8888/udp/239.61.5.51:1025
CETV-1[1920*1080],http://loevor.tpddns.cn:8888/udp/239.61.5.53:1025

福建教育[1920*1080],http://loevor.tpddns.cn:8888/udp/239.61.5.60:1025

漳州综合[1024*576],http://loevor.tpddns.cn:8888/udp/239.61.5.91:1025
南平综合[1920*1080],http://loevor.tpddns.cn:8888/udp/239.61.5.92:1025
三明综合[1024*576],http://loevor.tpddns.cn:8888/udp/239.61.5.93:1025
莆田综合[1024*576],http://loevor.tpddns.cn:8888/udp/239.61.5.94:1025
龙岩综合[1920*1080],http://loevor.tpddns.cn:8888/udp/239.61.5.95:1025
宁德综合[1920*1080],http://loevor.tpddns.cn:8888/udp/239.61.5.96:1025
福州综合[751*576],http://loevor.tpddns.cn:8888/udp/239.61.5.97:1025
泉州综合[1024*576],http://loevor.tpddns.cn:8888/udp/239.61.5.98:1025
厦门-1[1920*1080],http://loevor.tpddns.cn:8888/udp/239.61.5.99:1025
直播间[1920*1080],http://loevor.tpddns.cn:8888/udp/239.61.5.9:1025

