﻿﻿🇨🇳 | 中央频道,#genre#
欢笑剧场4K,http://118.24.227.124/bytedance.live.cqccn.com/__cl/cg:live/__c/hxjc_4K/__op/default/__f/index.m3u8
CCTV超高清4K,http://118.24.227.124/bytedance.live.cqccn.com/__cl/cg:live/__c/CCTV4K/__op/default/__f/index.m3u8
CCTV16-4K,http://118.24.227.124/bytedance.live.cqccn.com/__cl/cg:live/__c/CCTV16_4K/__op/default/__f/index.m3u8
CCTV-1 高清,http://118.24.227.124/bytedance.live.cqccn.com/__cl/cg:live/__c/cctv1HD/__op/default/__f/index.m3u8
CCTV-2 高清，http://118.24.227.124/bytedance.live.cqccn.com/__cl/cg:live/__c/cctv2HD/__op/default/__f/index.m3u8
CCTV-3 高清，http://118.24.227.124/bytedance.live.cqccn.com/__cl/cg:live/__c/cctv3HD/__op/default/__f/index.m3u8
CCTV-4 高清，http://118.24.227.124/bytedance.live.cqccn.com/__cl/cg:live/__c/cctv4HD/__op/default/__f/index.m3u8
CCTV-5 高清，http://118.24.227.124/bytedance.live.cqccn.com/__cl/cg:live/__c/cctv5HD/__op/default/__f/index.m3u8
CCTV5+ 高清,http://118.24.227.124/bytedance.live.cqccn.com/__cl/cg:live/__c/cctv5SportHD/__op/default/__f/index.m3u8
CCTV-6 高清,http://118.24.227.124/bytedance.live.cqccn.com/__cl/cg:live/__c/cctv6HD/__op/default/__f/index.m3u8
CCTV-7 高清，http://118.24.227.124/bytedance.live.cqccn.com/__cl/cg:live/__c/cctv7HD/__op/default/__f/index.m3u8
CCTV-8 高清，http://118.24.227.124/bytedance.live.cqccn.com/__cl/cg:live/__c/cctv8HD/__op/default/__f/index.m3u8
CCTV-9 高清，http://118.24.227.124/bytedance.live.cqccn.com/__cl/cg:live/__c/cctv9HD/__op/default/__f/index.m3u8
CCTV-10 高清，http://118.24.227.124/bytedance.live.cqccn.com/__cl/cg:live/__c/cctv10HD/__op/default/__f/index.m3u8
CCTV-11 高清，http://118.24.227.124/bytedance.live.cqccn.com/__cl/cg:live/__c/cctv11HD/__op/default/__f/index.m3u8
CCTV-12 高清，http://118.24.227.124/bytedance.live.cqccn.com/__cl/cg:live/__c/cctv12HD/__op/default/__f/index.m3u8
CCTV-13 高清，http://118.24.227.124/bytedance.live.cqccn.com/__cl/cg:live/__c/CCTVNewsHD/__op/default/__f/index.m3u8
CCTV-14 高清，http://118.24.227.124/bytedance.live.cqccn.com/__cl/cg:live/__c/cctvseHD/__op/default/__f/index.m3u8
CCTV-15 高清，http://118.24.227.124/bytedance.live.cqccn.com/__cl/cg:live/__c/cctv15HD/__op/default/__f/index.m3u8
CCTV-16 高清，http://118.24.227.124/bytedance.live.cqccn.com/__cl/cg:live/__c/cctv16HD/__op/default/__f/index.m3u8
CCTV-17 高清，http://118.24.227.124/bytedance.live.cqccn.com/__cl/cg:live/__c/cctv17HD/__op/default/__f/index.m3u8
﻿🇨🇳 | 卫视频道,#genre#
东南卫视高清，http://118.24.227.124/bytedance.live.cqccn.com/__cl/cg:live/__c/dongnanHD/__op/default/__f/index.m3u8
东方卫视高清，http://118.24.227.124/bytedance.live.cqccn.com/__cl/cg:live/__c/shanghaiHD/__op/default/__f/index.m3u8
云南卫视高清，http://118.24.227.124/bytedance.live.cqccn.com/__cl/cg:live/__c/yunnanSD/__op/default/__f/index.m3u8
北京卫视高清，http://118.24.227.124/bytedance.live.cqccn.com/__cl/cg:live/__c/beijingHD/__op/default/__f/index.m3u8
吉林卫视高清，http://118.24.227.124/bytedance.live.cqccn.com/__cl/cg:live/__c/jilinHD/__op/default/__f/index.m3u8
四川卫视高清，http://118.24.227.124/bytedance.live.cqccn.com/__cl/cg:live/__c/sichuanHD/__op/default/__f/index.m3u8
天津卫视高清，http://118.24.227.124/bytedance.live.cqccn.com/__cl/cg:live/__c/tianjinHD/__op/default/__f/index.m3u8
宁夏卫视，http://118.24.227.124/bytedance.live.cqccn.com/__cl/cg:live/__c/ningxia/__op/default/__f/index.m3u8
安徽卫视高清，http://118.24.227.124/bytedance.live.cqccn.com/__cl/cg:live/__c/anhuiSD/__op/default/__f/index.m3u8
山西卫视，http://118.24.227.124/bytedance.live.cqccn.com/__cl/cg:live/__c/shanxiSD/__op/default/__f/index.m3u8
广东卫视高清，http://118.24.227.124/bytedance.live.cqccn.com/__cl/cg:live/__c/guangdongHD/__op/default/__f/index.m3u8
广西卫视高清，http://118.24.227.124/bytedance.live.cqccn.com/__cl/cg:live/__c/guangxiHD/__op/default/__f/index.m3u8
新疆卫视，http://118.24.227.124/bytedance.live.cqccn.com/__cl/cg:live/__c/xinjiangSD/__op/default/__f/index.m3u8
江苏卫视高清，http://118.24.227.124/bytedance.live.cqccn.com/__cl/cg:live/__c/jiangsuHD/__op/default/__f/index.m3u8
江西卫视高清，http://118.24.227.124/bytedance.live.cqccn.com/__cl/cg:live/__c/jiangxiHD/__op/default/__f/index.m3u8
河北卫视高清，http://118.24.227.124/bytedance.live.cqccn.com/__cl/cg:live/__c/hebeiSD/__op/default/__f/index.m3u8
河南卫视高清，http://118.24.227.124/bytedance.live.cqccn.com/__cl/cg:live/__c/henanHD/__op/default/__f/index.m3u8
浙江卫视高清，http://118.24.227.124/bytedance.live.cqccn.com/__cl/cg:live/__c/zhejiangHD/__op/default/__f/index.m3u8
海南卫视高清，http://118.24.227.124/bytedance.live.cqccn.com/__cl/cg:live/__c/hainanSD/__op/default/__f/index.m3u8
深圳卫视高清，http://118.24.227.124/bytedance.live.cqccn.com/__cl/cg:live/__c/shenzhenHD/__op/default/__f/index.m3u8
湖北卫视高清，http://118.24.227.124/bytedance.live.cqccn.com/__cl/cg:live/__c/hubeiSD/__op/default/__f/index.m3u8
湖南卫视高清，http://118.24.227.124/bytedance.live.cqccn.com/__cl/cg:live/__c/hunanHD/__op/default/__f/index.m3u8
西藏卫视，http://118.24.227.124/bytedance.live.cqccn.com/__cl/cg:live/__c/xizangSD/__op/default/__f/index.m3u8
贵州卫视高清，http://118.24.227.124/bytedance.live.cqccn.com/__cl/cg:live/__c/guizhouHD/__op/default/__f/index.m3u8
辽宁卫视高清，http://118.24.227.124/bytedance.live.cqccn.com/__cl/cg:live/__c/liaoningHD/__op/default/__f/index.m3u8
重庆卫视高清，http://118.24.227.124/bytedance.live.cqccn.com/__cl/cg:live/__c/chongqingHD/__op/default/__f/index.m3u8
青海卫视，http://118.24.227.124/bytedance.live.cqccn.com/__cl/cg:live/__c/qinghaiSD/__op/default/__f/index.m3u8
黑龙江卫视高清，http://118.24.227.124/bytedance.live.cqccn.com/__cl/cg:live/__c/heilongjiangHD/__op/default/__f/index.m3u8
三沙卫视，http://118.24.227.124/bytedance.live.cqccn.com/__cl/cg:live/__c/sanshaSD/__op/default/__f/index.m3u8
山东教育卫视，http://118.24.227.124/bytedance.live.cqccn.com/__cl/cg:live/__c/sdjiaoyuSD/__op/default/__f/index.m3u8
兵团卫视，http://118.24.227.124/bytedance.live.cqccn.com/__cl/cg:live/__c/bingtuanSD/__op/default/__f/index.m3u8
重庆新闻高清，http://118.24.227.124/bytedance.live.cqccn.com/__cl/cg:live/__c/CQTVNewsHD/__op/default/__f/index.m3u8
重庆科教高清，http://118.24.227.124/bytedance.live.cqccn.com/__cl/cg:live/__c/CQTVkejiaoHD/__op/default/__f/index.m3u8
重庆影视高清，http://118.24.227.124/bytedance.live.cqccn.com/__cl/cg:live/__c/cqyingshiHD/__op/default/__f/index.m3u8
重庆文体娱乐高清，http://118.24.227.124/bytedance.live.cqccn.com/__cl/cg:live/__c/cqwtylHD/__op/default/__f/index.m3u8
重庆少儿高清，http://118.24.227.124/bytedance.live.cqccn.com/__cl/cg:live/__c/cqseHD/__op/default/__f/index.m3u8
重庆时尚生活高清，http://118.24.227.124/bytedance.live.cqccn.com/__cl/cg:live/__c/cqssgwHD/__op/default/__f/index.m3u8
重庆新农村高清，http://118.24.227.124/bytedance.live.cqccn.com/__cl/cg:live/__c/cqggncHD/__op/default/__f/index.m3u8
CCTV风云剧场，http://118.24.227.124/bytedance.live.cqccn.com/__cl/cg:live/__c/shandongHD/__op/default/__f/index.m3u8
书画，http://118.24.227.124/bytedance.live.cqccn.com/__cl/cg:live/__c/shuhua/__op/default/__f/index.m3u8
摄影，http://118.24.227.124/bytedance.live.cqccn.com/__cl/cg:live/__c/sheying/__op/default/__f/index.m3u8
车迷频道，http://118.24.227.124/bytedance.live.cqccn.com/__cl/cg:live/__c/doxtv/__op/default/__f/index.m3u8
SiTV都市剧场高清，http://118.24.227.124/bytedance.live.cqccn.com/__cl/cg:live/__c/dsjcHD/__op/default/__f/index.m3u8
SiTV魅力足球高清，http://118.24.227.124/bytedance.live.cqccn.com/__cl/cg:live/__c/mlzqHD/__op/default/__f/index.m3u8
SiTV动漫秀场高清，http://118.24.227.124/bytedance.live.cqccn.com/__cl/cg:live/__c/dmxcHD/__op/default/__f/index.m3u8
SiTV游戏风云高清，http://118.24.227.124/bytedance.live.cqccn.com/__cl/cg:live/__c/yxfyHD/__op/default/__f/index.m3u8
求索纪录高清，http://118.24.227.124/bytedance.live.cqccn.com/__cl/cg:live/__c/qsjlHD/__op/default/__f/index.m3u8
CHC高清电影，http://118.24.227.124/bytedance.live.cqccn.com/__cl/cg:live/__c/chcgqdyHD/__op/default/__f/index.m3u8
CHC动作电影，http://118.24.227.124/bytedance.live.cqccn.com/__cl/cg:live/__c/chcdzdyHD/__op/default/__f/index.m3u8
CHC家庭影院，http://118.24.227.124/bytedance.live.cqccn.com/__cl/cg:live/__c/chcjtyyHD/__op/default/__f/index.m3u8
CCTV风云剧场高清，http://118.24.227.124/bytedance.live.cqccn.com/__cl/cg:live/__c/fyjcHD/__op/default/__f/index.m3u8
CCTV风云音乐高清，http://118.24.227.124/bytedance.live.cqccn.com/__cl/cg:live/__c/fyyyHD/__op/default/__f/index.m3u8
CCTV风云足球高清，http://118.24.227.124/bytedance.live.cqccn.com/__cl/cg:live/__c/fyzqHD/__op/default/__f/index.m3u8
CCTV怀旧剧场高清，http://118.24.227.124/bytedance.live.cqccn.com/__cl/cg:live/__c/hjjcHD/__op/default/__f/index.m3u8
CCTV第一剧场高清，http://118.24.227.124/bytedance.live.cqccn.com/__cl/cg:live/__c/diyijuchangHD/__op/default/__f/index.m3u8
CCTV兵器科技高清，http://118.24.227.124/bytedance.live.cqccn.com/__cl/cg:live/__c/bqkjHD/__op/default/__f/index.m3u8

