﻿🇨🇳 | 中央频道,#genre#
CCTV1,http://120.87.4.5/PLTV/88888973/224/3221225768/10000100000000060000000000337107_0.smil/index.m3u8?rrsip=120.87.4.103&fmt=ts2hls&servicetype=1&icpid=&accounttype=1&limitflux=-1&limitdur=-1&GuardEncType=2&accountinfo=CIhTuLpr9mYdZglFbgG8R10lg%2BUgIuY5wNBlBpgwE%2F4li%2FC3qlZAkVRvmzofUB7xBCKLmA8tBjzjUcBEkH5y02Iy6aw8ITd%2BUIQP0IQJ1stR5ojl%2FaVgyQLv%2FpxWpAN1%3A20230912173745%2C9076894005504%2C120.86.229.138%2C20230912173745%2C10000100000000050000000000298715%2C38EF38EAA1D7B71C982A52D6A550F389%2C-1%2C1%2C1%2C%2C%2C2%2C%2C%2C%2C2%2CEND$广东联通高清
CCTV1,http://120.87.4.6/PLTV/88888973/224/3221225768/10000100000000060000000000337107_0.smil/index.m3u8?rrsip=120.87.4.103&fmt=ts2hls&servicetype=1&icpid=&accounttype=1&limitflux=-1&limitdur=-1&GuardEncType=2&accountinfo=CIhTuLpr9mYdZglFbgG8R10lg%2BUgIuY5wNBlBpgwE%2F4li%2FC3qlZAkVRvmzofUB7xBCKLmA8tBjzjUcBEkH5y02Iy6aw8ITd%2BUIQP0IQJ1stR5ojl%2FaVgyQLv%2FpxWpAN1%3A20230912173745%2C9076894005504%2C120.86.229.138%2C20230912173745%2C10000100000000050000000000298715%2C38EF38EAA1D7B71C982A52D6A550F389%2C-1%2C1%2C1%2C%2C%2C2%2C%2C%2C%2C2%2CEND$广东联通高清
CCTV2,http://120.87.4.9/PLTV/88888973/224/3221225767/10000100000000060000000000337109_0.smil/index.m3u8?rrsip=120.87.4.103&fmt=ts2hls&servicetype=1&icpid=&accounttype=1&limitflux=-1&limitdur=-1&GuardEncType=2&accountinfo=CIhTuLpr9mYdZglFbgG8R10lg%2BUgIuY5wNBlBpgwE%2F4li%2FC3qlZAkVRvmzofUB7xBCKLmA8tBjzjUcBEkH5y02Iy6aw8ITd%2BUIQP0IQJ1stuHOTNzSmwACfKUQ7j60iP%3A20230912173745%2C9076894005504%2C120.86.229.138%2C20230912173745%2C10000100000000050000000000298734%2C38EF38EAA1D7B71C982A52D6A550F389%2C-1%2C1%2C1%2C%2C%2C2%2C%2C%2C%2C2%2CEND$广东联通高清
CCTV2,http://120.87.4.10/PLTV/88888973/224/3221225767/10000100000000060000000000337109_0.smil/index.m3u8?rrsip=120.87.4.103&fmt=ts2hls&servicetype=1&icpid=&accounttype=1&limitflux=-1&limitdur=-1&GuardEncType=2&accountinfo=CIhTuLpr9mYdZglFbgG8R10lg%2BUgIuY5wNBlBpgwE%2F4li%2FC3qlZAkVRvmzofUB7xBCKLmA8tBjzjUcBEkH5y02Iy6aw8ITd%2BUIQP0IQJ1stuHOTNzSmwACfKUQ7j60iP%3A20230912173745%2C9076894005504%2C120.86.229.138%2C20230912173745%2C10000100000000050000000000298734%2C38EF38EAA1D7B71C982A52D6A550F389%2C-1%2C1%2C1%2C%2C%2C2%2C%2C%2C%2C2%2CEND$广东联通高清
CCTV3,http://120.87.4.24/PLTV/88888973/224/3221226350/10000100000000060000000001464865_0.smil/index.m3u8?rrsip=120.87.4.103&fmt=ts2hls&servicetype=2&icpid=&accounttype=1&limitflux=-1&limitdur=-1&GuardEncType=2&accountinfo=CIhTuLpr9mYdZglFbgG8R10lg%2BUgIuY5wNBlBpgwE%2F4li%2FC3qlZAkVRvmzofUB7xBCKLmA8tBjzjUcBEkH5y02Iy6aw8ITd%2BUIQP0IQJ1svqi1eR5US%2Bp20q1SRDKAAp%3A20230912173745%2C9076894005504%2C120.86.229.138%2C20230912173745%2C10000100000000050000000001601462%2C38EF38EAA1D7B71C982A52D6A550F389%2C-1%2C1%2C1%2C%2C%2C7%2C%2C%2C%2C4%2CEND$广东联通高清
CCTV3,http://120.87.4.25/PLTV/88888973/224/3221226350/10000100000000060000000001464865_0.smil/index.m3u8?rrsip=120.87.4.103&fmt=ts2hls&servicetype=2&icpid=&accounttype=1&limitflux=-1&limitdur=-1&GuardEncType=2&accountinfo=CIhTuLpr9mYdZglFbgG8R10lg%2BUgIuY5wNBlBpgwE%2F4li%2FC3qlZAkVRvmzofUB7xBCKLmA8tBjzjUcBEkH5y02Iy6aw8ITd%2BUIQP0IQJ1svqi1eR5US%2Bp20q1SRDKAAp%3A20230912173745%2C9076894005504%2C120.86.229.138%2C20230912173745%2C10000100000000050000000001601462%2C38EF38EAA1D7B71C982A52D6A550F389%2C-1%2C1%2C1%2C%2C%2C7%2C%2C%2C%2C4%2CEND$广东联通高清
CCTV4,http://120.87.4.24/PLTV/88888973/224/3221226356/10000100000000060000000001481216_0.smil/index.m3u8?rrsip=120.87.4.103&fmt=ts2hls&servicetype=2&icpid=&accounttype=1&limitflux=-1&limitdur=-1&GuardEncType=2&accountinfo=CIhTuLpr9mYdZglFbgG8R10lg%2BUgIuY5wNBlBpgwE%2F4li%2FC3qlZAkVRvmzofUB7xBCKLmA8tBjzjUcBEkH5y02Iy6aw8ITd%2BUIQP0IQJ1ss444kjadfdkW1BTZKIe1lQ%3A20230912173745%2C9076894005504%2C120.86.229.138%2C20230912173745%2C10000100000000050000000001617985%2C38EF38EAA1D7B71C982A52D6A550F389%2C-1%2C1%2C1%2C%2C%2C7%2C%2C%2C%2C4%2CEND$广东联通高清
CCTV4,http://120.87.4.25/PLTV/88888973/224/3221226356/10000100000000060000000001481216_0.smil/index.m3u8?rrsip=120.87.4.103&fmt=ts2hls&servicetype=2&icpid=&accounttype=1&limitflux=-1&limitdur=-1&GuardEncType=2&accountinfo=CIhTuLpr9mYdZglFbgG8R10lg%2BUgIuY5wNBlBpgwE%2F4li%2FC3qlZAkVRvmzofUB7xBCKLmA8tBjzjUcBEkH5y02Iy6aw8ITd%2BUIQP0IQJ1ss444kjadfdkW1BTZKIe1lQ%3A20230912173745%2C9076894005504%2C120.86.229.138%2C20230912173745%2C10000100000000050000000001617985%2C38EF38EAA1D7B71C982A52D6A550F389%2C-1%2C1%2C1%2C%2C%2C7%2C%2C%2C%2C4%2CEND$广东联通高清
CCTV5,http://120.87.4.5/PLTV/88888973/224/3221226352/10000100000000060000000001464824_0.smil/index.m3u8?rrsip=120.87.4.103&fmt=ts2hls&servicetype=2&icpid=&accounttype=1&limitflux=-1&limitdur=-1&GuardEncType=2&accountinfo=CIhTuLpr9mYdZglFbgG8R10lg%2BUgIuY5wNBlBpgwE%2F4li%2FC3qlZAkVRvmzofUB7xBCKLmA8tBjzjUcBEkH5y02Iy6aw8ITd%2BUIQP0IQJ1svn4hMBcIf93bVXSIFZz%2BJX%3A20230912173745%2C9076894005504%2C120.86.229.138%2C20230912173745%2C10000100000000050000000001601420%2C38EF38EAA1D7B71C982A52D6A550F389%2C-1%2C1%2C1%2C%2C%2C7%2C%2C%2C%2C4%2CEND$广东联通高清
CCTV5,http://120.87.4.6/PLTV/88888973/224/3221226352/10000100000000060000000001464824_0.smil/index.m3u8?rrsip=120.87.4.103&fmt=ts2hls&servicetype=2&icpid=&accounttype=1&limitflux=-1&limitdur=-1&GuardEncType=2&accountinfo=CIhTuLpr9mYdZglFbgG8R10lg%2BUgIuY5wNBlBpgwE%2F4li%2FC3qlZAkVRvmzofUB7xBCKLmA8tBjzjUcBEkH5y02Iy6aw8ITd%2BUIQP0IQJ1svn4hMBcIf93bVXSIFZz%2BJX%3A20230912173745%2C9076894005504%2C120.86.229.138%2C20230912173745%2C10000100000000050000000001601420%2C38EF38EAA1D7B71C982A52D6A550F389%2C-1%2C1%2C1%2C%2C%2C7%2C%2C%2C%2C4%2CEND$广东联通高清
CCTV5+,http://120.87.4.24/PLTV/88888973/224/3221225705/10000100000000060000000000334542_0.smil/index.m3u8?rrsip=120.87.4.103&fmt=ts2hls&servicetype=1&icpid=&accounttype=1&limitflux=-1&limitdur=-1&GuardEncType=2&accountinfo=CIhTuLpr9mYdZglFbgG8R10lg%2BUgIuY5wNBlBpgwE%2F4li%2FC3qlZAkVRvmzofUB7xBCKLmA8tBjzjUcBEkH5y02Iy6aw8ITd%2BUIQP0IQJ1svzEpjglJ3HbbRvNpcknyJF%3A20230912173745%2C9076894005504%2C120.86.229.138%2C20230912173745%2C10000100000000050000000000296941%2C38EF38EAA1D7B71C982A52D6A550F389%2C-1%2C1%2C1%2C%2C%2C2%2C%2C%2C%2C2%2CEND$广东联通高清
CCTV5+,http://120.87.4.25/PLTV/88888973/224/3221225705/10000100000000060000000000334542_0.smil/index.m3u8?rrsip=120.87.4.103&fmt=ts2hls&servicetype=2&icpid=&accounttype=1&limitflux=-1&limitdur=-1&GuardEncType=2&accountinfo=CIhTuLpr9mYdZglFbgG8R10lg%2BUgIuY5wNBlBpgwE%2F4li%2FC3qlZAkVRvmzofUB7xBCKLmA8tBjzjUcBEkH5y02Iy6aw8ITd%2BUIQP0IQJ1svzEpjglJ3HbbRvNpcknyJF%3A20230912173745%2C9076894005504%2C120.86.229.138%2C20230912173745%2C10000100000000050000000000296941%2C38EF38EAA1D7B71C982A52D6A550F389%2C-1%2C1%2C1%2C%2C%2C2%2C%2C%2C%2C2%2CEND$广东联通高清
CCTV6,http://120.87.4.5/PLTV/88888973/224/3221226351/10000100000000060000000001464856_0.smil/index.m3u8?rrsip=120.87.4.103&fmt=ts2hls&servicetype=1&icpid=&accounttype=1&limitflux=-1&limitdur=-1&GuardEncType=2&accountinfo=CIhTuLpr9mYdZglFbgG8R10lg%2BUgIuY5wNBlBpgwE%2F4li%2FC3qlZAkVRvmzofUB7xBCKLmA8tBjzjUcBEkH5y02Iy6aw8ITd%2BUIQP0IQJ1svgEv9ShLioTLr%2FrQS990cZ%3A20230912173745%2C9076894005504%2C120.86.229.138%2C20230912173745%2C10000100000000050000000001601450%2C38EF38EAA1D7B71C982A52D6A550F389%2C-1%2C1%2C1%2C%2C%2C2%2C%2C%2C%2C2%2CEND$广东联通高清
CCTV6,http://120.87.4.6/PLTV/88888973/224/3221226351/10000100000000060000000001464856_0.smil/index.m3u8?rrsip=120.87.4.103&fmt=ts2hls&servicetype=2&icpid=&accounttype=1&limitflux=-1&limitdur=-1&GuardEncType=2&accountinfo=CIhTuLpr9mYdZglFbgG8R10lg%2BUgIuY5wNBlBpgwE%2F4li%2FC3qlZAkVRvmzofUB7xBCKLmA8tBjzjUcBEkH5y02Iy6aw8ITd%2BUIQP0IQJ1svgEv9ShLioTLr%2FrQS990cZ%3A20230912173745%2C9076894005504%2C120.86.229.138%2C20230912173745%2C10000100000000050000000001601450%2C38EF38EAA1D7B71C982A52D6A550F389%2C-1%2C1%2C1%2C%2C%2C7%2C%2C%2C%2C4%2CEND$广东联通高清
CCTV7,http://120.87.4.14/PLTV/88888973/224/3221225749/10000100000000060000000000334584_0.smil/index.m3u8?rrsip=120.87.4.103&fmt=ts2hls&servicetype=1&icpid=&accounttype=1&limitflux=-1&limitdur=-1&GuardEncType=2&accountinfo=CIhTuLpr9mYdZglFbgG8R10lg%2BUgIuY5wNBlBpgwE%2F4li%2FC3qlZAkVRvmzofUB7xBCKLmA8tBjzjUcBEkH5y02Iy6aw8ITd%2BUIQP0IQJ1sscnicWfcyFvKakBC4V2zCq%3A20230912173745%2C9076894005504%2C120.86.229.138%2C20230912173745%2C10000100000000050000000000296988%2C38EF38EAA1D7B71C982A52D6A550F389%2C-1%2C1%2C1%2C%2C%2C7%2C%2C%2C%2C4%2CEND$广东联通高清
CCTV7,http://120.87.4.13/PLTV/88888973/224/3221225749/10000100000000060000000000334584_0.smil/index.m3u8?rrsip=120.87.4.103&fmt=ts2hls&servicetype=2&icpid=&accounttype=1&limitflux=-1&limitdur=-1&GuardEncType=2&accountinfo=CIhTuLpr9mYdZglFbgG8R10lg%2BUgIuY5wNBlBpgwE%2F4li%2FC3qlZAkVRvmzofUB7xBCKLmA8tBjzjUcBEkH5y02Iy6aw8ITd%2BUIQP0IQJ1sscnicWfcyFvKakBC4V2zCq%3A20230912173745%2C9076894005504%2C120.86.229.138%2C20230912173745%2C10000100000000050000000000296988%2C38EF38EAA1D7B71C982A52D6A550F389%2C-1%2C1%2C1%2C%2C%2C7%2C%2C%2C%2C4%2CEND$广东联通高清
CCTV8,http://120.87.4.5/PLTV/88888973/224/3221226349/10000100000000060000000001464866_0.smil/index.m3u8?rrsip=120.87.4.103&fmt=ts2hls&servicetype=1&icpid=&accounttype=1&limitflux=-1&limitdur=-1&GuardEncType=2&accountinfo=CIhTuLpr9mYdZglFbgG8R10lg%2BUgIuY5wNBlBpgwE%2F4li%2FC3qlZAkVRvmzofUB7xBCKLmA8tBjzjUcBEkH5y02Iy6aw8ITd%2BUIQP0IQJ1sv8BTV1xow6PKjyDCdRV4ys%3A20230912173745%2C9076894005504%2C120.86.229.138%2C20230912173745%2C10000100000000050000000001601463%2C38EF38EAA1D7B71C982A52D6A550F389%2C-1%2C1%2C1%2C%2C%2C2%2C%2C%2C%2C2%2CEND$广东联通高清
CCTV8,http://120.87.4.6/PLTV/88888973/224/3221226349/10000100000000060000000001464866_0.smil/index.m3u8?rrsip=120.87.4.103&fmt=ts2hls&servicetype=2&icpid=&accounttype=1&limitflux=-1&limitdur=-1&GuardEncType=2&accountinfo=CIhTuLpr9mYdZglFbgG8R10lg%2BUgIuY5wNBlBpgwE%2F4li%2FC3qlZAkVRvmzofUB7xBCKLmA8tBjzjUcBEkH5y02Iy6aw8ITd%2BUIQP0IQJ1sv8BTV1xow6PKjyDCdRV4ys%3A20230912173745%2C9076894005504%2C120.86.229.138%2C20230912173745%2C10000100000000050000000001601463%2C38EF38EAA1D7B71C982A52D6A550F389%2C-1%2C1%2C1%2C%2C%2C7%2C%2C%2C%2C4%2CEND$广东联通高清
CCTV9,http://120.87.4.17/PLTV/88888973/224/3221225747/10000100000000060000000000334581_0.smil/index.m3u8?rrsip=120.87.4.103&fmt=ts2hls&servicetype=1&icpid=&accounttype=1&limitflux=-1&limitdur=-1&GuardEncType=2&accountinfo=CIhTuLpr9mYdZglFbgG8R10lg%2BUgIuY5wNBlBpgwE%2F4li%2FC3qlZAkVRvmzofUB7xBCKLmA8tBjzjUcBEkH5y02Iy6aw8ITd%2BUIQP0IQJ1stOKV%2FogXV0coIrKtEZyIvQ%3A20230912173745%2C9076894005504%2C120.86.229.138%2C20230912173745%2C10000100000000050000000000296984%2C38EF38EAA1D7B71C982A52D6A550F389%2C-1%2C1%2C1%2C%2C%2C2%2C%2C%2C%2C2%2CEND$广东联通高清
CCTV9,http://120.87.4.18/PLTV/88888973/224/3221225747/10000100000000060000000000334581_0.smil/index.m3u8?rrsip=120.87.4.103&fmt=ts2hls&servicetype=2&icpid=&accounttype=1&limitflux=-1&limitdur=-1&GuardEncType=2&accountinfo=CIhTuLpr9mYdZglFbgG8R10lg%2BUgIuY5wNBlBpgwE%2F4li%2FC3qlZAkVRvmzofUB7xBCKLmA8tBjzjUcBEkH5y02Iy6aw8ITd%2BUIQP0IQJ1stOKV%2FogXV0coIrKtEZyIvQ%3A20230912173745%2C9076894005504%2C120.86.229.138%2C20230912173745%2C10000100000000050000000000296984%2C38EF38EAA1D7B71C982A52D6A550F389%2C-1%2C1%2C1%2C%2C%2C7%2C%2C%2C%2C4%2CEND$广东联通高清
CCTV10,http://120.87.4.13/PLTV/88888973/224/3221225745/10000100000000060000000000334569_0.smil/index.m3u8?rrsip=120.87.4.103&fmt=ts2hls&servicetype=1&icpid=&accounttype=1&limitflux=-1&limitdur=-1&GuardEncType=2&accountinfo=CIhTuLpr9mYdZglFbgG8R10lg%2BUgIuY5wNBlBpgwE%2F4li%2FC3qlZAkVRvmzofUB7xBCKLmA8tBjzjUcBEkH5y02Iy6aw8ITd%2BUIQP0IQJ1ssaNkSjuBAUrR4uSY0Vvwlp%3A20230912173745%2C9076894005504%2C120.86.229.138%2C20230912173745%2C10000100000000050000000000296970%2C38EF38EAA1D7B71C982A52D6A550F389%2C-1%2C1%2C1%2C%2C%2C2%2C%2C%2C%2C2%2CEND$广东联通高清
CCTV10,http://120.87.4.14/PLTV/88888973/224/3221225745/10000100000000060000000000334569_0.smil/index.m3u8?rrsip=120.87.4.103&fmt=ts2hls&servicetype=2&icpid=&accounttype=1&limitflux=-1&limitdur=-1&GuardEncType=2&accountinfo=CIhTuLpr9mYdZglFbgG8R10lg%2BUgIuY5wNBlBpgwE%2F4li%2FC3qlZAkVRvmzofUB7xBCKLmA8tBjzjUcBEkH5y02Iy6aw8ITd%2BUIQP0IQJ1ssaNkSjuBAUrR4uSY0Vvwlp%3A20230912173745%2C9076894005504%2C120.86.229.138%2C20230912173745%2C10000100000000050000000000296970%2C38EF38EAA1D7B71C982A52D6A550F389%2C-1%2C1%2C1%2C%2C%2C7%2C%2C%2C%2C4%2CEND$广东联通高清
CCTV11,http://120.87.4.26/PLTV/88888973/224/3221226644/10000100000000060000000002070289_0.smil/index.m3u8?rrsip=120.87.4.103&fmt=ts2hls&servicetype=2&icpid=&accounttype=1&limitflux=-1&limitdur=-1&GuardEncType=2&accountinfo=CIhTuLpr9mYdZglFbgG8R10lg%2BUgIuY5wNBlBpgwE%2F4li%2FC3qlZAkVRvmzofUB7xBCKLmA8tBjzjUcBEkH5y02Iy6aw8ITd%2BUIQP0IQJ1ssjNl2R0IR1HqdQKdL61%2BFn%3A20230912173745%2C9076894005504%2C120.86.229.138%2C20230912173745%2C10000100000000050000000002213747%2C38EF38EAA1D7B71C982A52D6A550F389%2C-1%2C1%2C1%2C%2C%2C7%2C%2C%2C%2C4%2CEND$广东联通高清
CCTV11,http://120.87.4.27/PLTV/88888973/224/3221226644/10000100000000060000000002070289_0.smil/index.m3u8?rrsip=120.87.4.103&fmt=ts2hls&servicetype=2&icpid=&accounttype=1&limitflux=-1&limitdur=-1&GuardEncType=2&accountinfo=CIhTuLpr9mYdZglFbgG8R10lg%2BUgIuY5wNBlBpgwE%2F4li%2FC3qlZAkVRvmzofUB7xBCKLmA8tBjzjUcBEkH5y02Iy6aw8ITd%2BUIQP0IQJ1ssjNl2R0IR1HqdQKdL61%2BFn%3A20230912173745%2C9076894005504%2C120.86.229.138%2C20230912173745%2C10000100000000050000000002213747%2C38EF38EAA1D7B71C982A52D6A550F389%2C-1%2C1%2C1%2C%2C%2C7%2C%2C%2C%2C4%2CEND$广东联通高清
CCTV12,http://120.87.4.17/PLTV/88888973/224/3221225742/10000100000000060000000000334548_0.smil/index.m3u8?rrsip=120.87.4.103&fmt=ts2hls&servicetype=1&icpid=&accounttype=1&limitflux=-1&limitdur=-1&GuardEncType=2&accountinfo=CIhTuLpr9mYdZglFbgG8R10lg%2BUgIuY5wNBlBpgwE%2F4li%2FC3qlZAkVRvmzofUB7xBCKLmA8tBjzjUcBEkH5y02Iy6aw8ITd%2BUIQP0IQJ1ssF%2F%2Fhkk2ZvYnPzoD3BVLDh%3A20230912173745%2C9076894005504%2C120.86.229.138%2C20230912173745%2C10000100000000050000000000296948%2C38EF38EAA1D7B71C982A52D6A550F389%2C-1%2C1%2C1%2C%2C%2C2%2C%2C%2C%2C2%2CEND$广东联通高清
CCTV12,http://120.87.4.18/PLTV/88888973/224/3221225742/10000100000000060000000000334548_0.smil/index.m3u8?rrsip=120.87.4.103&fmt=ts2hls&servicetype=1&icpid=&accounttype=1&limitflux=-1&limitdur=-1&GuardEncType=2&accountinfo=CIhTuLpr9mYdZglFbgG8R10lg%2BUgIuY5wNBlBpgwE%2F4li%2FC3qlZAkVRvmzofUB7xBCKLmA8tBjzjUcBEkH5y02Iy6aw8ITd%2BUIQP0IQJ1ssF%2F%2Fhkk2ZvYnPzoD3BVLDh%3A20230912173745%2C9076894005504%2C120.86.229.138%2C20230912173745%2C10000100000000050000000000296948%2C38EF38EAA1D7B71C982A52D6A550F389%2C-1%2C1%2C1%2C%2C%2C2%2C%2C%2C%2C2%2CEND$广东联通高清
CCTV13,http://120.87.4.17/PLTV/88888973/224/3221226669/10000100000000060000000002070290_0.smil/index.m3u8?rrsip=120.87.4.103&fmt=ts2hls&servicetype=2&icpid=&accounttype=1&limitflux=-1&limitdur=-1&GuardEncType=2&accountinfo=CIhTuLpr9mYdZglFbgG8R10lg%2BUgIuY5wNBlBpgwE%2F4li%2FC3qlZAkVRvmzofUB7xBCKLmA8tBjzjUcBEkH5y02Iy6aw8ITd%2BUIQP0IQJ1suLnHN6ILM9bCRCwBKo7fcA%3A20230912173745%2C9076894005504%2C120.86.229.138%2C20230912173745%2C10000100000000050000000002213748%2C38EF38EAA1D7B71C982A52D6A550F389%2C-1%2C1%2C1%2C%2C%2C7%2C%2C%2C%2C4%2CEND$广东联通高清
CCTV13,http://120.87.4.18/PLTV/88888973/224/3221226669/10000100000000060000000002070290_0.smil/index.m3u8?rrsip=120.87.4.103&fmt=ts2hls&servicetype=2&icpid=&accounttype=1&limitflux=-1&limitdur=-1&GuardEncType=2&accountinfo=CIhTuLpr9mYdZglFbgG8R10lg%2BUgIuY5wNBlBpgwE%2F4li%2FC3qlZAkVRvmzofUB7xBCKLmA8tBjzjUcBEkH5y02Iy6aw8ITd%2BUIQP0IQJ1suLnHN6ILM9bCRCwBKo7fcA%3A20230912173745%2C9076894005504%2C120.86.229.138%2C20230912173745%2C10000100000000050000000002213748%2C38EF38EAA1D7B71C982A52D6A550F389%2C-1%2C1%2C1%2C%2C%2C7%2C%2C%2C%2C4%2CEND$广东联通高清
CCTV14,http://120.87.4.17/PLTV/88888973/224/3221225740/10000100000000060000000000334546_0.smil/index.m3u8?rrsip=120.87.4.103&fmt=ts2hls&servicetype=1&icpid=&accounttype=1&limitflux=-1&limitdur=-1&GuardEncType=2&accountinfo=CIhTuLpr9mYdZglFbgG8R10lg%2BUgIuY5wNBlBpgwE%2F4li%2FC3qlZAkVRvmzofUB7xBCKLmA8tBjzjUcBEkH5y02Iy6aw8ITd%2BUIQP0IQJ1ss9YXtUZDHeqo9pBa0K3DNH%3A20230912173745%2C9076894005504%2C120.86.229.138%2C20230912173745%2C10000100000000050000000000296946%2C38EF38EAA1D7B71C982A52D6A550F389%2C-1%2C1%2C1%2C%2C%2C2%2C%2C%2C%2C2%2CEND$广东联通高清
CCTV14,http://120.87.4.18/PLTV/88888973/224/3221225740/10000100000000060000000000334546_0.smil/index.m3u8?rrsip=120.87.4.103&fmt=ts2hls&servicetype=2&icpid=&accounttype=1&limitflux=-1&limitdur=-1&GuardEncType=2&accountinfo=CIhTuLpr9mYdZglFbgG8R10lg%2BUgIuY5wNBlBpgwE%2F4li%2FC3qlZAkVRvmzofUB7xBCKLmA8tBjzjUcBEkH5y02Iy6aw8ITd%2BUIQP0IQJ1ss9YXtUZDHeqo9pBa0K3DNH%3A20230912173745%2C9076894005504%2C120.86.229.138%2C20230912173745%2C10000100000000050000000000296946%2C38EF38EAA1D7B71C982A52D6A550F389%2C-1%2C1%2C1%2C%2C%2C2%2C%2C%2C%2C2%2CEND$广东联通高清
CCTV15,http://120.87.4.24/PLTV/88888973/224/3221226647/10000100000000060000000002070293_0.smil/index.m3u8?rrsip=120.87.4.103&fmt=ts2hls&servicetype=2&icpid=&accounttype=1&limitflux=-1&limitdur=-1&GuardEncType=2&accountinfo=CIhTuLpr9mYdZglFbgG8R10lg%2BUgIuY5wNBlBpgwE%2F4li%2FC3qlZAkVRvmzofUB7xBCKLmA8tBjzjUcBEkH5y02Iy6aw8ITd%2BUIQP0IQJ1ss57PKOg6c6thmJyACBQznC%3A20230912173745%2C9076894005504%2C120.86.229.138%2C20230912173745%2C10000100000000050000000002213749%2C38EF38EAA1D7B71C982A52D6A550F389%2C-1%2C1%2C1%2C%2C%2C7%2C%2C%2C%2C4%2CEND$广东联通高清
CCTV15,http://120.87.4.25/PLTV/88888973/224/3221226647/10000100000000060000000002070293_0.smil/index.m3u8?rrsip=120.87.4.103&fmt=ts2hls&servicetype=2&icpid=&accounttype=1&limitflux=-1&limitdur=-1&GuardEncType=2&accountinfo=CIhTuLpr9mYdZglFbgG8R10lg%2BUgIuY5wNBlBpgwE%2F4li%2FC3qlZAkVRvmzofUB7xBCKLmA8tBjzjUcBEkH5y02Iy6aw8ITd%2BUIQP0IQJ1ss57PKOg6c6thmJyACBQznC%3A20230912173745%2C9076894005504%2C120.86.229.138%2C20230912173745%2C10000100000000050000000002213749%2C38EF38EAA1D7B71C982A52D6A550F389%2C-1%2C1%2C1%2C%2C%2C7%2C%2C%2C%2C4%2CEND$广东联通高清

CETV4,http://120.87.4.17/PLTV/88888973/224/3221226638/10000100000000060000000001977379_0.smil/index.m3u8?rrsip=120.87.4.103&fmt=ts2hls&servicetype=1&icpid=&accounttype=1&limitflux=-1&limitdur=-1&GuardEncType=2&accountinfo=CIhTuLpr9mYdZglFbgG8R10lg%2BUgIuY5wNBlBpgwE%2F4li%2FC3qlZAkVRvmzofUB7xBCKLmA8tBjzjUcBEkH5y02Iy6aw8ITd%2BUIQP0IQJ1ss3lZxuL8rtjLVtqXQ20M8n%3A20230912173745%2C9076894005504%2C120.86.229.138%2C20230912173745%2C10000100000000050000000002118873%2C38EF38EAA1D7B71C982A52D6A550F389%2C-1%2C1%2C1%2C%2C%2C2%2C%2C%2C%2C2%2CEND$广东联通高清
CETV4,http://120.87.4.18/PLTV/88888973/224/3221226638/10000100000000060000000001977379_0.smil/index.m3u8?rrsip=120.87.4.103&fmt=ts2hls&servicetype=2&icpid=&accounttype=1&limitflux=-1&limitdur=-1&GuardEncType=2&accountinfo=CIhTuLpr9mYdZglFbgG8R10lg%2BUgIuY5wNBlBpgwE%2F4li%2FC3qlZAkVRvmzofUB7xBCKLmA8tBjzjUcBEkH5y02Iy6aw8ITd%2BUIQP0IQJ1ss3lZxuL8rtjLVtqXQ20M8n%3A20230912173745%2C9076894005504%2C120.86.229.138%2C20230912173745%2C10000100000000050000000002118873%2C38EF38EAA1D7B71C982A52D6A550F389%2C-1%2C1%2C1%2C%2C%2C7%2C%2C%2C%2C4%2CEND$广东联通高清


🇨🇳 | 卫视频道,#genre#
甘肃卫视,http://120.87.4.26/PLTV/88888973/224/3221226656/10000100000000060000000002070300_0.smil/index.m3u8?rrsip=120.87.4.103&fmt=ts2hls&servicetype=1&icpid=&accounttype=1&limitflux=-1&limitdur=-1&GuardEncType=2&accountinfo=CIhTuLpr9mYdZglFbgG8R10lg%2BUgIuY5wNBlBpgwE%2F4li%2FC3qlZAkVRvmzofUB7xBCKLmA8tBjzjUcBEkH5y02Iy6aw8ITd%2BUIQP0IQJ1stDI27IhNIMUoGRHwmbAKb%2B%3A20230912173745%2C9076894005504%2C120.86.229.138%2C20230912173745%2C10000100000000050000000002213757%2C38EF38EAA1D7B71C982A52D6A550F389%2C-1%2C1%2C1%2C%2C%2C2%2C%2C%2C%2C2%2CEND$广东联通高清
海南卫视,http://120.87.4.11/PLTV/88888973/224/3221226653/10000100000000060000000002070297_0.smil/index.m3u8?rrsip=120.87.4.103&fmt=ts2hls&servicetype=1&icpid=&accounttype=1&limitflux=-1&limitdur=-1&GuardEncType=2&accountinfo=CIhTuLpr9mYdZglFbgG8R10lg%2BUgIuY5wNBlBpgwE%2F4li%2FC3qlZAkVRvmzofUB7xBCKLmA8tBjzjUcBEkH5y02Iy6aw8ITd%2BUIQP0IQJ1su1uYyuGmMR5LCR1QBflTNv%3A20230912173745%2C9076894005504%2C120.86.229.138%2C20230912173745%2C10000100000000050000000002213755%2C38EF38EAA1D7B71C982A52D6A550F389%2C-1%2C1%2C1%2C%2C%2C2%2C%2C%2C%2C2%2CEND$广东联通高清
海南卫视,http://120.87.4.12/PLTV/88888973/224/3221226653/10000100000000060000000002070297_0.smil/index.m3u8?rrsip=120.87.4.103&fmt=ts2hls&servicetype=2&icpid=&accounttype=1&limitflux=-1&limitdur=-1&GuardEncType=2&accountinfo=CIhTuLpr9mYdZglFbgG8R10lg%2BUgIuY5wNBlBpgwE%2F4li%2FC3qlZAkVRvmzofUB7xBCKLmA8tBjzjUcBEkH5y02Iy6aw8ITd%2BUIQP0IQJ1su1uYyuGmMR5LCR1QBflTNv%3A20230912173745%2C9076894005504%2C120.86.229.138%2C20230912173745%2C10000100000000050000000002213755%2C38EF38EAA1D7B71C982A52D6A550F389%2C-1%2C1%2C1%2C%2C%2C7%2C%2C%2C%2C4%2CEND$广东联通高清
云南卫视,http://120.87.4.17/PLTV/88888973/224/3221226650/10000100000000060000000002070296_0.smil/index.m3u8?rrsip=120.87.4.103&fmt=ts2hls&servicetype=1&icpid=&accounttype=1&limitflux=-1&limitdur=-1&GuardEncType=2&accountinfo=CIhTuLpr9mYdZglFbgG8R10lg%2BUgIuY5wNBlBpgwE%2F4li%2FC3qlZAkVRvmzofUB7xBCKLmA8tBjzjUcBEkH5y02Iy6aw8ITd%2BUIQP0IQJ1svJ3k8qbHW07xV06W8Otn4O%3A20230912173745%2C9076894005504%2C120.86.229.138%2C20230912173745%2C10000100000000050000000002213754%2C38EF38EAA1D7B71C982A52D6A550F389%2C-1%2C1%2C1%2C%2C%2C2%2C%2C%2C%2C2%2CEND$广东联通高清
云南卫视,http://120.87.4.18/PLTV/88888973/224/3221226650/10000100000000060000000002070296_0.smil/index.m3u8?rrsip=120.87.4.103&fmt=ts2hls&servicetype=2&icpid=&accounttype=1&limitflux=-1&limitdur=-1&GuardEncType=2&accountinfo=CIhTuLpr9mYdZglFbgG8R10lg%2BUgIuY5wNBlBpgwE%2F4li%2FC3qlZAkVRvmzofUB7xBCKLmA8tBjzjUcBEkH5y02Iy6aw8ITd%2BUIQP0IQJ1svJ3k8qbHW07xV06W8Otn4O%3A20230912173745%2C9076894005504%2C120.86.229.138%2C20230912173745%2C10000100000000050000000002213754%2C38EF38EAA1D7B71C982A52D6A550F389%2C-1%2C1%2C1%2C%2C%2C7%2C%2C%2C%2C4%2CEND$广东联通高清
河南卫视,http://120.87.4.24/PLTV/88888973/224/3221226672/10000100000000060000000002070295_0.smil/index.m3u8?rrsip=120.87.4.103&fmt=ts2hls&servicetype=1&icpid=&accounttype=1&limitflux=-1&limitdur=-1&GuardEncType=2&accountinfo=CIhTuLpr9mYdZglFbgG8R10lg%2BUgIuY5wNBlBpgwE%2F4li%2FC3qlZAkVRvmzofUB7xBCKLmA8tBjzjUcBEkH5y02Iy6aw8ITd%2BUIQP0IQJ1svZ3lq8vThcfRYcVyqhmp2w%3A20230912173745%2C9076894005504%2C120.86.229.138%2C20230912173745%2C10000100000000050000000002213753%2C38EF38EAA1D7B71C982A52D6A550F389%2C-1%2C1%2C1%2C%2C%2C2%2C%2C%2C%2C2%2CEND$广东联通高清
河南卫视,http://120.87.4.25/PLTV/88888973/224/3221226672/10000100000000060000000002070295_0.smil/index.m3u8?rrsip=120.87.4.103&fmt=ts2hls&servicetype=2&icpid=&accounttype=1&limitflux=-1&limitdur=-1&GuardEncType=2&accountinfo=CIhTuLpr9mYdZglFbgG8R10lg%2BUgIuY5wNBlBpgwE%2F4li%2FC3qlZAkVRvmzofUB7xBCKLmA8tBjzjUcBEkH5y02Iy6aw8ITd%2BUIQP0IQJ1svZ3lq8vThcfRYcVyqhmp2w%3A20230912173745%2C9076894005504%2C120.86.229.138%2C20230912173745%2C10000100000000050000000002213753%2C38EF38EAA1D7B71C982A52D6A550F389%2C-1%2C1%2C1%2C%2C%2C7%2C%2C%2C%2C4%2CEND$广东联通高清
三沙卫视,http://120.87.4.24/PLTV/88888973/224/3221226641/10000100000000060000000002048493_0.smil/index.m3u8?rrsip=120.87.4.103&fmt=ts2hls&servicetype=1&icpid=&accounttype=1&limitflux=-1&limitdur=-1&GuardEncType=2&accountinfo=CIhTuLpr9mYdZglFbgG8R10lg%2BUgIuY5wNBlBpgwE%2F4li%2FC3qlZAkVRvmzofUB7xBCKLmA8tBjzjUcBEkH5y02Iy6aw8ITd%2BUIQP0IQJ1stH%2FKq%2BM2X8i3hsMepsFxMS%3A20230912173745%2C9076894005504%2C120.86.229.138%2C20230912173745%2C10000100000000050000000002191323%2C38EF38EAA1D7B71C982A52D6A550F389%2C-1%2C1%2C1%2C%2C%2C2%2C%2C%2C%2C2%2CEND$广东联通高清
三沙卫视,http://120.87.4.25/PLTV/88888973/224/3221226641/10000100000000060000000002048493_0.smil/index.m3u8?rrsip=120.87.4.103&fmt=ts2hls&servicetype=2&icpid=&accounttype=1&limitflux=-1&limitdur=-1&GuardEncType=2&accountinfo=CIhTuLpr9mYdZglFbgG8R10lg%2BUgIuY5wNBlBpgwE%2F4li%2FC3qlZAkVRvmzofUB7xBCKLmA8tBjzjUcBEkH5y02Iy6aw8ITd%2BUIQP0IQJ1stH%2FKq%2BM2X8i3hsMepsFxMS%3A20230912173745%2C9076894005504%2C120.86.229.138%2C20230912173745%2C10000100000000050000000002191323%2C38EF38EAA1D7B71C982A52D6A550F389%2C-1%2C1%2C1%2C%2C%2C2%2C%2C%2C%2C2%2CEND$广东联通高清
贵州卫视,http://120.87.4.5/PLTV/88888973/224/3221226123/10000100000000060000000001056887_0.smil/index.m3u8?rrsip=120.87.4.103&fmt=ts2hls&servicetype=1&icpid=&accounttype=1&limitflux=-1&limitdur=-1&GuardEncType=2&accountinfo=CIhTuLpr9mYdZglFbgG8R10lg%2BUgIuY5wNBlBpgwE%2F4li%2FC3qlZAkVRvmzofUB7xBCKLmA8tBjzjUcBEkH5y02Iy6aw8ITd%2BUIQP0IQJ1svi4Tq2a8x1uFwrD002hdYe%3A20230912173745%2C9076894005504%2C120.86.229.138%2C20230912173745%2C10000100000000050000000001096978%2C38EF38EAA1D7B71C982A52D6A550F389%2C-1%2C1%2C1%2C%2C%2C7%2C%2C%2C%2C4%2CEND$广东联通高清
贵州卫视,http://120.87.4.17/PLTV/88888973/224/3221226123/10000100000000060000000001056887_0.smil/index.m3u8?rrsip=120.87.4.103&fmt=ts2hls&servicetype=2&icpid=&accounttype=1&limitflux=-1&limitdur=-1&GuardEncType=2&accountinfo=CIhTuLpr9mYdZglFbgG8R10lg%2BUgIuY5wNBlBpgwE%2F4li%2FC3qlZAkVRvmzofUB7xBCKLmA8tBjzjUcBEkH5y02Iy6aw8ITd%2BUIQP0IQJ1svi4Tq2a8x1uFwrD002hdYe%3A20230912173745%2C9076894005504%2C120.86.229.138%2C20230912173745%2C10000100000000050000000001096978%2C38EF38EAA1D7B71C982A52D6A550F389%2C-1%2C1%2C1%2C%2C%2C7%2C%2C%2C%2C4%2CEND$广东联通高清
广西卫视,http://120.87.4.26/PLTV/88888973/224/3221226355/10000100000000060000000001481217_0.smil/index.m3u8?rrsip=120.87.4.103&fmt=ts2hls&servicetype=1&icpid=&accounttype=1&limitflux=-1&limitdur=-1&GuardEncType=2&accountinfo=CIhTuLpr9mYdZglFbgG8R10lg%2BUgIuY5wNBlBpgwE%2F4li%2FC3qlZAkVRvmzofUB7xBCKLmA8tBjzjUcBEkH5y02Iy6aw8ITd%2BUIQP0IQJ1stduvutxVXwfrEJHUM8X%2FHC%3A20230912173745%2C9076894005504%2C120.86.229.138%2C20230912173745%2C10000100000000050000000001617986%2C38EF38EAA1D7B71C982A52D6A550F389%2C-1%2C1%2C1%2C%2C%2C7%2C%2C%2C%2C4%2CEND$广东联通高清
广西卫视,http://120.87.4.27/PLTV/88888973/224/3221226355/10000100000000060000000001481217_0.smil/index.m3u8?rrsip=120.87.4.103&fmt=ts2hls&servicetype=2&icpid=&accounttype=1&limitflux=-1&limitdur=-1&GuardEncType=2&accountinfo=CIhTuLpr9mYdZglFbgG8R10lg%2BUgIuY5wNBlBpgwE%2F4li%2FC3qlZAkVRvmzofUB7xBCKLmA8tBjzjUcBEkH5y02Iy6aw8ITd%2BUIQP0IQJ1stduvutxVXwfrEJHUM8X%2FHC%3A20230912173745%2C9076894005504%2C120.86.229.138%2C20230912173745%2C10000100000000050000000001617986%2C38EF38EAA1D7B71C982A52D6A550F389%2C-1%2C1%2C1%2C%2C%2C7%2C%2C%2C%2C4%2CEND$广东联通高清
黑龙江卫视,http://120.87.4.13/PLTV/88888973/224/3221225711/10000100000000060000000000334653_0.smil/index.m3u8?rrsip=120.87.4.103&fmt=ts2hls&servicetype=1&icpid=&accounttype=1&limitflux=-1&limitdur=-1&GuardEncType=2&accountinfo=CIhTuLpr9mYdZglFbgG8R10lg%2BUgIuY5wNBlBpgwE%2F4li%2FC3qlZAkVRvmzofUB7xBCKLmA8tBjzjUcBEkH5y02Iy6aw8ITd%2BUIQP0IQJ1stqQ%2F7R0kPn2gevCq0sfC%2BL%3A20230912173745%2C9076894005504%2C120.86.229.138%2C20230912173745%2C10000100000000050000000000297067%2C38EF38EAA1D7B71C982A52D6A550F389%2C-1%2C1%2C1%2C%2C%2C2%2C%2C%2C%2C2%2CEND$广东联通高清
黑龙江卫视,http://120.87.4.14/PLTV/88888973/224/3221225711/10000100000000060000000000334653_0.smil/index.m3u8?rrsip=120.87.4.103&fmt=ts2hls&servicetype=2&icpid=&accounttype=1&limitflux=-1&limitdur=-1&GuardEncType=2&accountinfo=CIhTuLpr9mYdZglFbgG8R10lg%2BUgIuY5wNBlBpgwE%2F4li%2FC3qlZAkVRvmzofUB7xBCKLmA8tBjzjUcBEkH5y02Iy6aw8ITd%2BUIQP0IQJ1stqQ%2F7R0kPn2gevCq0sfC%2BL%3A20230912173745%2C9076894005504%2C120.86.229.138%2C20230912173745%2C10000100000000050000000000297067%2C38EF38EAA1D7B71C982A52D6A550F389%2C-1%2C1%2C1%2C%2C%2C2%2C%2C%2C%2C2%2CEND$广东联通高清
重庆卫视,http://120.87.4.5/PLTV/88888973/224/3221225757/10000100000000060000000000334621_0.smil/index.m3u8?rrsip=120.87.4.103&fmt=ts2hls&servicetype=1&icpid=&accounttype=1&limitflux=-1&limitdur=-1&GuardEncType=2&accountinfo=CIhTuLpr9mYdZglFbgG8R10lg%2BUgIuY5wNBlBpgwE%2F4li%2FC3qlZAkVRvmzofUB7xBCKLmA8tBjzjUcBEkH5y02Iy6aw8ITd%2BUIQP0IQJ1ssppSywxuugAQgdeX26gq9n%3A20230912173745%2C9076894005504%2C120.86.229.138%2C20230912173745%2C10000100000000050000000000297024%2C38EF38EAA1D7B71C982A52D6A550F389%2C-1%2C1%2C1%2C%2C%2C7%2C%2C%2C%2C4%2CEND$广东联通高清
重庆卫视,http://120.87.4.13/PLTV/88888973/224/3221225757/10000100000000060000000000334621_0.smil/index.m3u8?rrsip=120.87.4.103&fmt=ts2hls&servicetype=2&icpid=&accounttype=1&limitflux=-1&limitdur=-1&GuardEncType=2&accountinfo=CIhTuLpr9mYdZglFbgG8R10lg%2BUgIuY5wNBlBpgwE%2F4li%2FC3qlZAkVRvmzofUB7xBCKLmA8tBjzjUcBEkH5y02Iy6aw8ITd%2BUIQP0IQJ1ssppSywxuugAQgdeX26gq9n%3A20230912173745%2C9076894005504%2C120.86.229.138%2C20230912173745%2C10000100000000050000000000297024%2C38EF38EAA1D7B71C982A52D6A550F389%2C-1%2C1%2C1%2C%2C%2C7%2C%2C%2C%2C4%2CEND$广东联通高清
辽宁卫视,http://120.87.4.11/PLTV/88888973/224/3221225709/10000100000000060000000000334654_0.smil/index.m3u8?rrsip=120.87.4.103&fmt=ts2hls&servicetype=2&icpid=&accounttype=1&limitflux=-1&limitdur=-1&GuardEncType=2&accountinfo=CIhTuLpr9mYdZglFbgG8R10lg%2BUgIuY5wNBlBpgwE%2F4li%2FC3qlZAkVRvmzofUB7xBCKLmA8tBjzjUcBEkH5y02Iy6aw8ITd%2BUIQP0IQJ1ssXNKixOYcone7LOTcKR6ty%3A20230912173745%2C9076894005504%2C120.86.229.138%2C20230912173745%2C10000100000000050000000000297069%2C38EF38EAA1D7B71C982A52D6A550F389%2C-1%2C1%2C1%2C%2C%2C7%2C%2C%2C%2C4%2CEND$广东联通高清
湖南卫视,http://120.87.4.11/PLTV/88888973/224/3221225716/10000100000000060000000000334645_0.smil/index.m3u8?rrsip=120.87.4.103&fmt=ts2hls&servicetype=1&icpid=&accounttype=1&limitflux=-1&limitdur=-1&GuardEncType=2&accountinfo=CIhTuLpr9mYdZglFbgG8R10lg%2BUgIuY5wNBlBpgwE%2F4li%2FC3qlZAkVRvmzofUB7xBCKLmA8tBjzjUcBEkH5y02Iy6aw8ITd%2BUIQP0IQJ1stbxHTDe8qZDZDfk5HPwg9f%3A20230912173745%2C9076894005504%2C120.86.229.138%2C20230912173745%2C10000100000000050000000000297058%2C38EF38EAA1D7B71C982A52D6A550F389%2C-1%2C1%2C1%2C%2C%2C2%2C%2C%2C%2C2%2CEND$广东联通高清
湖南卫视,http://120.87.4.12/PLTV/88888973/224/3221225716/10000100000000060000000000334645_0.smil/index.m3u8?rrsip=120.87.4.103&fmt=ts2hls&servicetype=2&icpid=&accounttype=1&limitflux=-1&limitdur=-1&GuardEncType=2&accountinfo=CIhTuLpr9mYdZglFbgG8R10lg%2BUgIuY5wNBlBpgwE%2F4li%2FC3qlZAkVRvmzofUB7xBCKLmA8tBjzjUcBEkH5y02Iy6aw8ITd%2BUIQP0IQJ1stbxHTDe8qZDZDfk5HPwg9f%3A20230912173745%2C9076894005504%2C120.86.229.138%2C20230912173745%2C10000100000000050000000000297058%2C38EF38-1%2C1%2C1%2C%2C%2C7%2C%2C%2C%2C4%2CEND$广东联通高清
湖北卫视,http://120.87.4.13/PLTV/88888973/224/3221225714/10000100000000060000000000334648_0.smil/index.m3u8?rrsip=120.87.4.103&fmt=ts2hls&servicetype=1&icpid=&accounttype=1&limitflux=-1&limitdur=-1&GuardEncType=2&accountinfo=CIhTuLpr9mYdZglFbgG8R10lg%2BUgIuY5wNBlBpgwE%2F4li%2FC3qlZAkVRvmzofUB7xBCKLmA8tBjzjUcBEkH5y02Iy6aw8ITd%2BUIQP0IQJ1sugdPrIYi0Xb297%2FqjjFh5q%3A20230912173745%2C9076894005504%2C120.86.229.138%2C20230912173745%2C10000100000000050000000000297062%2C38EF38EAA1D7B71C982A52D6A550F389%2C-1%2C1%2C1%2C%2C%2C7%2C%2C%2C%2C4%2CEND$广东联通高清
湖北卫视,http://120.87.4.17/PLTV/88888973/224/3221225714/10000100000000060000000000334648_0.smil/index.m3u8?rrsip=120.87.4.103&fmt=ts2hls&servicetype=2&icpid=&accounttype=1&limitflux=-1&limitdur=-1&GuardEncType=2&accountinfo=CIhTuLpr9mYdZglFbgG8R10lg%2BUgIuY5wNBlBpgwE%2F4li%2FC3qlZAkVRvmzofUB7xBCKLmA8tBjzjUcBEkH5y02Iy6aw8ITd%2BUIQP0IQJ1sugdPrIYi0Xb297%2FqjjFh5q%3A20230912173745%2C9076894005504%2C120.86.229.138%2C20230912173745%2C10000100000000050000000000297062%2C38EF38EAA1D7B71C982A52D6A550F389%2C-1%2C1%2C1%2C%2C%2C7%2C%2C%2C%2C4%2CEND$广东联通高清
深圳卫视,http://120.87.4.11/PLTV/88888973/224/3221225708/10000100000000060000000000334657_0.smil/index.m3u8?rrsip=120.87.4.103&fmt=ts2hls&servicetype=2&icpid=&accounttype=1&limitflux=-1&limitdur=-1&GuardEncType=2&accountinfo=CIhTuLpr9mYdZglFbgG8R10lg%2BUgIuY5wNBlBpgwE%2F4li%2FC3qlZAkVRvmzofUB7xBCKLmA8tBjzjUcBEkH5y02Iy6aw8ITd%2BUIQP0IQJ1ssTaFgsUE%2FZnowhwl7IrXI0%3A20230912173745%2C9076894005504%2C120.86.229.138%2C20230912173745%2C10000100000000050000000000297073%2C38EF38EAA1D7B71C982A52D6A550F389%2C-1%2C1%2C1%2C%2C%2C7%2C%2C%2C%2C4%2CEND$广东联通高清
浙江卫视,http://120.87.4.13/PLTV/88888973/224/3221225713/10000100000000060000000000334649_0.smil/index.m3u8?rrsip=120.87.4.103&fmt=ts2hls&servicetype=1&icpid=&accounttype=1&limitflux=-1&limitdur=-1&GuardEncType=2&accountinfo=CIhTuLpr9mYdZglFbgG8R10lg%2BUgIuY5wNBlBpgwE%2F4li%2FC3qlZAkVRvmzofUB7xBCKLmA8tBjzjUcBEkH5y02Iy6aw8ITd%2BUIQP0IQJ1suEQdMJnw9pHoVYQplmQAGU%3A20230912173745%2C9076894005504%2C120.86.229.138%2C20230912173745%2C10000100000000050000000000297063%2C38EF38EAA1D7B71C982A52D6A550F389%2C-1%2C1%2C1%2C%2C%2C2%2C%2C%2C%2C2%2CEND$广东联通高清
浙江卫视,http://120.87.4.17/PLTV/88888973/224/3221225713/10000100000000060000000000334649_0.smil/index.m3u8?rrsip=120.87.4.103&fmt=ts2hls&servicetype=2&icpid=&accounttype=1&limitflux=-1&limitdur=-1&GuardEncType=2&accountinfo=CIhTuLpr9mYdZglFbgG8R10lg%2BUgIuY5wNBlBpgwE%2F4li%2FC3qlZAkVRvmzofUB7xBCKLmA8tBjzjUcBEkH5y02Iy6aw8ITd%2BUIQP0IQJ1suEQdMJnw9pHoVYQplmQAGU%3A20230912173745%2C9076894005504%2C120.86.229.138%2C20230912173745%2C10000100000000050000000000297063%2C38EF38EAA1D7B71C982A52D6A550F389%2C-1%2C1%2C1%2C%2C%2C2%2C%2C%2C%2C2%2CEND$广东联通高清
江苏卫视,http://120.87.4.11/PLTV/88888973/224/3221225710/10000100000000060000000000334652_0.smil/index.m3u8?rrsip=120.87.4.103&fmt=ts2hls&servicetype=1&icpid=&accounttype=1&limitflux=-1&limitdur=-1&GuardEncType=2&accountinfo=CIhTuLpr9mYdZglFbgG8R10lg%2BUgIuY5wNBlBpgwE%2F4li%2FC3qlZAkVRvmzofUB7xBCKLmA8tBjzjUcBEkH5y02Iy6aw8ITd%2BUIQP0IQJ1svBRqAiuzB6WuIwSIU%2BnfjB%3A20230912173745%2C9076894005504%2C120.86.229.138%2C20230912173745%2C10000100000000050000000000297068%2C38EF38EAA1D7B71C982A52D6A550F389%2C-1%2C1%2C1%2C%2C%2C2%2C%2C%2C%2C2%2CEND$广东联通高清
江苏卫视,http://120.87.4.13/PLTV/88888973/224/3221225710/10000100000000060000000000334652_0.smil/index.m3u8?rrsip=120.87.4.103&fmt=ts2hls&servicetype=2&icpid=&accounttype=1&limitflux=-1&limitdur=-1&GuardEncType=2&accountinfo=CIhTuLpr9mYdZglFbgG8R10lg%2BUgIuY5wNBlBpgwE%2F4li%2FC3qlZAkVRvmzofUB7xBCKLmA8tBjzjUcBEkH5y02Iy6aw8ITd%2BUIQP0IQJ1svBRqAiuzB6WuIwSIU%2BnfjB%3A20230912173745%2C9076894005504%2C120.86.229.138%2C20230912173745%2C10000100000000050000000000297068%2C38EF38EAA1D7B71C982A52D6A550F389%2C-1%2C1%2C1%2C%2C%2C7%2C%2C%2C%2C4%2CEND$广东联通高清
山东卫视,http://120.87.4.13/PLTV/88888973/224/3221225758/10000100000000060000000000334623_0.smil/index.m3u8?rrsip=120.87.4.103&fmt=ts2hls&servicetype=2&icpid=&accounttype=1&limitflux=-1&limitdur=-1&GuardEncType=2&accountinfo=CIhTuLpr9mYdZglFbgG8R10lg%2BUgIuY5wNBlBpgwE%2F4li%2FC3qlZAkVRvmzofUB7xBCKLmA8tBjzjUcBEkH5y02Iy6aw8ITd%2BUIQP0IQJ1ssthYRKOOx7OzpxFDXUesuk%3A20230912173745%2C9076894005504%2C120.86.229.138%2C20230912173745%2C10000100000000050000000000297025%2C38EF38EAA1D7B71C982A52D6A550F389%2C-1%2C1%2C1%2C%2C%2C7%2C%2C%2C%2C4%2CEND$广东联通高清
安徽卫视,http://120.87.4.11/PLTV/88888973/224/3221225759/10000100000000060000000000335582_0.smil/index.m3u8?rrsip=120.87.4.103&fmt=ts2hls&servicetype=1&icpid=&accounttype=1&limitflux=-1&limitdur=-1&GuardEncType=2&accountinfo=CIhTuLpr9mYdZglFbgG8R10lg%2BUgIuY5wNBlBpgwE%2F4li%2FC3qlZAkVRvmzofUB7xBCKLmA8tBjzjUcBEkH5y02Iy6aw8ITd%2BUIQP0IQJ1ssk7xR4I09Hf6BnniIoNK7a%3A20230912173745%2C9076894005504%2C120.86.229.138%2C20230912173745%2C10000100000000050000000000297749%2C38EF38EAA1D7B71C982A52D6A550F389%2C-1%2C1%2C1%2C%2C%2C2%2C%2C%2C%2C2%2CEND$广东联通高清
安徽卫视,http://120.87.4.12/PLTV/88888973/224/3221225759/10000100000000060000000000335582_0.smil/index.m3u8?rrsip=120.87.4.103&fmt=ts2hls&servicetype=2&icpid=&accounttype=1&limitflux=-1&limitdur=-1&GuardEncType=2&accountinfo=CIhTuLpr9mYdZglFbgG8R10lg%2BUgIuY5wNBlBpgwE%2F4li%2FC3qlZAkVRvmzofUB7xBCKLmA8tBjzjUcBEkH5y02Iy6aw8ITd%2BUIQP0IQJ1ssk7xR4I09Hf6BnniIoNK7a%3A20230912173745%2C9076894005504%2C120.86.229.138%2C20230912173745%2C10000100000000050000000000297749%2C38EF38EAA1D7B71C982A52D6A550F389%2C-1%2C1%2C1%2C%2C%2C7%2C%2C%2C%2C4%2CEND$广东联通高清
四川卫视,http://120.87.4.13/PLTV/88888973/224/3221225712/10000100000000060000000000334651_0.smil/index.m3u8?rrsip=120.87.4.103&fmt=ts2hls&servicetype=1&icpid=&accounttype=1&limitflux=-1&limitdur=-1&GuardEncType=2&accountinfo=CIhTuLpr9mYdZglFbgG8R10lg%2BUgIuY5wNBlBpgwE%2F4li%2FC3qlZAkVRvmzofUB7xBCKLmA8tBjzjUcBEkH5y02Iy6aw8ITd%2BUIQP0IQJ1suwVuOEsAdEVYRHCJzaBJkR%3A20230912173745%2C9076894005504%2C120.86.229.138%2C20230912173745%2C10000100000000050000000000297064%2C38EF38EAA1D7B71C982A52D6A550F389%2C-1%2C1%2C1%2C%2C%2C2%2C%2C%2C%2C2%2CEND$广东联通高清
四川卫视,http://120.87.4.17/PLTV/88888973/224/3221225712/10000100000000060000000000334651_0.smil/index.m3u8?rrsip=120.87.4.103&fmt=ts2hls&servicetype=2&icpid=&accounttype=1&limitflux=-1&limitdur=-1&GuardEncType=2&accountinfo=CIhTuLpr9mYdZglFbgG8R10lg%2BUgIuY5wNBlBpgwE%2F4li%2FC3qlZAkVRvmzofUB7xBCKLmA8tBjzjUcBEkH5y02Iy6aw8ITd%2BUIQP0IQJ1suwVuOEsAdEVYRHCJzaBJkR%3A20230912173745%2C9076894005504%2C120.86.229.138%2C20230912173745%2C10000100000000050000000000297064%2C38EF38EAA1D7B71C982A52D6A550F389%2C-1%2C1%2C1%2C%2C%2C7%2C%2C%2C%2C4%2CEND$广东联通高清
北京卫视,http://120.87.4.11/PLTV/88888973/224/3221225706/10000100000000060000000000334665_0.smil/index.m3u8?rrsip=120.87.4.103&fmt=ts2hls&servicetype=2&icpid=&accounttype=1&limitflux=-1&limitdur=-1&GuardEncType=2&accountinfo=CIhTuLpr9mYdZglFbgG8R10lg%2BUgIuY5wNBlBpgwE%2F4li%2FC3qlZAkVRvmzofUB7xBCKLmA8tBjzjUcBEkH5y02Iy6aw8ITd%2BUIQP0IQJ1stXuHF6IWuu6cQE4aSll0Zb%3A20230912173745%2C9076894005504%2C120.86.229.138%2C20230912173745%2C10000100000000050000000000297085%2C38EF38EAA1D7B71C982A52D6A550F389%2C-1%2C1%2C1%2C%2C%2C7%2C%2C%2C%2C4%2CEND$广东联通高清
东方卫视,http://120.87.4.11/PLTV/88888973/224/3221225707/10000100000000060000000000334659_0.smil/index.m3u8?rrsip=120.87.4.103&fmt=ts2hls&servicetype=1&icpid=&accounttype=1&limitflux=-1&limitdur=-1&GuardEncType=2&accountinfo=CIhTuLpr9mYdZglFbgG8R10lg%2BUgIuY5wNBlBpgwE%2F4li%2FC3qlZAkVRvmzofUB7xBCKLmA8tBjzjUcBEkH5y02Iy6aw8ITd%2BUIQP0IQJ1sstHTlrMb1se1%2FYp4d%2F19Bo%3A20230912173745%2C9076894005504%2C120.86.229.138%2C20230912173745%2C10000100000000050000000000297076%2C38EF38EAA1D7B71C982A52D6A550F389%2C-1%2C1%2C1%2C%2C%2C2%2C%2C%2C%2C2%2CEND$广东联通高清
青海卫视,http://120.87.4.26/PLTV/88888973/224/3221226646/10000100000000060000000002016680_0.smil/index.m3u8?rrsip=120.87.4.103&fmt=ts2hls&servicetype=2&icpid=&accounttype=1&limitflux=-1&limitdur=-1&GuardEncType=2&accountinfo=CIhTuLpr9mYdZglFbgG8R10lg%2BUgIuY5wNBlBpgwE%2F4li%2FC3qlZAkVRvmzofUB7xBCKLmA8tBjzjUcBEkH5y02Iy6aw8ITd%2BUIQP0IQJ1stS95BAVRhjkoWSefhe8KgV%3A20230912173745%2C9076894005504%2C120.86.229.138%2C20230912173745%2C10000100000000050000000002158706%2C38EF38EAA1D7B71C982A52D6A550F389%2C-1%2C1%2C1%2C%2C%2C7%2C%2C%2C%2C4%2CEND$广东联通高清
东南卫视,http://120.87.4.24/PLTV/88888973/224/3221226636/10000100000000060000000001621393_0.smil/index.m3u8?rrsip=120.87.4.103&fmt=ts2hls&servicetype=1&icpid=&accounttype=1&limitflux=-1&limitdur=-1&GuardEncType=2&accountinfo=CIhTuLpr9mYdZglFbgG8R10lg%2BUgIuY5wNBlBpgwE%2F4li%2FC3qlZAkVRvmzofUB7xBCKLmA8tBjzjUcBEkH5y02Iy6aw8ITd%2BUIQP0IQJ1svccWFxFJiYd11NHBfsSo1%2F%3A20230912173745%2C9076894005504%2C120.86.229.138%2C20230912173745%2C10000100000000050000000001759722%2C38EF38EAA1D7B71C982A52D6A550F389%2C-1%2C1%2C1%2C%2C%2C2%2C%2C%2C%2C2%2CEND$广东联通高清
河北卫视,http://120.87.4.5/PLTV/88888973/224/3221226622/10000100000000060000000001621395_0.smil/index.m3u8?rrsip=120.87.4.103&fmt=ts2hls&servicetype=1&icpid=&accounttype=1&limitflux=-1&limitdur=-1&GuardEncType=2&accountinfo=CIhTuLpr9mYdZglFbgG8R10lg%2BUgIuY5wNBlBpgwE%2F4li%2FC3qlZAkVRvmzofUB7xBCKLmA8tBjzjUcBEkH5y02Iy6aw8ITd%2BUIQP0IQJ1ssD5oM3797QfBl4nsjW61Uy%3A20230912173745%2C9076894005504%2C120.86.229.138%2C20230912173745%2C10000100000000050000000001759724%2C38EF38EAA1D7B71C982A52D6A550F389%2C-1%2C1%2C1%2C%2C%2C2%2C%2C%2C%2C2%2CEND$广东联通高清
江西卫视,http://120.87.4.24/PLTV/88888973/224/3221226626/10000100000000060000000001621396_0.smil/index.m3u8?rrsip=120.87.4.103&fmt=ts2hls&servicetype=1&icpid=&accounttype=1&limitflux=-1&limitdur=-1&GuardEncType=2&accountinfo=CIhTuLpr9mYdZglFbgG8R10lg%2BUgIuY5wNBlBpgwE%2F4li%2FC3qlZAkVRvmzofUB7xBCKLmA8tBjzjUcBEkH5y02Iy6aw8ITd%2BUIQP0IQJ1ssPjq%2F3YWvZKYdaIOB2DyG7%3A20230912173745%2C9076894005504%2C120.86.229.138%2C20230912173745%2C10000100000000050000000001759725%2C38EF38EAA1D7B71C982A52D6A550F389%2C-1%2C1%2C1%2C%2C%2C2%2C%2C%2C%2C2%2CEND$广东联通高清
江西卫视,http://120.87.4.25/PLTV/88888973/224/3221226626/10000100000000060000000001621396_0.smil/index.m3u8?rrsip=120.87.4.103&fmt=ts2hls&servicetype=2&icpid=&accounttype=1&limitflux=-1&limitdur=-1&GuardEncType=2&accountinfo=CIhTuLpr9mYdZglFbgG8R10lg%2BUgIuY5wNBlBpgwE%2F4li%2FC3qlZAkVRvmzofUB7xBCKLmA8tBjzjUcBEkH5y02Iy6aw8ITd%2BUIQP0IQJ1ssPjq%2F3YWvZKYdaIOB2DyG7%3A20230912173745%2C9076894005504%2C120.86.229.138%2C20230912173745%2C10000100000000050000000001759725%2C38EF38EAA1D7B71C982A52D6A550F389%2C-1%2C1%2C1%2C%2C%2C7%2C%2C%2C%2C4%2CEND$广东联通高清
吉林卫视,http://120.87.4.5/PLTV/88888973/224/3221226623/10000100000000060000000001621397_0.smil/index.m3u8?rrsip=120.87.4.103&fmt=ts2hls&servicetype=1&icpid=&accounttype=1&limitflux=-1&limitdur=-1&GuardEncType=2&accountinfo=CIhTuLpr9mYdZglFbgG8R10lg%2BUgIuY5wNBlBpgwE%2F4li%2FC3qlZAkVRvmzofUB7xBCKLmA8tBjzjUcBEkH5y02Iy6aw8ITd%2BUIQP0IQJ1suBKFWiM2s7eS31CPTtZbJr%3A20230912173745%2C9076894005504%2C120.86.229.138%2C20230912173745%2C10000100000000050000000001759726%2C38EF38EAA1D7B71C982A52D6A550F389%2C-1%2C1%2C1%2C%2C%2C2%2C%2C%2C%2C2%2CEND$广东联通高清
吉林卫视,http://120.87.4.24/PLTV/88888973/224/3221226623/10000100000000060000000001621397_0.smil/index.m3u8?rrsip=120.87.4.103&fmt=ts2hls&servicetype=2&icpid=&accounttype=1&limitflux=-1&limitdur=-1&GuardEncType=2&accountinfo=CIhTuLpr9mYdZglFbgG8R10lg%2BUgIuY5wNBlBpgwE%2F4li%2FC3qlZAkVRvmzofUB7xBCKLmA8tBjzjUcBEkH5y02Iy6aw8ITd%2BUIQP0IQJ1suBKFWiM2s7eS31CPTtZbJr%3A20230912173745%2C9076894005504%2C120.86.229.138%2C20230912173745%2C10000100000000050000000001759726%2C38EF38EAA1D7B71C982A52D6A550F389%2C-1%2C1%2C1%2C%2C%2C7%2C%2C%2C%2C4%2CEND$广东联通高清
🇨🇳 | 广东频道,#genre#
广东4K,http://120.87.4.5/PLTV/88888973/224/3221226174/10000100000000060000000001154677_0.smil/index.m3u8?rrsip=120.87.4.103&fmt=ts2hls&servicetype=2&icpid=&accounttype=1&limitflux=-1&limitdur=-1&GuardEncType=2&accountinfo=CIhTuLpr9mYdZglFbgG8R10lg%2BUgIuY5wNBlBpgwE%2F4li%2FC3qlZAkVRvmzofUB7xBCKLmA8tBjzjUcBEkH5y02Iy6aw8ITd%2BUIQP0IQJ1svMLmG6zdCGSxMSWOzjIcvA%3A20230912173745%2C9076894005504%2C120.86.229.138%2C20230912173745%2C10000100000000050000000001217635%2C38EF38EAA1D7B71C982A52D6A550F389%2C-1%2C1%2C1%2C%2C%2C7%2C%2C%2C%2C4%2CEND$广东联通高清
广东影视,http://120.87.4.24/PLTV/88888973/224/3221226658/10000100000000060000000002070277_0.smil/index.m3u8?rrsip=120.87.4.103&fmt=ts2hls&servicetype=1&icpid=&accounttype=1&limitflux=-1&limitdur=-1&GuardEncType=2&accountinfo=CIhTuLpr9mYdZglFbgG8R10lg%2BUgIuY5wNBlBpgwE%2F4li%2FC3qlZAkVRvmzofUB7xBCKLmA8tBjzjUcBEkH5y02Iy6aw8ITd%2BUIQP0IQJ1suK%2F4Q0oB6q3uefswXxtvD7%3A20230912173745%2C9076894005504%2C120.86.229.138%2C20230912173745%2C10000100000000050000000002213734%2C38EF38EAA1D7B71C982A52D6A550F389%2C-1%2C1%2C1%2C%2C%2C2%2C%2C%2C%2C2%2CEND$广东联通高清
广东影视,http://120.87.4.25/PLTV/88888973/224/3221226658/10000100000000060000000002070277_0.smil/index.m3u8?rrsip=120.87.4.103&fmt=ts2hls&servicetype=2&icpid=&accounttype=1&limitflux=-1&limitdur=-1&GuardEncType=2&accountinfo=CIhTuLpr9mYdZglFbgG8R10lg%2BUgIuY5wNBlBpgwE%2F4li%2FC3qlZAkVRvmzofUB7xBCKLmA8tBjzjUcBEkH5y02Iy6aw8ITd%2BUIQP0IQJ1suK%2F4Q0oB6q3uefswXxtvD7%3A20230912173745%2C9076894005504%2C120.86.229.138%2C20230912173745%2C10000100000000050000000002213734%2C38EF38EAA1D7B71C982A52D6A550F389%2C-1%2C1%2C1%2C%2C%2C2%2C%2C%2C%2C2%2CEND$广东联通高清
广东新闻,http://120.87.4.11/PLTV/88888973/224/3221226655/10000100000000060000000002048492_0.smil/index.m3u8?rrsip=120.87.4.103&fmt=ts2hls&servicetype=1&icpid=&accounttype=1&limitflux=-1&limitdur=-1&GuardEncType=2&accountinfo=CIhTuLpr9mYdZglFbgG8R10lg%2BUgIuY5wNBlBpgwE%2F4li%2FC3qlZAkVRvmzofUB7xBCKLmA8tBjzjUcBEkH5y02Iy6aw8ITd%2BUIQP0IQJ1sskQ4O6B7F0lZDtQ2ybc%2BWp%3A20230912173745%2C9076894005504%2C120.86.229.138%2C20230912173745%2C10000100000000050000000002191322%2C38EF38EAA1D7B71C982A52D6A550F389%2C-1%2C1%2C1%2C%2C%2C2%2C%2C%2C%2C2%2CEND$广东联通高清
广东少儿,http://120.87.4.26/PLTV/88888973/224/3221226666/10000100000000060000000002048491_0.smil/index.m3u8?rrsip=120.87.4.103&fmt=ts2hls&servicetype=1&icpid=&accounttype=1&limitflux=-1&limitdur=-1&GuardEncType=2&accountinfo=CIhTuLpr9mYdZglFbgG8R10lg%2BUgIuY5wNBlBpgwE%2F4li%2FC3qlZAkVRvmzofUB7xBCKLmA8tBjzjUcBEkH5y02Iy6aw8ITd%2BUIQP0IQJ1sv8B5UUxdSnDaE0ZpIw2Yox%3A20230912173745%2C9076894005504%2C120.86.229.138%2C20230912173745%2C10000100000000050000000002191321%2C38EF38EAA1D7B71C982A52D6A550F389%2C-1%2C1%2C1%2C%2C%2C2%2C%2C%2C%2C2%2CEND$广东联通高清
南方卫视,http://120.87.4.24/PLTV/88888973/224/3221226652/10000100000000060000000002048490_0.smil/index.m3u8?rrsip=120.87.4.103&fmt=ts2hls&servicetype=1&icpid=&accounttype=1&limitflux=-1&limitdur=-1&GuardEncType=2&accountinfo=CIhTuLpr9mYdZglFbgG8R10lg%2BUgIuY5wNBlBpgwE%2F4li%2FC3qlZAkVRvmzofUB7xBCKLmA8tBjzjUcBEkH5y02Iy6aw8ITd%2BUIQP0IQJ1suH9AzUFRAyvp8%2BchjNh4WD%3A20230912173745%2C9076894005504%2C120.86.229.138%2C20230912173745%2C10000100000000050000000002191320%2C38EF38EAA1D7B71C982A52D6A550F389%2C-1%2C1%2C1%2C%2C%2C2%2C%2C%2C%2C2%2CEND$广东联通高清
嘉佳卡通,http://120.87.4.11/PLTV/88888973/224/3221226663/10000100000000060000000002048489_0.smil/index.m3u8?rrsip=120.87.4.103&fmt=ts2hls&servicetype=1&icpid=&accounttype=1&limitflux=-1&limitdur=-1&GuardEncType=2&accountinfo=CIhTuLpr9mYdZglFbgG8R10lg%2BUgIuY5wNBlBpgwE%2F4li%2FC3qlZAkVRvmzofUB7xBCKLmA8tBjzjUcBEkH5y02Iy6aw8ITd%2BUIQP0IQJ1suZdhgAWBi3%2BhXLfylmD4rL%3A20230912173745%2C9076894005504%2C120.86.229.138%2C20230912173745%2C10000100000000050000000002191319%2C38EF38EAA1D7B71C982A52D6A550F389%2C-1%2C1%2C1%2C%2C%2C2%2C%2C%2C%2C2%2CEND$广东联通高清
嘉佳卡通,http://120.87.4.12/PLTV/88888973/224/3221226663/10000100000000060000000002048489_0.smil/index.m3u8?rrsip=120.87.4.103&fmt=ts2hls&servicetype=2&icpid=&accounttype=1&limitflux=-1&limitdur=-1&GuardEncType=2&accountinfo=CIhTuLpr9mYdZglFbgG8R10lg%2BUgIuY5wNBlBpgwE%2F4li%2FC3qlZAkVRvmzofUB7xBCKLmA8tBjzjUcBEkH5y02Iy6aw8ITd%2BUIQP0IQJ1suZdhgAWBi3%2BhXLfylmD4rL%3A20230912173745%2C9076894005504%2C120.86.229.138%2C20230912173745%2C10000100000000050000000002191319%2C38EF38EAA1D7B71C982A52D6A550F389%2C-1%2C1%2C1%2C%2C%2C7%2C%2C%2C%2C4%2CEND$广东联通高清
广东珠江,http://120.87.4.5/PLTV/88888973/224/3221226220/10000100000000060000000001339130_0.smil/index.m3u8?rrsip=120.87.4.103&fmt=ts2hls&servicetype=1&icpid=&accounttype=1&limitflux=-1&limitdur=-1&GuardEncType=2&accountinfo=CIhTuLpr9mYdZglFbgG8R10lg%2BUgIuY5wNBlBpgwE%2F4li%2FC3qlZAkVRvmzofUB7xBCKLmA8tBjzjUcBEkH5y02Iy6aw8ITd%2BUIQP0IQJ1suCXIjd0UAhX%2BzCSqu6BwEZ%3A20230912173745%2C9076894005504%2C120.86.229.138%2C20230912173745%2C10000100000000050000000001459159%2C38EF38EAA1D7B71C982A52D6A550F389%2C-1%2C1%2C1%2C%2C%2C2%2C%2C%2C%2C2%2CEND$广东联通高清
广东珠江,http://120.87.4.6/PLTV/88888973/224/3221226219/10000100000000060000000001339127_0.smil/index.m3u8?rrsip=120.87.4.103&fmt=ts2hls&servicetype=1&icpid=&accounttype=1&limitflux=-1&limitdur=-1&GuardEncType=2&accountinfo=CIhTuLpr9mYdZglFbgG8R10lg%2BUgIuY5wNBlBpgwE%2F4li%2FC3qlZAkVRvmzofUB7xBCKLmA8tBjzjUcBEkH5y02Iy6aw8ITd%2BUIQP0IQJ1suvThLA38CINPDj6wy8TDLp%3A20230912173745%2C9076894005504%2C120.86.229.138%2C20230912173745%2C10000100000000050000000001459156%2C38EF38EAA1D7B71C982A52D6A550F389%2C-1%2C1%2C1%2C%2C%2C2%2C%2C%2C%2C2%2CEND$广东联通高清
广东卫视,http://120.87.4.9/PLTV/88888973/224/3221225770/10000100000000060000000000337082_0.smil/index.m3u8?rrsip=120.87.4.103&fmt=ts2hls&servicetype=2&icpid=&accounttype=1&limitflux=-1&limitdur=-1&GuardEncType=2&accountinfo=CIhTuLpr9mYdZglFbgG8R10lg%2BUgIuY5wNBlBpgwE%2F4li%2FC3qlZAkVRvmzofUB7xBCKLmA8tBjzjUcBEkH5y02Iy6aw8ITd%2BUIQP0IQJ1svoHrOHaG5%2BfOedRM0PKSIQ%3A20230912173745%2C9076894005504%2C120.86.229.138%2C20230912173745%2C10000100000000050000000000298705%2C38EF38EAA1D7B71C982A52D6A550F389%2C-1%2C1%2C1%2C%2C%2C2%2C%2C%2C%2C2%2CEND$广东联通高清
广东体育,http://120.87.4.13/PLTV/88888973/224/3221225750/10000100000000060000000000334588_0.smil/index.m3u8?rrsip=120.87.4.103&fmt=ts2hls&servicetype=1&icpid=&accounttype=1&limitflux=-1&limitdur=-1&GuardEncType=2&accountinfo=CIhTuLpr9mYdZglFbgG8R10lg%2BUgIuY5wNBlBpgwE%2F4li%2FC3qlZAkVRvmzofUB7xBCKLmA8tBjzjUcBEkH5y02Iy6aw8ITd%2BUIQP0IQJ1stySUxPpm9DqzIQhQZ5u8WG%3A20230912173745%2C9076894005504%2C120.86.229.138%2C20230912173745%2C10000100000000050000000000296994%2C38EF38EAA1D7B71C982A52D6A550F389%2C-1%2C1%2C1%2C%2C%2C2%2C%2C%2C%2C2%2CEND$广东联通高清
广东体育,http://120.87.4.14/PLTV/88888973/224/3221225750/10000100000000060000000000334588_0.smil/index.m3u8?rrsip=120.87.4.103&fmt=ts2hls&servicetype=2&icpid=&accounttype=1&limitflux=-1&limitdur=-1&GuardEncType=2&accountinfo=CIhTuLpr9mYdZglFbgG8R10lg%2BUgIuY5wNBlBpgwE%2F4li%2FC3qlZAkVRvmzofUB7xBCKLmA8tBjzjUcBEkH5y02Iy6aw8ITd%2BUIQP0IQJ1stySUxPpm9DqzIQhQZ5u8WG%3A20230912173745%2C9076894005504%2C120.86.229.138%2C20230912173745%2C10000100000000050000000000296994%2C38EF38EAA1D7B71C982A52D6A550F389%2C-1%2C1%2C1%2C%2C%2C7%2C%2C%2C%2C4%2CEND$广东联通高清
广东科教,http://120.87.4.13/PLTV/88888973/224/3221225752/10000100000000060000000000334591_0.smil/index.m3u8?rrsip=120.87.4.103&fmt=ts2hls&servicetype=2&icpid=&accounttype=1&limitflux=-1&limitdur=-1&GuardEncType=2&accountinfo=CIhTuLpr9mYdZglFbgG8R10lg%2BUgIuY5wNBlBpgwE%2F4li%2FC3qlZAkVRvmzofUB7xBCKLmA8tBjzjUcBEkH5y02Iy6aw8ITd%2BUIQP0IQJ1suLtF7nxhWSCwlPV%2BmE6Ay0%3A20230912173745%2C9076894005504%2C120.86.229.138%2C20230912173745%2C10000100000000050000000000296996%2C38EF38EAA1D7B71C982A52D6A550F389%2C-1%2C1%2C1%2C%2C%2C7%2C%2C%2C%2C4%2CEND$广东联通高清
广东民生,http://120.87.4.11/PLTV/88888973/224/3221226660/10000100000000060000000002048488_0.smil/index.m3u8?rrsip=120.87.4.103&fmt=ts2hls&servicetype=2&icpid=&accounttype=1&limitflux=-1&limitdur=-1&GuardEncType=2&accountinfo=CIhTuLpr9mYdZglFbgG8R10lg%2BUgIuY5wNBlBpgwE%2F4li%2FC3qlZAkVRvmzofUB7xBCKLmA8tBjzjUcBEkH5y02Iy6aw8ITd%2BUIQP0IQJ1svsYnwNwxgciKDxuTG3Kebu%3A20230912173745%2C9076894005504%2C120.86.229.138%2C20230912173745%2C10000100000000050000000002191318%2C38EF38EAA1D7B71C982A52D6A550F389%2C-1%2C1%2C1%2C%2C%2C7%2C%2C%2C%2C4%2CEND$广东联通高清
🇨🇳 | 其他频道,#genre#
金鹰卡通,http://120.87.4.11/PLTV/88888973/224/3221226664/10000100000000060000000002070298_0.smil/index.m3u8?rrsip=120.87.4.103&fmt=ts2hls&servicetype=1&icpid=&accounttype=1&limitflux=-1&limitdur=-1&GuardEncType=2&accountinfo=CIhTuLpr9mYdZglFbgG8R10lg%2BUgIuY5wNBlBpgwE%2F4li%2FC3qlZAkVRvmzofUB7xBCKLmA8tBjzjUcBEkH5y02Iy6aw8ITd%2BUIQP0IQJ1suOg7Zrjr74J%2BCBsz%2BEE0qj%3A20230912173745%2C9076894005504%2C120.86.229.138%2C20230912173745%2C10000100000000050000000002213756%2C38EF38EAA1D7B71C982A52D6A550F389%2C-1%2C1%2C1%2C%2C%2C2%2C%2C%2C%2C2%2CEND$广东联通高清
金鹰纪实,http://120.87.4.5/PLTV/88888973/224/3221225755/10000100000000060000000000334608_0.smil/index.m3u8?rrsip=120.87.4.103&fmt=ts2hls&servicetype=2&icpid=&accounttype=1&limitflux=-1&limitdur=-1&GuardEncType=2&accountinfo=CIhTuLpr9mYdZglFbgG8R10lg%2BUgIuY5wNBlBpgwE%2F4li%2FC3qlZAkVRvmzofUB7xBCKLmA8tBjzjUcBEkH5y02Iy6aw8ITd%2BUIQP0IQJ1stMQbzQANKgm%2F%2FcQ6CaYqzf%3A20230912173745%2C9076894005504%2C120.86.229.138%2C20230912173745%2C10000100000000050000000000297010%2C38EF38EAA1D7B71C982A52D6A550F389%2C-1%2C1%2C1%2C%2C%2C7%2C%2C%2C%2C4%2CEND$广东联通高清
世界地理,http://120.87.4.8/PLTV/88888973/224/3221226617/10000100000000060000000001611742_0.smil/index.m3u8?rrsip=120.87.4.103&fmt=ts2hls&servicetype=1&icpid=&accounttype=1&limitflux=-1&limitdur=-1&GuardEncType=2&accountinfo=CIhTuLpr9mYdZglFbgG8R10lg%2BUgIuY5wNBlBpgwE%2F4li%2FC3qlZAkVRvmzofUB7xBCKLmA8tBjzjUcBEkH5y02Iy6aw8ITd%2BUIQP0IQJ1ssFgYg3A59FIvnp9aFRYL4%2F%3A20230912173745%2C9076894005504%2C120.86.229.138%2C20230912173745%2C10000100000000050000000001749897%2C38EF38EAA1D7B71C982A52D6A550F389%2C-1%2C1%2C1%2C%2C%2C7%2C%2C%2C%2C4%2CEND$广东联通高清
世界地理,http://120.87.4.7/PLTV/88888973/224/3221226617/10000100000000060000000001611742_0.smil/index.m3u8?rrsip=120.87.4.103&fmt=ts2hls&servicetype=2&icpid=&accounttype=1&limitflux=-1&limitdur=-1&GuardEncType=2&accountinfo=CIhTuLpr9mYdZglFbgG8R10lg%2BUgIuY5wNBlBpgwE%2F4li%2FC3qlZAkVRvmzofUB7xBCKLmA8tBjzjUcBEkH5y02Iy6aw8ITd%2BUIQP0IQJ1ssFgYg3A59FIvnp9aFRYL4%2F%3A20230912173745%2C9076894005504%2C120.86.229.138%2C20230912173745%2C10000100000000050000000001749897%2C38EF38EAA1D7B71C982A52D6A550F389%2C-1%2C1%2C1%2C%2C%2C7%2C%2C%2C%2C4%2CEND$广东联通高清
怀旧剧场,http://120.87.4.7/PLTV/88888973/224/3221226614/10000100000000060000000001611743_0.smil/index.m3u8?rrsip=120.87.4.103&fmt=ts2hls&servicetype=1&icpid=&accounttype=1&limitflux=-1&limitdur=-1&GuardEncType=2&accountinfo=CIhTuLpr9mYdZglFbgG8R10lg%2BUgIuY5wNBlBpgwE%2F4li%2FC3qlZAkVRvmzofUB7xBCKLmA8tBjzjUcBEkH5y02Iy6aw8ITd%2BUIQP0IQJ1su7Ny3t2EONlxveC76Wlp7b%3A20230912173745%2C9076894005504%2C120.86.229.138%2C20230912173745%2C10000100000000050000000001749898%2C38EF38EAA1D7B71C982A52D6A550F389%2C-1%2C1%2C1%2C%2C%2C7%2C%2C%2C%2C4%2CEND$广东联通高清
怀旧剧场,http://120.87.4.7/PLTV/88888973/224/3221226614/10000100000000060000000001611743_0.smil/index.m3u8?rrsip=120.87.4.103&fmt=ts2hls&servicetype=2&icpid=&accounttype=1&limitflux=-1&limitdur=-1&GuardEncType=2&accountinfo=CIhTuLpr9mYdZglFbgG8R10lg%2BUgIuY5wNBlBpgwE%2F4li%2FC3qlZAkVRvmzofUB7xBCKLmA8tBjzjUcBEkH5y02Iy6aw8ITd%2BUIQP0IQJ1su7Ny3t2EONlxveC76Wlp7b%3A20230912173745%2C9076894005504%2C120.86.229.138%2C20230912173745%2C10000100000000050000000001749898%2C38EF38EAA1D7B71C982A52D6A550F389%2C-1%2C1%2C1%2C%2C%2C7%2C%2C%2C%2C4%2CEND$广东联通高清
风云足球,http://120.87.4.7/PLTV/88888973/224/3221226616/10000100000000060000000001611739_0.smil/index.m3u8?rrsip=120.87.4.103&fmt=ts2hls&servicetype=1&icpid=&accounttype=1&limitflux=-1&limitdur=-1&GuardEncType=2&accountinfo=CIhTuLpr9mYdZglFbgG8R10lg%2BUgIuY5wNBlBpgwE%2F4li%2FC3qlZAkVRvmzofUB7xBCKLmA8tBjzjUcBEkH5y02Iy6aw8ITd%2BUIQP0IQJ1stxioHIzY4eCR0EFZbiB2%2B%2F%3A20230912173745%2C9076894005504%2C120.86.229.138%2C20230912173745%2C10000100000000050000000001749895%2C38EF38EAA1D7B71C982A52D6A550F389%2C-1%2C1%2C1%2C%2C%2C2%2C%2C%2C%2C2%2CEND$广东联通高清
风云足球,http://120.87.4.8/PLTV/88888973/224/3221226616/10000100000000060000000001611739_0.smil/index.m3u8?rrsip=120.87.4.103&fmt=ts2hls&servicetype=2&icpid=&accounttype=1&limitflux=-1&limitdur=-1&GuardEncType=2&accountinfo=CIhTuLpr9mYdZglFbgG8R10lg%2BUgIuY5wNBlBpgwE%2F4li%2FC3qlZAkVRvmzofUB7xBCKLmA8tBjzjUcBEkH5y02Iy6aw8ITd%2BUIQP0IQJ1stxioHIzY4eCR0EFZbiB2%2B%2F%3A20230912173745%2C9076894005504%2C120.86.229.138%2C20230912173745%2C10000100000000050000000001749895%2C38EF38EAA1D7B71C982A52D6A550F389%2C20230912173745%2C10000100000000050000000001749895%2C38EF38EAA1D7B71C982A52D6A550F389%2C-1%2C1%2C1%2C%2C%2C2%2C%2C%2C%2C2%2CEND$广东联通高清
央视台球,http://120.87.4.5/PLTV/88888973/224/3221226611/10000100000000060000000001611741_0.smil/index.m3u8?rrsip=120.87.4.103&fmt=ts2hls&servicetype=1&icpid=&accounttype=1&limitflux=-1&limitdur=-1&GuardEncType=2&accountinfo=CIhTuLpr9mYdZglFbgG8R10lg%2BUgIuY5wNBlBpgwE%2F4li%2FC3qlZAkVRvmzofUB7xBCKLmA8tBjzjUcBEkH5y02Iy6aw8ITd%2BUIQP0IQJ1suPYM07c1097Oit%2FdeUwtVa%3A20230912173745%2C9076894005504%2C120.86.229.138%2C20230912173745%2C10000100000000050000000001749896%2C38EF38EAA1D7B71C982A52D6A550F389%2C-1%2C1%2C1%2C%2C%2C2%2C%2C%2C%2C2%2CEND$广东联通高清
央视台球,http://120.87.4.6/PLTV/88888973/224/3221226611/10000100000000060000000001611741_0.smil/index.m3u8?rrsip=120.87.4.103&fmt=ts2hls&servicetype=2&icpid=&accounttype=1&limitflux=-1&limitdur=-1&GuardEncType=2&accountinfo=CIhTuLpr9mYdZglFbgG8R10lg%2BUgIuY5wNBlBpgwE%2F4li%2FC3qlZAkVRvmzofUB7xBCKLmA8tBjzjUcBEkH5y02Iy6aw8ITd%2BUIQP0IQJ1suPYM07c1097Oit%2FdeUwtVa%3A20230912173745%2C9076894005504%2C120.86.229.138%2C20230912173745%2C10000100000000050000000001749896%2C38EF38EAA1D7B71C982A52D6A550F389%2C-1%2C1%2C1%2C%2C%2C2%2C%2C%2C%2C2%2CEND$广东联通高清
兵器科技,http://120.87.4.5/PLTV/88888973/224/3221226613/10000100000000060000000001611737_0.smil/index.m3u8?rrsip=120.87.4.103&fmt=ts2hls&servicetype=1&icpid=&accounttype=1&limitflux=-1&limitdur=-1&GuardEncType=2&accountinfo=CIhTuLpr9mYdZglFbgG8R10lg%2BUgIuY5wNBlBpgwE%2F4li%2FC3qlZAkVRvmzofUB7xBCKLmA8tBjzjUcBEkH5y02Iy6aw8ITd%2BUIQP0IQJ1ssBlQ%2B6zeDfc4pVWov0M3dp%3A20230912173745%2C9076894005504%2C120.86.229.138%2C20230912173745%2C10000100000000050000000001749892%2C38EF38EAA1D7B71C982A52D6A550F389%2C-1%2C1%2C1%2C%2C%2C2%2C%2C%2C%2C2%2CEND$广东联通高清
风云剧场,http://120.87.4.9/PLTV/88888973/224/3221226620/10000100000000060000000001611762_0.smil/index.m3u8?rrsip=120.87.4.103&fmt=ts2hls&servicetype=1&icpid=&accounttype=1&limitflux=-1&limitdur=-1&GuardEncType=2&accountinfo=CIhTuLpr9mYdZglFbgG8R10lg%2BUgIuY5wNBlBpgwE%2F4li%2FC3qlZAkVRvmzofUB7xBCKLmA8tBjzjUcBEkH5y02Iy6aw8ITd%2BUIQP0IQJ1stPAvPhMIUCTUbDRIweuzFW%3A20230912173745%2C9076894005504%2C120.86.229.138%2C20230912173745%2C10000100000000050000000001749912%2C38EF38EAA1D7B71C982A52D6A550F389%2C-1%2C1%2C1%2C%2C%2C2%2C%2C%2C%2C2%2CEND$广东联通高清
文化精品,http://120.87.4.24/PLTV/88888973/224/3221226630/10000100000000060000000001611768_0.smil/index.m3u8?rrsip=120.87.4.103&fmt=ts2hls&servicetype=1&icpid=&accounttype=1&limitflux=-1&limitdur=-1&GuardEncType=2&accountinfo=CIhTuLpr9mYdZglFbgG8R10lg%2BUgIuY5wNBlBpgwE%2F4li%2FC3qlZAkVRvmzofUB7xBCKLmA8tBjzjUcBEkH5y02Iy6aw8ITd%2BUIQP0IQJ1sv5f%2Fjyin3YYtoxdXsofOHq%3A20230912173745%2C9076894005504%2C120.86.229.138%2C20230912173745%2C10000100000000050000000001749923%2C38EF38EAA1D7B71C982A52D6A550F389%2C-1%2C1%2C1%2C%2C%2C2%2C%2C%2C%2C2%2CEND$广东联通高清
第一剧场,http://120.87.4.5/PLTV/88888973/224/3221226619/10000100000000060000000001611770_0.smil/index.m3u8?rrsip=120.87.4.103&fmt=ts2hls&servicetype=1&icpid=&accounttype=1&limitflux=-1&limitdur=-1&GuardEncType=2&accountinfo=CIhTuLpr9mYdZglFbgG8R10lg%2BUgIuY5wNBlBpgwE%2F4li%2FC3qlZAkVRvmzofUB7xBCKLmA8tBjzjUcBEkH5y02Iy6aw8ITd%2BUIQP0IQJ1st%2F9QhaVV9pYHrKbVoh%2FImJ%3A20230912173745%2C9076894005504%2C120.86.229.138%2C20230912173745%2C10000100000000050000000001749924%2C38EF38EAA1D7B71C982A52D6A550F389%2C-1%2C1%2C1%2C%2C%2C2%2C%2C%2C%2C2%2CEND$广东联通高清
第一剧场,http://120.87.4.6/PLTV/88888973/224/3221226619/10000100000000060000000001611770_0.smil/index.m3u8?rrsip=120.87.4.103&fmt=ts2hls&servicetype=2&icpid=&accounttype=1&limitflux=-1&limitdur=-1&GuardEncType=2&accountinfo=CIhTuLpr9mYdZglFbgG8R10lg%2BUgIuY5wNBlBpgwE%2F4li%2FC3qlZAkVRvmzofUB7xBCKLmA8tBjzjUcBEkH5y02Iy6aw8ITd%2BUIQP0IQJ1st%2F9QhaVV9pYHrKbVoh%2FImJ%3A20230912173745%2C9076894005504%2C120.86.229.138%2C20230912173745%2C10000100000000050000000001749924%2C38EF38EAA1D7B71C982A52D6A550F389%2C-1%2C1%2C1%2C%2C%2C7%2C%2C%2C%2C4%2CEND$广东联通高清
风云音乐,http://120.87.4.5/PLTV/88888973/224/3221226627/10000100000000060000000001611773_0.smil/index.m3u8?rrsip=120.87.4.103&fmt=ts2hls&servicetype=1&icpid=&accounttype=1&limitflux=-1&limitdur=-1&GuardEncType=2&accountinfo=CIhTuLpr9mYdZglFbgG8R10lg%2BUgIuY5wNBlBpgwE%2F4li%2FC3qlZAkVRvmzofUB7xBCKLmA8tBjzjUcBEkH5y02Iy6aw8ITd%2BUIQP0IQJ1stYRGwPCsFLwdiqiHgvtdBE%3A20230912173745%2C9076894005504%2C120.86.229.138%2C20230912173745%2C10000100000000050000000001749926%2C38EF38EAA1D7B71C982A52D6A550F389%2C-1%2C1%2C1%2C%2C%2C2%2C%2C%2C%2C2%2CEND$广东联通高清
风云音乐,http://120.87.4.24/PLTV/88888973/224/3221226627/10000100000000060000000001611773_0.smil/index.m3u8?rrsip=120.87.4.103&fmt=ts2hls&servicetype=2&icpid=&accounttype=1&limitflux=-1&limitdur=-1&GuardEncType=2&accountinfo=CIhTuLpr9mYdZglFbgG8R10lg%2BUgIuY5wNBlBpgwE%2F4li%2FC3qlZAkVRvmzofUB7xBCKLmA8tBjzjUcBEkH5y02Iy6aw8ITd%2BUIQP0IQJ1stYRGwPCsFLwdiqiHgvtdBE%3A20230912173745%2C9076894005504%2C120.86.229.138%2C20230912173745%2C10000100000000050000000001749926%2C38EF38EAA1D7B71C982A52D6A550F389%2C-1%2C1%2C1%2C%2C%2C7%2C%2C%2C%2C4%2CEND$广东联通高清
高网,http://120.87.4.7/PLTV/88888973/224/3221226608/10000100000000060000000001611736_0.smil/index.m3u8?rrsip=120.87.4.103&fmt=ts2hls&servicetype=1&icpid=&accounttype=1&limitflux=-1&limitdur=-1&GuardEncType=2&accountinfo=CIhTuLpr9mYdZglFbgG8R10lg%2BUgIuY5wNBlBpgwE%2F4li%2FC3qlZAkVRvmzofUB7xBCKLmA8tBjzjUcBEkH5y02Iy6aw8ITd%2BUIQP0IQJ1svjL3cHaLEZoyQ7yZACCzo3%3A20230912173745%2C9076894005504%2C120.86.229.138%2C20230912173745%2C10000100000000050000000001749891%2C38EF38EAA1D7B71C982A52D6A550F389%2C-1%2C1%2C1%2C%2C%2C2%2C%2C%2C%2C2%2CEND$广东联通高清
纪实人文,http://120.87.4.7/PLTV/88888973/224/3221226639/10000100000000060000000001621394_0.smil/index.m3u8?rrsip=120.87.4.103&fmt=ts2hls&servicetype=1&icpid=&accounttype=1&limitflux=-1&limitdur=-1&GuardEncType=2&accountinfo=CIhTuLpr9mYdZglFbgG8R10lg%2BUgIuY5wNBlBpgwE%2F4li%2FC3qlZAkVRvmzofUB7xBCKLmA8tBjzjUcBEkH5y02Iy6aw8ITd%2BUIQP0IQJ1stAeEa1FCCsK2WAztfiPSOQ%3A20230912173745%2C9076894005504%2C120.86.229.138%2C20230912173745%2C10000100000000050000000001759723%2C38EF38EAA1D7B71C982A52D6A550F389%2C-1%2C1%2C1%2C%2C%2C2%2C%2C%2C%2C2%2CEND$广东联通高清
纪实人文,http://120.87.4.8/PLTV/88888973/224/3221226639/10000100000000060000000001621394_0.smil/index.m3u8?rrsip=120.87.4.103&fmt=ts2hls&servicetype=2&icpid=&accounttype=1&limitflux=-1&limitdur=-1&GuardEncType=2&accountinfo=CIhTuLpr9mYdZglFbgG8R10lg%2BUgIuY5wNBlBpgwE%2F4li%2FC3qlZAkVRvmzofUB7xBCKLmA8tBjzjUcBEkH5y02Iy6aw8ITd%2BUIQP0IQJ1stAeEa1FCCsK2WAztfiPSOQ%3A20230912173745%2C9076894005504%2C120.86.229.138%2C20230912173745%2C10000100000000050000000001759723%2C38EF38EAA1D7B71C982A52D6A550F389%2C-1%2C1%2C1%2C%2C%2C7%2C%2C%2C%2C4%2CEND$广东联通高清



